what,kind,bundleId,bundleVersion,description,time
started,bundle,com.android.ide.eclipse.ndk,22.0.5.v201307292155--757759,"com.android.ide.eclipse.ndk",1380673542808
activated,editor,org.eclipse.jdt.ui,3.7.2.v20120109-1427,"org.eclipse.jdt.ui.CompilationUnitEditor",1380673543258
deactivated,workbench,org.eclipse.ui.workbench,3.7.1.v20120104-1859,"",1380673544238
activated,workbench,org.eclipse.ui.workbench,3.7.1.v20120104-1859,"",1380673544623
activated,view,org.eclipse.ui.console,3.5.100.v20111007_r372,"org.eclipse.ui.console.ConsoleView",1380673545404
activated,editor,org.eclipse.jdt.ui,3.7.2.v20120109-1427,"org.eclipse.jdt.ui.CompilationUnitEditor",1380673549099
deactivated,workbench,org.eclipse.ui.workbench,3.7.1.v20120104-1859,"",1380673552394
activated,workbench,org.eclipse.ui.workbench,3.7.1.v20120104-1859,"",1380673598149
activated,view,org.eclipse.jdt.ui,3.7.2.v20120109-1427,"org.eclipse.jdt.ui.PackageExplorer",1380673600878
executed,command,org.eclipse.ui,3.7.0.v20110928-1505,"org.eclipse.ui.file.refresh",1380673602376
activated,editor,org.eclipse.jdt.ui,3.7.2.v20120109-1427,"org.eclipse.jdt.ui.CompilationUnitEditor",1380673602727
activated,editor,org.eclipse.jdt.ui,3.7.2.v20120109-1427,"org.eclipse.jdt.ui.CompilationUnitEditor",1380673603249
deactivated,workbench,org.eclipse.ui.workbench,3.7.1.v20120104-1859,"",1380673604461
activated,workbench,org.eclipse.ui.workbench,3.7.1.v20120104-1859,"",1380673604832
activated,view,org.eclipse.ui.console,3.5.100.v20111007_r372,"org.eclipse.ui.console.ConsoleView",1380673605881
deactivated,workbench,org.eclipse.ui.workbench,3.7.1.v20120104-1859,"",1380673611128
activated,workbench,org.eclipse.ui.workbench,3.7.1.v20120104-1859,"",1380673616806
activated,view,org.eclipse.jdt.ui,3.7.2.v20120109-1427,"org.eclipse.jdt.ui.PackageExplorer",1380673618268
executed,command,org.eclipse.ui,3.7.0.v20110928-1505,"org.eclipse.ui.file.refresh",1380673619744
activated,editor,org.eclipse.jdt.ui,3.7.2.v20120109-1427,"org.eclipse.jdt.ui.CompilationUnitEditor",1380673620075
deactivated,workbench,org.eclipse.ui.workbench,3.7.1.v20120104-1859,"",1380673621801
activated,workbench,org.eclipse.ui.workbench,3.7.1.v20120104-1859,"",1380673622182
activated,view,org.eclipse.ui.console,3.5.100.v20111007_r372,"org.eclipse.ui.console.ConsoleView",1380673622652
deactivated,workbench,org.eclipse.ui.workbench,3.7.1.v20120104-1859,"",1380673645744
activated,workbench,org.eclipse.ui.workbench,3.7.1.v20120104-1859,"",1380673660730
activated,view,org.eclipse.jdt.ui,3.7.2.v20120109-1427,"org.eclipse.jdt.ui.PackageExplorer",1380673661673
executed,command,org.eclipse.ui,3.7.0.v20110928-1505,"org.eclipse.ui.file.refresh",1380673662982
activated,editor,org.eclipse.jdt.ui,3.7.2.v20120109-1427,"org.eclipse.jdt.ui.CompilationUnitEditor",1380673663314
deactivated,workbench,org.eclipse.ui.workbench,3.7.1.v20120104-1859,"",1380673664753
activated,workbench,org.eclipse.ui.workbench,3.7.1.v20120104-1859,"",1380673665131
activated,view,org.eclipse.ui.console,3.5.100.v20111007_r372,"org.eclipse.ui.console.ConsoleView",1380673665972
deactivated,workbench,org.eclipse.ui.workbench,3.7.1.v20120104-1859,"",1380673694240
activated,workbench,org.eclipse.ui.workbench,3.7.1.v20120104-1859,"",1380674062616
activated,editor,org.eclipse.jdt.ui,3.7.2.v20120109-1427,"org.eclipse.jdt.ui.CompilationUnitEditor",1380674064253
executed,command,org.eclipse.jdt.ui,3.7.2.v20120109-1427,"org.eclipse.jdt.ui.edit.text.java.organize.imports",1380674082115
deactivated,workbench,org.eclipse.ui.workbench,3.7.1.v20120104-1859,"",1380674106234
activated,workbench,org.eclipse.ui.workbench,3.7.1.v20120104-1859,"",1380674266965
deactivated,workbench,org.eclipse.ui.workbench,3.7.1.v20120104-1859,"",1380674267670
activated,workbench,org.eclipse.ui.workbench,3.7.1.v20120104-1859,"",1380674518983
deactivated,workbench,org.eclipse.ui.workbench,3.7.1.v20120104-1859,"",1380674532699
activated,workbench,org.eclipse.ui.workbench,3.7.1.v20120104-1859,"",1380674534908
executed,command,org.eclipse.ui,3.7.0.v20110928-1505,"org.eclipse.ui.edit.cut",1380674581495
executed,command,org.eclipse.ui,3.7.0.v20110928-1505,"org.eclipse.ui.edit.paste",1380674585015
deactivated,workbench,org.eclipse.ui.workbench,3.7.1.v20120104-1859,"",1380674615300
activated,workbench,org.eclipse.ui.workbench,3.7.1.v20120104-1859,"",1380674615358
deactivated,workbench,org.eclipse.ui.workbench,3.7.1.v20120104-1859,"",1380674639517
activated,workbench,org.eclipse.ui.workbench,3.7.1.v20120104-1859,"",1380674639559
deactivated,workbench,org.eclipse.ui.workbench,3.7.1.v20120104-1859,"",1380674641840
activated,workbench,org.eclipse.ui.workbench,3.7.1.v20120104-1859,"",1380674659169
deactivated,workbench,org.eclipse.ui.workbench,3.7.1.v20120104-1859,"",1380674660940
activated,workbench,org.eclipse.ui.workbench,3.7.1.v20120104-1859,"",1380674662918
activated,view,org.eclipse.jdt.ui,3.7.2.v20120109-1427,"org.eclipse.jdt.ui.PackageExplorer",1380674668358
executed,command,org.eclipse.ui,3.7.0.v20110928-1505,"org.eclipse.ui.file.refresh",1380674669322
activated,editor,org.eclipse.jdt.ui,3.7.2.v20120109-1427,"org.eclipse.jdt.ui.CompilationUnitEditor",1380674669808
activated,editor,org.eclipse.jdt.ui,3.7.2.v20120109-1427,"org.eclipse.jdt.ui.CompilationUnitEditor",1380674672973
deactivated,workbench,org.eclipse.ui.workbench,3.7.1.v20120104-1859,"",1380674673574
activated,workbench,org.eclipse.ui.workbench,3.7.1.v20120104-1859,"",1380674674548
deactivated,workbench,org.eclipse.ui.workbench,3.7.1.v20120104-1859,"",1380674674895
activated,workbench,org.eclipse.ui.workbench,3.7.1.v20120104-1859,"",1380674675276
activated,view,org.eclipse.ui.console,3.5.100.v20111007_r372,"org.eclipse.ui.console.ConsoleView",1380674676682
activated,editor,org.eclipse.jdt.ui,3.7.2.v20120109-1427,"org.eclipse.jdt.ui.CompilationUnitEditor",1380674686055
deactivated,workbench,org.eclipse.ui.workbench,3.7.1.v20120104-1859,"",1380674689812
activated,workbench,org.eclipse.ui.workbench,3.7.1.v20120104-1859,"",1380674718996
activated,editor,org.eclipse.jdt.ui,3.7.2.v20120109-1427,"org.eclipse.jdt.ui.CompilationUnitEditor",1380674720145
deactivated,workbench,org.eclipse.ui.workbench,3.7.1.v20120104-1859,"",1380674720920
activated,workbench,org.eclipse.ui.workbench,3.7.1.v20120104-1859,"",1380674721283
activated,view,org.eclipse.jdt.ui,3.7.2.v20120109-1427,"org.eclipse.jdt.ui.PackageExplorer",1380674724194
executed,command,org.eclipse.ui,3.7.0.v20110928-1505,"org.eclipse.ui.file.refresh",1380674725245
activated,editor,org.eclipse.jdt.ui,3.7.2.v20120109-1427,"org.eclipse.jdt.ui.CompilationUnitEditor",1380674725961
deactivated,workbench,org.eclipse.ui.workbench,3.7.1.v20120104-1859,"",1380674726942
activated,workbench,org.eclipse.ui.workbench,3.7.1.v20120104-1859,"",1380674733969
activated,editor,org.eclipse.jdt.ui,3.7.2.v20120109-1427,"org.eclipse.jdt.ui.CompilationUnitEditor",1380674735664
deactivated,workbench,org.eclipse.ui.workbench,3.7.1.v20120104-1859,"",1380674755989
activated,workbench,org.eclipse.ui.workbench,3.7.1.v20120104-1859,"",1380674758606
deactivated,workbench,org.eclipse.ui.workbench,3.7.1.v20120104-1859,"",1380674759529
activated,workbench,org.eclipse.ui.workbench,3.7.1.v20120104-1859,"",1380674819226
activated,editor,org.eclipse.jdt.ui,3.7.2.v20120109-1427,"org.eclipse.jdt.ui.CompilationUnitEditor",1380674985450
activated,editor,org.eclipse.jdt.ui,3.7.2.v20120109-1427,"org.eclipse.jdt.ui.CompilationUnitEditor",1380674986471
activated,editor,org.eclipse.jdt.ui,3.7.2.v20120109-1427,"org.eclipse.jdt.ui.CompilationUnitEditor",1380675019884
activated,editor,org.eclipse.jdt.ui,3.7.2.v20120109-1427,"org.eclipse.jdt.ui.CompilationUnitEditor",1380675020936
activated,editor,org.eclipse.jdt.ui,3.7.2.v20120109-1427,"org.eclipse.jdt.ui.CompilationUnitEditor",1380675037297
deactivated,workbench,org.eclipse.ui.workbench,3.7.1.v20120104-1859,"",1380675038305
activated,workbench,org.eclipse.ui.workbench,3.7.1.v20120104-1859,"",1380675052596
deactivated,workbench,org.eclipse.ui.workbench,3.7.1.v20120104-1859,"",1380675061364
activated,workbench,org.eclipse.ui.workbench,3.7.1.v20120104-1859,"",1380676451408
activated,editor,org.eclipse.jdt.ui,3.7.2.v20120109-1427,"org.eclipse.jdt.ui.CompilationUnitEditor",1380676452942
activated,editor,org.eclipse.jdt.ui,3.7.2.v20120109-1427,"org.eclipse.jdt.ui.CompilationUnitEditor",1380676510527
deactivated,workbench,org.eclipse.ui.workbench,3.7.1.v20120104-1859,"",1380676511247
activated,workbench,org.eclipse.ui.workbench,3.7.1.v20120104-1859,"",1380676512186
deactivated,workbench,org.eclipse.ui.workbench,3.7.1.v20120104-1859,"",1380676512559
activated,workbench,org.eclipse.ui.workbench,3.7.1.v20120104-1859,"",1380676515831
activated,editor,org.eclipse.jdt.ui,3.7.2.v20120109-1427,"org.eclipse.jdt.ui.CompilationUnitEditor",1380676517135
executed,command,org.eclipse.ui,3.7.0.v20110928-1505,"org.eclipse.ui.edit.undo",1380676518119
executed,command,org.eclipse.ui,3.7.0.v20110928-1505,"org.eclipse.ui.edit.undo",1380676518519
executed,command,org.eclipse.ui,3.7.0.v20110928-1505,"org.eclipse.ui.edit.undo",1380676518903
executed,command,org.eclipse.ui,3.7.0.v20110928-1505,"org.eclipse.ui.edit.undo",1380676519636
executed,command,org.eclipse.ui,3.7.0.v20110928-1505,"org.eclipse.ui.edit.undo",1380676520853
executed,command,org.eclipse.ui,3.7.0.v20110928-1505,"org.eclipse.ui.edit.undo",1380676524582
executed,command,org.eclipse.ui,3.7.0.v20110928-1505,"org.eclipse.ui.edit.undo",1380676525207
executed,command,org.eclipse.ui,3.7.0.v20110928-1505,"org.eclipse.ui.edit.undo",1380676525765
executed,command,org.eclipse.ui,3.7.0.v20110928-1505,"org.eclipse.ui.edit.undo",1380676527477
executed,command,org.eclipse.ui,3.7.0.v20110928-1505,"org.eclipse.ui.edit.undo",1380676529166
activated,editor,org.eclipse.jdt.ui,3.7.2.v20120109-1427,"org.eclipse.jdt.ui.CompilationUnitEditor",1380676591512
deactivated,workbench,org.eclipse.ui.workbench,3.7.1.v20120104-1859,"",1380676592207
activated,workbench,org.eclipse.ui.workbench,3.7.1.v20120104-1859,"",1380676593272
deactivated,workbench,org.eclipse.ui.workbench,3.7.1.v20120104-1859,"",1380676593321
activated,workbench,org.eclipse.ui.workbench,3.7.1.v20120104-1859,"",1380676594444
activated,editor,org.eclipse.jdt.ui,3.7.2.v20120109-1427,"org.eclipse.jdt.ui.CompilationUnitEditor",1380676595312
activated,editor,org.eclipse.jdt.ui,3.7.2.v20120109-1427,"org.eclipse.jdt.ui.CompilationUnitEditor",1380676602984
deactivated,workbench,org.eclipse.ui.workbench,3.7.1.v20120104-1859,"",1380676603961
activated,workbench,org.eclipse.ui.workbench,3.7.1.v20120104-1859,"",1380676610360
deactivated,workbench,org.eclipse.ui.workbench,3.7.1.v20120104-1859,"",1380676610705
activated,workbench,org.eclipse.ui.workbench,3.7.1.v20120104-1859,"",1380676614923
activated,view,org.eclipse.jdt.ui,3.7.2.v20120109-1427,"org.eclipse.jdt.ui.PackageExplorer",1380676622652
activated,editor,org.eclipse.jdt.ui,3.7.2.v20120109-1427,"org.eclipse.jdt.ui.CompilationUnitEditor",1380676625603
executed,command,org.eclipse.jdt.ui,3.7.2.v20120109-1427,"org.eclipse.jdt.ui.edit.text.java.organize.imports",1380676651097
deactivated,workbench,org.eclipse.ui.workbench,3.7.1.v20120104-1859,"",1380676731251
activated,workbench,org.eclipse.ui.workbench,3.7.1.v20120104-1859,"",1380676737119
deactivated,workbench,org.eclipse.ui.workbench,3.7.1.v20120104-1859,"",1380676743282
activated,workbench,org.eclipse.ui.workbench,3.7.1.v20120104-1859,"",1380676809635
executed,command,org.eclipse.jdt.ui,3.7.2.v20120109-1427,"org.eclipse.jdt.ui.edit.text.java.organize.imports",1380676821198
deactivated,workbench,org.eclipse.ui.workbench,3.7.1.v20120104-1859,"",1380676842418
activated,workbench,org.eclipse.ui.workbench,3.7.1.v20120104-1859,"",1380676845356
executed,command,org.eclipse.jdt.ui,3.7.2.v20120109-1427,"org.eclipse.jdt.ui.edit.text.java.organize.imports",1380676864211
executed,command,org.eclipse.jdt.ui,3.7.2.v20120109-1427,"org.eclipse.jdt.ui.edit.text.java.organize.imports",1380676909319
activated,view,org.eclipse.jdt.ui,3.7.2.v20120109-1427,"org.eclipse.jdt.ui.JavadocView",1380676915937
activated,editor,org.eclipse.jdt.ui,3.7.2.v20120109-1427,"org.eclipse.jdt.ui.CompilationUnitEditor",1380676930168
activated,editor,org.eclipse.jdt.ui,3.7.2.v20120109-1427,"org.eclipse.jdt.ui.CompilationUnitEditor",1380676958973
activated,editor,org.eclipse.jdt.ui,3.7.2.v20120109-1427,"org.eclipse.jdt.ui.CompilationUnitEditor",1380676960075
activated,editor,org.eclipse.jdt.ui,3.7.2.v20120109-1427,"org.eclipse.jdt.ui.CompilationUnitEditor",1380676961431
activated,editor,org.eclipse.jdt.ui,3.7.2.v20120109-1427,"org.eclipse.jdt.ui.CompilationUnitEditor",1380676963304
deactivated,workbench,org.eclipse.ui.workbench,3.7.1.v20120104-1859,"",1380676990937
activated,workbench,org.eclipse.ui.workbench,3.7.1.v20120104-1859,"",1380676990998
activated,editor,org.eclipse.jdt.ui,3.7.2.v20120109-1427,"org.eclipse.jdt.ui.CompilationUnitEditor",1380676994132
deactivated,workbench,org.eclipse.ui.workbench,3.7.1.v20120104-1859,"",1380676994797
activated,workbench,org.eclipse.ui.workbench,3.7.1.v20120104-1859,"",1380676995717
deactivated,workbench,org.eclipse.ui.workbench,3.7.1.v20120104-1859,"",1380676996092
activated,workbench,org.eclipse.ui.workbench,3.7.1.v20120104-1859,"",1380677001961
activated,editor,org.eclipse.jdt.ui,3.7.2.v20120109-1427,"org.eclipse.jdt.ui.CompilationUnitEditor",1380677003687
activated,editor,org.eclipse.jdt.ui,3.7.2.v20120109-1427,"org.eclipse.jdt.ui.CompilationUnitEditor",1380677004397
activated,editor,org.eclipse.jdt.ui,3.7.2.v20120109-1427,"org.eclipse.jdt.ui.CompilationUnitEditor",1380677018233
deactivated,workbench,org.eclipse.ui.workbench,3.7.1.v20120104-1859,"",1380677019159
activated,workbench,org.eclipse.ui.workbench,3.7.1.v20120104-1859,"",1380677020055
deactivated,workbench,org.eclipse.ui.workbench,3.7.1.v20120104-1859,"",1380677020384
activated,workbench,org.eclipse.ui.workbench,3.7.1.v20120104-1859,"",1380677029605
activated,editor,org.eclipse.jdt.ui,3.7.2.v20120109-1427,"org.eclipse.jdt.ui.CompilationUnitEditor",1380677030938
activated,editor,org.eclipse.jdt.ui,3.7.2.v20120109-1427,"org.eclipse.jdt.ui.CompilationUnitEditor",1380677032152
deactivated,workbench,org.eclipse.ui.workbench,3.7.1.v20120104-1859,"",1380677048883
activated,workbench,org.eclipse.ui.workbench,3.7.1.v20120104-1859,"",1380677107580
activated,editor,org.eclipse.jdt.ui,3.7.2.v20120109-1427,"org.eclipse.jdt.ui.CompilationUnitEditor",1380677118816
deactivated,workbench,org.eclipse.ui.workbench,3.7.1.v20120104-1859,"",1380677119491
activated,workbench,org.eclipse.ui.workbench,3.7.1.v20120104-1859,"",1380677120239
deactivated,workbench,org.eclipse.ui.workbench,3.7.1.v20120104-1859,"",1380677120593
activated,workbench,org.eclipse.ui.workbench,3.7.1.v20120104-1859,"",1380677124849
activated,editor,org.eclipse.jdt.ui,3.7.2.v20120109-1427,"org.eclipse.jdt.ui.CompilationUnitEditor",1380677125799
activated,editor,org.eclipse.jdt.ui,3.7.2.v20120109-1427,"org.eclipse.jdt.ui.CompilationUnitEditor",1380677129001
executed,command,org.eclipse.jdt.ui,3.7.2.v20120109-1427,"org.eclipse.jdt.ui.edit.text.java.organize.imports",1380677157814
activated,editor,org.eclipse.jdt.ui,3.7.2.v20120109-1427,"org.eclipse.jdt.ui.CompilationUnitEditor",1380677179290
deactivated,workbench,org.eclipse.ui.workbench,3.7.1.v20120104-1859,"",1380677179911
activated,workbench,org.eclipse.ui.workbench,3.7.1.v20120104-1859,"",1380677180581
deactivated,workbench,org.eclipse.ui.workbench,3.7.1.v20120104-1859,"",1380677180925
activated,workbench,org.eclipse.ui.workbench,3.7.1.v20120104-1859,"",1380677184391
activated,editor,org.eclipse.jdt.ui,3.7.2.v20120109-1427,"org.eclipse.jdt.ui.CompilationUnitEditor",1380677185454
activated,editor,org.eclipse.jdt.ui,3.7.2.v20120109-1427,"org.eclipse.jdt.ui.CompilationUnitEditor",1380677186446
deactivated,workbench,org.eclipse.ui.workbench,3.7.1.v20120104-1859,"",1380677205343
activated,workbench,org.eclipse.ui.workbench,3.7.1.v20120104-1859,"",1380677207305
activated,editor,org.eclipse.jdt.ui,3.7.2.v20120109-1427,"org.eclipse.jdt.ui.CompilationUnitEditor",1380677217995
deactivated,workbench,org.eclipse.ui.workbench,3.7.1.v20120104-1859,"",1380677218710
activated,workbench,org.eclipse.ui.workbench,3.7.1.v20120104-1859,"",1380677219553
deactivated,workbench,org.eclipse.ui.workbench,3.7.1.v20120104-1859,"",1380677219886
activated,workbench,org.eclipse.ui.workbench,3.7.1.v20120104-1859,"",1380677224943
activated,editor,org.eclipse.jdt.ui,3.7.2.v20120109-1427,"org.eclipse.jdt.ui.CompilationUnitEditor",1380677226614
activated,editor,org.eclipse.jdt.ui,3.7.2.v20120109-1427,"org.eclipse.jdt.ui.CompilationUnitEditor",1380677227068
activated,editor,org.eclipse.jdt.ui,3.7.2.v20120109-1427,"org.eclipse.jdt.ui.CompilationUnitEditor",1380677227687
closed,editor,org.eclipse.jdt.ui,3.7.2.v20120109-1427,"org.eclipse.jdt.ui.CompilationUnitEditor",1380677227688
activated,editor,org.eclipse.jdt.ui,3.7.2.v20120109-1427,"org.eclipse.jdt.ui.CompilationUnitEditor",1380677258017
deactivated,workbench,org.eclipse.ui.workbench,3.7.1.v20120104-1859,"",1380677258587
activated,workbench,org.eclipse.ui.workbench,3.7.1.v20120104-1859,"",1380677259282
deactivated,workbench,org.eclipse.ui.workbench,3.7.1.v20120104-1859,"",1380677259636
activated,workbench,org.eclipse.ui.workbench,3.7.1.v20120104-1859,"",1380677262574
activated,editor,org.eclipse.jdt.ui,3.7.2.v20120109-1427,"org.eclipse.jdt.ui.CompilationUnitEditor",1380677263912
deactivated,workbench,org.eclipse.ui.workbench,3.7.1.v20120104-1859,"",1380677268789
activated,workbench,org.eclipse.ui.workbench,3.7.1.v20120104-1859,"",1380677373044
activated,editor,org.eclipse.jdt.ui,3.7.2.v20120109-1427,"org.eclipse.jdt.ui.CompilationUnitEditor",1380677388636
deactivated,workbench,org.eclipse.ui.workbench,3.7.1.v20120104-1859,"",1380677389283
activated,workbench,org.eclipse.ui.workbench,3.7.1.v20120104-1859,"",1380677390181
deactivated,workbench,org.eclipse.ui.workbench,3.7.1.v20120104-1859,"",1380677390542
activated,workbench,org.eclipse.ui.workbench,3.7.1.v20120104-1859,"",1380677402555
activated,editor,org.eclipse.jdt.ui,3.7.2.v20120109-1427,"org.eclipse.jdt.ui.CompilationUnitEditor",1380677404481
activated,editor,org.eclipse.jdt.ui,3.7.2.v20120109-1427,"org.eclipse.jdt.ui.CompilationUnitEditor",1380677413885
deactivated,workbench,org.eclipse.ui.workbench,3.7.1.v20120104-1859,"",1380677414612
activated,workbench,org.eclipse.ui.workbench,3.7.1.v20120104-1859,"",1380677415326
deactivated,workbench,org.eclipse.ui.workbench,3.7.1.v20120104-1859,"",1380677415665
activated,workbench,org.eclipse.ui.workbench,3.7.1.v20120104-1859,"",1380677420242
activated,editor,org.eclipse.jdt.ui,3.7.2.v20120109-1427,"org.eclipse.jdt.ui.CompilationUnitEditor",1380677422845
deactivated,workbench,org.eclipse.ui.workbench,3.7.1.v20120104-1859,"",1380677427979
activated,workbench,org.eclipse.ui.workbench,3.7.1.v20120104-1859,"",1380677475786
deactivated,workbench,org.eclipse.ui.workbench,3.7.1.v20120104-1859,"",1380677476123
activated,workbench,org.eclipse.ui.workbench,3.7.1.v20120104-1859,"",1380677484582
executed,command,org.eclipse.ui,3.7.0.v20110928-1505,"org.eclipse.ui.edit.paste",1380677494177
activated,editor,org.eclipse.jdt.ui,3.7.2.v20120109-1427,"org.eclipse.jdt.ui.CompilationUnitEditor",1380677524758
deactivated,workbench,org.eclipse.ui.workbench,3.7.1.v20120104-1859,"",1380677525405
activated,workbench,org.eclipse.ui.workbench,3.7.1.v20120104-1859,"",1380677526306
deactivated,workbench,org.eclipse.ui.workbench,3.7.1.v20120104-1859,"",1380677526351
activated,workbench,org.eclipse.ui.workbench,3.7.1.v20120104-1859,"",1380677527315
activated,editor,org.eclipse.jdt.ui,3.7.2.v20120109-1427,"org.eclipse.jdt.ui.CompilationUnitEditor",1380677528314
executed,command,org.eclipse.jdt.ui,3.7.2.v20120109-1427,"org.eclipse.jdt.ui.edit.text.java.organize.imports",1380677541459
activated,editor,org.eclipse.jdt.ui,3.7.2.v20120109-1427,"org.eclipse.jdt.ui.CompilationUnitEditor",1380677544851
deactivated,workbench,org.eclipse.ui.workbench,3.7.1.v20120104-1859,"",1380677545421
activated,workbench,org.eclipse.ui.workbench,3.7.1.v20120104-1859,"",1380677546245
deactivated,workbench,org.eclipse.ui.workbench,3.7.1.v20120104-1859,"",1380677546596
activated,workbench,org.eclipse.ui.workbench,3.7.1.v20120104-1859,"",1380677549992
activated,editor,org.eclipse.jdt.ui,3.7.2.v20120109-1427,"org.eclipse.jdt.ui.CompilationUnitEditor",1380677551367
activated,editor,org.eclipse.jdt.ui,3.7.2.v20120109-1427,"org.eclipse.jdt.ui.CompilationUnitEditor",1380677570068
deactivated,workbench,org.eclipse.ui.workbench,3.7.1.v20120104-1859,"",1380677570640
activated,workbench,org.eclipse.ui.workbench,3.7.1.v20120104-1859,"",1380677571513
deactivated,workbench,org.eclipse.ui.workbench,3.7.1.v20120104-1859,"",1380677571845
activated,workbench,org.eclipse.ui.workbench,3.7.1.v20120104-1859,"",1380677586501
activated,editor,org.eclipse.jdt.ui,3.7.2.v20120109-1427,"org.eclipse.jdt.ui.CompilationUnitEditor",1380677589523
deactivated,workbench,org.eclipse.ui.workbench,3.7.1.v20120104-1859,"",1380677629784
activated,workbench,org.eclipse.ui.workbench,3.7.1.v20120104-1859,"",1380677629891
activated,editor,org.eclipse.jdt.ui,3.7.2.v20120109-1427,"org.eclipse.jdt.ui.CompilationUnitEditor",1380677631928
deactivated,workbench,org.eclipse.ui.workbench,3.7.1.v20120104-1859,"",1380677632764
activated,workbench,org.eclipse.ui.workbench,3.7.1.v20120104-1859,"",1380677633563
deactivated,workbench,org.eclipse.ui.workbench,3.7.1.v20120104-1859,"",1380677633904
activated,workbench,org.eclipse.ui.workbench,3.7.1.v20120104-1859,"",1380677640718
activated,editor,org.eclipse.jdt.ui,3.7.2.v20120109-1427,"org.eclipse.jdt.ui.CompilationUnitEditor",1380677642406
activated,editor,org.eclipse.jdt.ui,3.7.2.v20120109-1427,"org.eclipse.jdt.ui.CompilationUnitEditor",1380677676799
deactivated,workbench,org.eclipse.ui.workbench,3.7.1.v20120104-1859,"",1380677677483
activated,workbench,org.eclipse.ui.workbench,3.7.1.v20120104-1859,"",1380677678301
deactivated,workbench,org.eclipse.ui.workbench,3.7.1.v20120104-1859,"",1380677678652
activated,workbench,org.eclipse.ui.workbench,3.7.1.v20120104-1859,"",1380677683406
activated,editor,org.eclipse.jdt.ui,3.7.2.v20120109-1427,"org.eclipse.jdt.ui.CompilationUnitEditor",1380677684727
activated,editor,org.eclipse.jdt.ui,3.7.2.v20120109-1427,"org.eclipse.jdt.ui.CompilationUnitEditor",1380677739287
deactivated,workbench,org.eclipse.ui.workbench,3.7.1.v20120104-1859,"",1380677740231
activated,workbench,org.eclipse.ui.workbench,3.7.1.v20120104-1859,"",1380677741368
deactivated,workbench,org.eclipse.ui.workbench,3.7.1.v20120104-1859,"",1380677741716
activated,workbench,org.eclipse.ui.workbench,3.7.1.v20120104-1859,"",1380677748138
activated,editor,org.eclipse.jdt.ui,3.7.2.v20120109-1427,"org.eclipse.jdt.ui.CompilationUnitEditor",1380677749839
deactivated,workbench,org.eclipse.ui.workbench,3.7.1.v20120104-1859,"",1380677763997
activated,workbench,org.eclipse.ui.workbench,3.7.1.v20120104-1859,"",1380677853144
activated,editor,org.eclipse.jdt.ui,3.7.2.v20120109-1427,"org.eclipse.jdt.ui.CompilationUnitEditor",1380677872176
deactivated,workbench,org.eclipse.ui.workbench,3.7.1.v20120104-1859,"",1380677872976
activated,workbench,org.eclipse.ui.workbench,3.7.1.v20120104-1859,"",1380677873933
deactivated,workbench,org.eclipse.ui.workbench,3.7.1.v20120104-1859,"",1380677874335
activated,workbench,org.eclipse.ui.workbench,3.7.1.v20120104-1859,"",1380677884159
activated,editor,org.eclipse.jdt.ui,3.7.2.v20120109-1427,"org.eclipse.jdt.ui.CompilationUnitEditor",1380677885811
activated,editor,org.eclipse.jdt.ui,3.7.2.v20120109-1427,"org.eclipse.jdt.ui.CompilationUnitEditor",1380678048611
deactivated,workbench,org.eclipse.ui.workbench,3.7.1.v20120104-1859,"",1380678049214
activated,workbench,org.eclipse.ui.workbench,3.7.1.v20120104-1859,"",1380678049934
deactivated,workbench,org.eclipse.ui.workbench,3.7.1.v20120104-1859,"",1380678050300
activated,workbench,org.eclipse.ui.workbench,3.7.1.v20120104-1859,"",1380678053295
activated,editor,org.eclipse.jdt.ui,3.7.2.v20120109-1427,"org.eclipse.jdt.ui.CompilationUnitEditor",1380678054639
executed,command,org.eclipse.ui,3.7.0.v20110928-1505,"org.eclipse.ui.edit.copy",1380678061355
executed,command,org.eclipse.ui,3.7.0.v20110928-1505,"org.eclipse.ui.edit.paste",1380678064352
activated,editor,org.eclipse.jdt.ui,3.7.2.v20120109-1427,"org.eclipse.jdt.ui.CompilationUnitEditor",1380678089569
deactivated,workbench,org.eclipse.ui.workbench,3.7.1.v20120104-1859,"",1380678090975
activated,workbench,org.eclipse.ui.workbench,3.7.1.v20120104-1859,"",1380678093225
deactivated,workbench,org.eclipse.ui.workbench,3.7.1.v20120104-1859,"",1380678093574
activated,workbench,org.eclipse.ui.workbench,3.7.1.v20120104-1859,"",1380678096861
activated,editor,org.eclipse.jdt.ui,3.7.2.v20120109-1427,"org.eclipse.jdt.ui.CompilationUnitEditor",1380678098315
activated,editor,org.eclipse.jdt.ui,3.7.2.v20120109-1427,"org.eclipse.jdt.ui.CompilationUnitEditor",1380678098934
activated,editor,org.eclipse.jdt.ui,3.7.2.v20120109-1427,"org.eclipse.jdt.ui.CompilationUnitEditor",1380678099965
activated,editor,org.eclipse.jdt.ui,3.7.2.v20120109-1427,"org.eclipse.jdt.ui.CompilationUnitEditor",1380678101238
activated,editor,org.eclipse.jdt.ui,3.7.2.v20120109-1427,"org.eclipse.jdt.ui.CompilationUnitEditor",1380678102286
activated,editor,org.eclipse.jdt.ui,3.7.2.v20120109-1427,"org.eclipse.jdt.ui.CompilationUnitEditor",1380678123824
deactivated,workbench,org.eclipse.ui.workbench,3.7.1.v20120104-1859,"",1380678124669
activated,workbench,org.eclipse.ui.workbench,3.7.1.v20120104-1859,"",1380678125656
deactivated,workbench,org.eclipse.ui.workbench,3.7.1.v20120104-1859,"",1380678126001
activated,workbench,org.eclipse.ui.workbench,3.7.1.v20120104-1859,"",1380678129534
activated,editor,org.eclipse.jdt.ui,3.7.2.v20120109-1427,"org.eclipse.jdt.ui.CompilationUnitEditor",1380678130357
activated,editor,org.eclipse.jdt.ui,3.7.2.v20120109-1427,"org.eclipse.jdt.ui.CompilationUnitEditor",1380678159909
deactivated,workbench,org.eclipse.ui.workbench,3.7.1.v20120104-1859,"",1380678161032
activated,workbench,org.eclipse.ui.workbench,3.7.1.v20120104-1859,"",1380678161771
deactivated,workbench,org.eclipse.ui.workbench,3.7.1.v20120104-1859,"",1380678162132
