what,kind,bundleId,bundleVersion,description,time
executed,command,org.eclipse.ui,3.7.0.v20110928-1505,"org.eclipse.ui.edit.paste",1391410990828
activated,view,org.eclipse.jdt.ui,3.7.2.v20120109-1427,"org.eclipse.jdt.ui.PackageExplorer",1391410994157
deactivated,workbench,org.eclipse.ui.workbench,3.7.1.v20120104-1859,"",1391410995158
activated,workbench,org.eclipse.ui.workbench,3.7.1.v20120104-1859,"",1391410995892
deactivated,workbench,org.eclipse.ui.workbench,3.7.1.v20120104-1859,"",1391410996252
activated,workbench,org.eclipse.ui.workbench,3.7.1.v20120104-1859,"",1391411063703
activated,view,org.eclipse.ui.console,3.5.100.v20111007_r372,"org.eclipse.ui.console.ConsoleView",1391411066696
deactivated,workbench,org.eclipse.ui.workbench,3.7.1.v20120104-1859,"",1391411083400
activated,workbench,org.eclipse.ui.workbench,3.7.1.v20120104-1859,"",1391412625119
deactivated,workbench,org.eclipse.ui.workbench,3.7.1.v20120104-1859,"",1391412709648
activated,workbench,org.eclipse.ui.workbench,3.7.1.v20120104-1859,"",1391413069283
deactivated,workbench,org.eclipse.ui.workbench,3.7.1.v20120104-1859,"",1391413069812
activated,workbench,org.eclipse.ui.workbench,3.7.1.v20120104-1859,"",1391417388779
deactivated,workbench,org.eclipse.ui.workbench,3.7.1.v20120104-1859,"",1391417389951
activated,workbench,org.eclipse.ui.workbench,3.7.1.v20120104-1859,"",1391417537768
deactivated,workbench,org.eclipse.ui.workbench,3.7.1.v20120104-1859,"",1391417539737
activated,workbench,org.eclipse.ui.workbench,3.7.1.v20120104-1859,"",1391419224732
activated,editor,org.eclipse.jdt.ui,3.7.2.v20120109-1427,"org.eclipse.jdt.ui.CompilationUnitEditor",1391419224745
deactivated,workbench,org.eclipse.ui.workbench,3.7.1.v20120104-1859,"",1391419225322
activated,workbench,org.eclipse.ui.workbench,3.7.1.v20120104-1859,"",1391445790683
deactivated,workbench,org.eclipse.ui.workbench,3.7.1.v20120104-1859,"",1391445791799
activated,workbench,org.eclipse.ui.workbench,3.7.1.v20120104-1859,"",1391446114309
deactivated,workbench,org.eclipse.ui.workbench,3.7.1.v20120104-1859,"",1391446115851
activated,workbench,org.eclipse.ui.workbench,3.7.1.v20120104-1859,"",1391446948659
deactivated,workbench,org.eclipse.ui.workbench,3.7.1.v20120104-1859,"",1391446949325
activated,workbench,org.eclipse.ui.workbench,3.7.1.v20120104-1859,"",1391485771968
deactivated,workbench,org.eclipse.ui.workbench,3.7.1.v20120104-1859,"",1391485773017
activated,workbench,org.eclipse.ui.workbench,3.7.1.v20120104-1859,"",1391485777511
deactivated,workbench,org.eclipse.ui.workbench,3.7.1.v20120104-1859,"",1391485799480
activated,workbench,org.eclipse.ui.workbench,3.7.1.v20120104-1859,"",1391497452180
deactivated,workbench,org.eclipse.ui.workbench,3.7.1.v20120104-1859,"",1391497453300
activated,workbench,org.eclipse.ui.workbench,3.7.1.v20120104-1859,"",1391497578314
activated,view,org.eclipse.jdt.ui,3.7.2.v20120109-1427,"org.eclipse.jdt.ui.PackageExplorer",1391497581654
deactivated,workbench,org.eclipse.ui.workbench,3.7.1.v20120104-1859,"",1391497585723
activated,workbench,org.eclipse.ui.workbench,3.7.1.v20120104-1859,"",1391497593234
deactivated,workbench,org.eclipse.ui.workbench,3.7.1.v20120104-1859,"",1391497594628
activated,workbench,org.eclipse.ui.workbench,3.7.1.v20120104-1859,"",1391498064457
deactivated,workbench,org.eclipse.ui.workbench,3.7.1.v20120104-1859,"",1391498065598
activated,workbench,org.eclipse.ui.workbench,3.7.1.v20120104-1859,"",1391498731116
deactivated,workbench,org.eclipse.ui.workbench,3.7.1.v20120104-1859,"",1391498732285
activated,workbench,org.eclipse.ui.workbench,3.7.1.v20120104-1859,"",1391499300357
deactivated,workbench,org.eclipse.ui.workbench,3.7.1.v20120104-1859,"",1391499301452
activated,workbench,org.eclipse.ui.workbench,3.7.1.v20120104-1859,"",1391499302203
activated,editor,org.eclipse.jdt.ui,3.7.2.v20120109-1427,"org.eclipse.jdt.ui.CompilationUnitEditor",1391499302943
deactivated,workbench,org.eclipse.ui.workbench,3.7.1.v20120104-1859,"",1391499303665
activated,workbench,org.eclipse.ui.workbench,3.7.1.v20120104-1859,"",1391500386756
closed,editor,org.eclipse.jdt.ui,3.7.2.v20120109-1427,"org.eclipse.jdt.ui.CompilationUnitEditor",1391500391447
activated,view,org.eclipse.jdt.ui,3.7.2.v20120109-1427,"org.eclipse.jdt.ui.PackageExplorer",1391500392710
closed,editor,org.eclipse.jdt.ui,3.7.2.v20120109-1427,"org.eclipse.jdt.ui.CompilationUnitEditor",1391500392710
opened,editor,org.eclipse.jdt.ui,3.7.2.v20120109-1427,"org.eclipse.jdt.ui.CompilationUnitEditor",1391500394784
activated,editor,org.eclipse.jdt.ui,3.7.2.v20120109-1427,"org.eclipse.jdt.ui.CompilationUnitEditor",1391500394804
activated,view,org.eclipse.jdt.ui,3.7.2.v20120109-1427,"org.eclipse.jdt.ui.PackageExplorer",1391500420598
opened,editor,org.eclipse.jdt.ui,3.7.2.v20120109-1427,"org.eclipse.jdt.ui.CompilationUnitEditor",1391500420745
activated,editor,org.eclipse.jdt.ui,3.7.2.v20120109-1427,"org.eclipse.jdt.ui.CompilationUnitEditor",1391500420778
activated,editor,org.eclipse.jdt.ui,3.7.2.v20120109-1427,"org.eclipse.jdt.ui.CompilationUnitEditor",1391500430609
executed,command,org.eclipse.jdt.ui,3.7.2.v20120109-1427,"org.eclipse.jdt.ui.edit.text.java.organize.imports",1391500573712
deactivated,workbench,org.eclipse.ui.workbench,3.7.1.v20120104-1859,"",1391500607964
activated,workbench,org.eclipse.ui.workbench,3.7.1.v20120104-1859,"",1391500609573
executed,command,org.eclipse.ui,3.7.0.v20110928-1505,"org.eclipse.ui.edit.text.contentAssist.proposals",1391500639383
deactivated,workbench,org.eclipse.ui.workbench,3.7.1.v20120104-1859,"",1391500645713
activated,workbench,org.eclipse.ui.workbench,3.7.1.v20120104-1859,"",1391500645841
executed,command,org.eclipse.jdt.ui,3.7.2.v20120109-1427,"org.eclipse.jdt.ui.edit.text.java.organize.imports",1391500695326
executed,command,org.eclipse.ui,3.7.0.v20110928-1505,"org.eclipse.ui.edit.text.contentAssist.proposals",1391500705880
deactivated,workbench,org.eclipse.ui.workbench,3.7.1.v20120104-1859,"",1391500750916
activated,workbench,org.eclipse.ui.workbench,3.7.1.v20120104-1859,"",1391500752630
executed,command,org.eclipse.jdt.ui,3.7.2.v20120109-1427,"org.eclipse.jdt.ui.edit.text.java.organize.imports",1391500752668
deactivated,workbench,org.eclipse.ui.workbench,3.7.1.v20120104-1859,"",1391500827813
activated,workbench,org.eclipse.ui.workbench,3.7.1.v20120104-1859,"",1391500828968
activated,editor,org.eclipse.jdt.ui,3.7.2.v20120109-1427,"org.eclipse.jdt.ui.CompilationUnitEditor",1391500828998
closed,editor,org.eclipse.jdt.ui,3.7.2.v20120109-1427,"org.eclipse.jdt.ui.CompilationUnitEditor",1391500828998
executed,command,org.eclipse.ui,3.7.0.v20110928-1505,"org.eclipse.ui.edit.delete",1391500859329
executed,command,org.eclipse.ui,3.7.0.v20110928-1505,"org.eclipse.ui.edit.undo",1391500861625
executed,command,org.eclipse.ui,3.7.0.v20110928-1505,"org.eclipse.ui.edit.undo",1391500861801
executed,command,org.eclipse.ui,3.7.0.v20110928-1505,"org.eclipse.ui.edit.undo",1391500861979
executed,command,org.eclipse.ui,3.7.0.v20110928-1505,"org.eclipse.ui.edit.undo",1391500862460
deactivated,workbench,org.eclipse.ui.workbench,3.7.1.v20120104-1859,"",1391500876748
activated,workbench,org.eclipse.ui.workbench,3.7.1.v20120104-1859,"",1391559229954
deactivated,workbench,org.eclipse.ui.workbench,3.7.1.v20120104-1859,"",1391559230970
deactivated,workbench,org.eclipse.ui.workbench,3.7.1.v20120104-1859,"",1391559232354
activated,workbench,org.eclipse.ui.workbench,3.7.1.v20120104-1859,"",1391577908413
deactivated,workbench,org.eclipse.ui.workbench,3.7.1.v20120104-1859,"",1391577910941
activated,workbench,org.eclipse.ui.workbench,3.7.1.v20120104-1859,"",1391579474409
activated,view,org.eclipse.jdt.ui,3.7.2.v20120109-1427,"org.eclipse.jdt.ui.PackageExplorer",1391579480884
closed,editor,org.eclipse.jdt.ui,3.7.2.v20120109-1427,"org.eclipse.jdt.ui.CompilationUnitEditor",1391579480885
deactivated,workbench,org.eclipse.ui.workbench,3.7.1.v20120104-1859,"",1391579482915
activated,workbench,org.eclipse.ui.workbench,3.7.1.v20120104-1859,"",1391579656336
opened,editor,org.eclipse.jdt.ui,3.7.2.v20120109-1427,"org.eclipse.jdt.ui.CompilationUnitEditor",1391579657588
activated,editor,org.eclipse.jdt.ui,3.7.2.v20120109-1427,"org.eclipse.jdt.ui.CompilationUnitEditor",1391579657606
activated,view,org.eclipse.jdt.ui,3.7.2.v20120109-1427,"org.eclipse.jdt.ui.PackageExplorer",1391579659269
opened,editor,org.eclipse.jdt.ui,3.7.2.v20120109-1427,"org.eclipse.jdt.ui.CompilationUnitEditor",1391579662494
activated,editor,org.eclipse.jdt.ui,3.7.2.v20120109-1427,"org.eclipse.jdt.ui.CompilationUnitEditor",1391579662537
executed,command,org.eclipse.ui,3.7.0.v20110928-1505,"org.eclipse.ui.file.refresh",1391579664347
error,log,,,"Unable to parse the downloaded compositeArtifacts.xml",1391579665017
executed,command,org.eclipse.ui,3.7.0.v20110928-1505,"org.eclipse.ui.file.saveAll",1391579680975
activated,editor,org.eclipse.jdt.ui,3.7.2.v20120109-1427,"org.eclipse.jdt.ui.CompilationUnitEditor",1391579682017
closed,editor,org.eclipse.jdt.ui,3.7.2.v20120109-1427,"org.eclipse.jdt.ui.CompilationUnitEditor",1391579682017
activated,view,org.eclipse.jdt.ui,3.7.2.v20120109-1427,"org.eclipse.jdt.ui.PackageExplorer",1391579683031
opened,editor,org.eclipse.jdt.ui,3.7.2.v20120109-1427,"org.eclipse.jdt.ui.CompilationUnitEditor",1391579684129
activated,editor,org.eclipse.jdt.ui,3.7.2.v20120109-1427,"org.eclipse.jdt.ui.CompilationUnitEditor",1391579684171
activated,editor,org.eclipse.jdt.ui,3.7.2.v20120109-1427,"org.eclipse.jdt.ui.CompilationUnitEditor",1391579685478
closed,editor,org.eclipse.jdt.ui,3.7.2.v20120109-1427,"org.eclipse.jdt.ui.CompilationUnitEditor",1391579685479
activated,view,org.eclipse.jdt.ui,3.7.2.v20120109-1427,"org.eclipse.jdt.ui.PackageExplorer",1391579686477
opened,editor,org.eclipse.jdt.ui,3.7.2.v20120109-1427,"org.eclipse.jdt.ui.CompilationUnitEditor",1391579686637
activated,editor,org.eclipse.jdt.ui,3.7.2.v20120109-1427,"org.eclipse.jdt.ui.CompilationUnitEditor",1391579686679
executed,command,org.eclipse.ui,3.7.0.v20110928-1505,"org.eclipse.ui.file.refresh",1391579688127
activated,editor,org.eclipse.jdt.ui,3.7.2.v20120109-1427,"org.eclipse.jdt.ui.CompilationUnitEditor",1391579690793
closed,editor,org.eclipse.jdt.ui,3.7.2.v20120109-1427,"org.eclipse.jdt.ui.CompilationUnitEditor",1391579690794
activated,view,org.eclipse.jdt.ui,3.7.2.v20120109-1427,"org.eclipse.jdt.ui.PackageExplorer",1391579692435
opened,editor,org.eclipse.jdt.ui,3.7.2.v20120109-1427,"org.eclipse.jdt.ui.CompilationUnitEditor",1391579693035
activated,editor,org.eclipse.jdt.ui,3.7.2.v20120109-1427,"org.eclipse.jdt.ui.CompilationUnitEditor",1391579693079
executed,command,org.eclipse.ui,3.7.0.v20110928-1505,"org.eclipse.ui.file.refresh",1391579694207
activated,editor,org.eclipse.jdt.ui,3.7.2.v20120109-1427,"org.eclipse.jdt.ui.CompilationUnitEditor",1391579696880
closed,editor,org.eclipse.jdt.ui,3.7.2.v20120109-1427,"org.eclipse.jdt.ui.CompilationUnitEditor",1391579696881
activated,view,org.eclipse.jdt.ui,3.7.2.v20120109-1427,"org.eclipse.jdt.ui.PackageExplorer",1391579697948
deactivated,workbench,org.eclipse.ui.workbench,3.7.1.v20120104-1859,"",1391579703365
activated,workbench,org.eclipse.ui.workbench,3.7.1.v20120104-1859,"",1391580378471
deactivated,workbench,org.eclipse.ui.workbench,3.7.1.v20120104-1859,"",1391580382315
activated,workbench,org.eclipse.ui.workbench,3.7.1.v20120104-1859,"",1391580454353
activated,view,org.eclipse.ui.console,3.5.100.v20111007_r372,"org.eclipse.ui.console.ConsoleView",1391580457366
activated,view,org.eclipse.jdt.ui,3.7.2.v20120109-1427,"org.eclipse.jdt.ui.PackageExplorer",1391580461490
opened,editor,org.eclipse.jdt.ui,3.7.2.v20120109-1427,"org.eclipse.jdt.ui.CompilationUnitEditor",1391580462776
activated,editor,org.eclipse.jdt.ui,3.7.2.v20120109-1427,"org.eclipse.jdt.ui.CompilationUnitEditor",1391580462803
deactivated,workbench,org.eclipse.ui.workbench,3.7.1.v20120104-1859,"",1391580484519
activated,workbench,org.eclipse.ui.workbench,3.7.1.v20120104-1859,"",1391580485643
deactivated,workbench,org.eclipse.ui.workbench,3.7.1.v20120104-1859,"",1391580489801
activated,workbench,org.eclipse.ui.workbench,3.7.1.v20120104-1859,"",1391580490600
activated,view,org.eclipse.jdt.ui,3.7.2.v20120109-1427,"org.eclipse.jdt.ui.PackageExplorer",1391580493262
opened,editor,org.eclipse.jdt.ui,3.7.2.v20120109-1427,"org.eclipse.jdt.ui.CompilationUnitEditor",1391580497089
activated,editor,org.eclipse.jdt.ui,3.7.2.v20120109-1427,"org.eclipse.jdt.ui.CompilationUnitEditor",1391580497116
deactivated,workbench,org.eclipse.ui.workbench,3.7.1.v20120104-1859,"",1391580607138
activated,workbench,org.eclipse.ui.workbench,3.7.1.v20120104-1859,"",1391580613726
activated,view,org.eclipse.jdt.ui,3.7.2.v20120109-1427,"org.eclipse.jdt.ui.PackageExplorer",1391580615663
opened,editor,org.eclipse.jdt.ui,3.7.2.v20120109-1427,"org.eclipse.jdt.ui.CompilationUnitEditor",1391580616674
activated,editor,org.eclipse.jdt.ui,3.7.2.v20120109-1427,"org.eclipse.jdt.ui.CompilationUnitEditor",1391580616704
activated,editor,org.eclipse.jdt.ui,3.7.2.v20120109-1427,"org.eclipse.jdt.ui.CompilationUnitEditor",1391580668055
activated,view,org.eclipse.jdt.ui,3.7.2.v20120109-1427,"org.eclipse.jdt.ui.PackageExplorer",1391580729552
deactivated,workbench,org.eclipse.ui.workbench,3.7.1.v20120104-1859,"",1391580730577
activated,workbench,org.eclipse.ui.workbench,3.7.1.v20120104-1859,"",1391580731460
deactivated,workbench,org.eclipse.ui.workbench,3.7.1.v20120104-1859,"",1391580731867
error,log,,,"Unable to parse the downloaded compositeArtifacts.xml",1391580732150
activated,workbench,org.eclipse.ui.workbench,3.7.1.v20120104-1859,"",1391580763939
deactivated,workbench,org.eclipse.ui.workbench,3.7.1.v20120104-1859,"",1391580787067
activated,workbench,org.eclipse.ui.workbench,3.7.1.v20120104-1859,"",1391580830900
opened,editor,org.eclipse.jdt.ui,3.7.2.v20120109-1427,"org.eclipse.jdt.ui.CompilationUnitEditor",1391580831076
activated,editor,org.eclipse.jdt.ui,3.7.2.v20120109-1427,"org.eclipse.jdt.ui.CompilationUnitEditor",1391580831104
activated,editor,org.eclipse.jdt.ui,3.7.2.v20120109-1427,"org.eclipse.jdt.ui.CompilationUnitEditor",1391580858396
activated,editor,org.eclipse.jdt.ui,3.7.2.v20120109-1427,"org.eclipse.jdt.ui.CompilationUnitEditor",1391580860721
deactivated,workbench,org.eclipse.ui.workbench,3.7.1.v20120104-1859,"",1391580870867
activated,workbench,org.eclipse.ui.workbench,3.7.1.v20120104-1859,"",1391580871545
deactivated,workbench,org.eclipse.ui.workbench,3.7.1.v20120104-1859,"",1391580873423
activated,workbench,org.eclipse.ui.workbench,3.7.1.v20120104-1859,"",1391580878413
deactivated,workbench,org.eclipse.ui.workbench,3.7.1.v20120104-1859,"",1391580915168
activated,workbench,org.eclipse.ui.workbench,3.7.1.v20120104-1859,"",1391580915246
deactivated,workbench,org.eclipse.ui.workbench,3.7.1.v20120104-1859,"",1391580936616
activated,workbench,org.eclipse.ui.workbench,3.7.1.v20120104-1859,"",1391580936693
activated,view,org.eclipse.jdt.ui,3.7.2.v20120109-1427,"org.eclipse.jdt.ui.PackageExplorer",1391580945954
deactivated,workbench,org.eclipse.ui.workbench,3.7.1.v20120104-1859,"",1391580947130
activated,workbench,org.eclipse.ui.workbench,3.7.1.v20120104-1859,"",1391580948505
deactivated,workbench,org.eclipse.ui.workbench,3.7.1.v20120104-1859,"",1391580948982
activated,workbench,org.eclipse.ui.workbench,3.7.1.v20120104-1859,"",1391580977711
activated,editor,org.eclipse.jdt.ui,3.7.2.v20120109-1427,"org.eclipse.jdt.ui.CompilationUnitEditor",1391580980665
deactivated,workbench,org.eclipse.ui.workbench,3.7.1.v20120104-1859,"",1391581098440
activated,workbench,org.eclipse.ui.workbench,3.7.1.v20120104-1859,"",1391581098528
activated,view,org.eclipse.jdt.ui,3.7.2.v20120109-1427,"org.eclipse.jdt.ui.PackageExplorer",1391581125190
deactivated,workbench,org.eclipse.ui.workbench,3.7.1.v20120104-1859,"",1391581126223
activated,workbench,org.eclipse.ui.workbench,3.7.1.v20120104-1859,"",1391581127102
deactivated,workbench,org.eclipse.ui.workbench,3.7.1.v20120104-1859,"",1391581127468
activated,workbench,org.eclipse.ui.workbench,3.7.1.v20120104-1859,"",1391581140645
activated,editor,org.eclipse.jdt.ui,3.7.2.v20120109-1427,"org.eclipse.jdt.ui.CompilationUnitEditor",1391581142346
activated,view,org.eclipse.jdt.ui,3.7.2.v20120109-1427,"org.eclipse.jdt.ui.PackageExplorer",1391581158734
deactivated,workbench,org.eclipse.ui.workbench,3.7.1.v20120104-1859,"",1391581159832
activated,workbench,org.eclipse.ui.workbench,3.7.1.v20120104-1859,"",1391581160952
deactivated,workbench,org.eclipse.ui.workbench,3.7.1.v20120104-1859,"",1391581161335
activated,workbench,org.eclipse.ui.workbench,3.7.1.v20120104-1859,"",1391581162523
activated,editor,org.eclipse.jdt.ui,3.7.2.v20120109-1427,"org.eclipse.jdt.ui.CompilationUnitEditor",1391581163246
activated,view,org.eclipse.jdt.ui,3.7.2.v20120109-1427,"org.eclipse.jdt.ui.PackageExplorer",1391581165303
deactivated,workbench,org.eclipse.ui.workbench,3.7.1.v20120104-1859,"",1391581166406
activated,workbench,org.eclipse.ui.workbench,3.7.1.v20120104-1859,"",1391581167100
deactivated,workbench,org.eclipse.ui.workbench,3.7.1.v20120104-1859,"",1391581167460
activated,workbench,org.eclipse.ui.workbench,3.7.1.v20120104-1859,"",1391581209776
activated,editor,org.eclipse.jdt.ui,3.7.2.v20120109-1427,"org.eclipse.jdt.ui.CompilationUnitEditor",1391581227713
activated,view,org.eclipse.jdt.ui,3.7.2.v20120109-1427,"org.eclipse.jdt.ui.PackageExplorer",1391581234406
deactivated,workbench,org.eclipse.ui.workbench,3.7.1.v20120104-1859,"",1391581235897
activated,workbench,org.eclipse.ui.workbench,3.7.1.v20120104-1859,"",1391581237245
deactivated,workbench,org.eclipse.ui.workbench,3.7.1.v20120104-1859,"",1391581237586
activated,workbench,org.eclipse.ui.workbench,3.7.1.v20120104-1859,"",1391581263079
activated,editor,org.eclipse.jdt.ui,3.7.2.v20120109-1427,"org.eclipse.jdt.ui.CompilationUnitEditor",1391581268762
activated,view,org.eclipse.jdt.ui,3.7.2.v20120109-1427,"org.eclipse.jdt.ui.PackageExplorer",1391581280407
deactivated,workbench,org.eclipse.ui.workbench,3.7.1.v20120104-1859,"",1391581281746
activated,workbench,org.eclipse.ui.workbench,3.7.1.v20120104-1859,"",1391581284124
deactivated,workbench,org.eclipse.ui.workbench,3.7.1.v20120104-1859,"",1391581284484
activated,workbench,org.eclipse.ui.workbench,3.7.1.v20120104-1859,"",1391581303027
activated,editor,org.eclipse.jdt.ui,3.7.2.v20120109-1427,"org.eclipse.jdt.ui.CompilationUnitEditor",1391581306074
activated,view,org.eclipse.jdt.ui,3.7.2.v20120109-1427,"org.eclipse.jdt.ui.PackageExplorer",1391581317625
deactivated,workbench,org.eclipse.ui.workbench,3.7.1.v20120104-1859,"",1391581318862
activated,workbench,org.eclipse.ui.workbench,3.7.1.v20120104-1859,"",1391581319669
deactivated,workbench,org.eclipse.ui.workbench,3.7.1.v20120104-1859,"",1391581320034
activated,workbench,org.eclipse.ui.workbench,3.7.1.v20120104-1859,"",1391581335677
activated,editor,org.eclipse.jdt.ui,3.7.2.v20120109-1427,"org.eclipse.jdt.ui.CompilationUnitEditor",1391581338965
deactivated,workbench,org.eclipse.ui.workbench,3.7.1.v20120104-1859,"",1391581346259
activated,workbench,org.eclipse.ui.workbench,3.7.1.v20120104-1859,"",1391581359647
activated,view,org.eclipse.jdt.ui,3.7.2.v20120109-1427,"org.eclipse.jdt.ui.PackageExplorer",1391581403616
deactivated,workbench,org.eclipse.ui.workbench,3.7.1.v20120104-1859,"",1391581404642
activated,workbench,org.eclipse.ui.workbench,3.7.1.v20120104-1859,"",1391581405852
deactivated,workbench,org.eclipse.ui.workbench,3.7.1.v20120104-1859,"",1391581406238
activated,workbench,org.eclipse.ui.workbench,3.7.1.v20120104-1859,"",1391581451566
activated,editor,org.eclipse.jdt.ui,3.7.2.v20120109-1427,"org.eclipse.jdt.ui.CompilationUnitEditor",1391581454324
activated,view,org.eclipse.jdt.ui,3.7.2.v20120109-1427,"org.eclipse.jdt.ui.PackageExplorer",1391581460674
deactivated,workbench,org.eclipse.ui.workbench,3.7.1.v20120104-1859,"",1391581461763
activated,workbench,org.eclipse.ui.workbench,3.7.1.v20120104-1859,"",1391581462420
deactivated,workbench,org.eclipse.ui.workbench,3.7.1.v20120104-1859,"",1391581462811
activated,workbench,org.eclipse.ui.workbench,3.7.1.v20120104-1859,"",1391581492596
activated,editor,org.eclipse.jdt.ui,3.7.2.v20120109-1427,"org.eclipse.jdt.ui.CompilationUnitEditor",1391581492616
activated,view,org.eclipse.ui.console,3.5.100.v20111007_r372,"org.eclipse.ui.console.ConsoleView",1391581516945
activated,view,org.eclipse.jdt.ui,3.7.2.v20120109-1427,"org.eclipse.jdt.ui.PackageExplorer",1391581518121
deactivated,workbench,org.eclipse.ui.workbench,3.7.1.v20120104-1859,"",1391581519037
activated,workbench,org.eclipse.ui.workbench,3.7.1.v20120104-1859,"",1391581519734
deactivated,workbench,org.eclipse.ui.workbench,3.7.1.v20120104-1859,"",1391581520091
activated,workbench,org.eclipse.ui.workbench,3.7.1.v20120104-1859,"",1391581527547
deactivated,workbench,org.eclipse.ui.workbench,3.7.1.v20120104-1859,"",1391581530004
activated,workbench,org.eclipse.ui.workbench,3.7.1.v20120104-1859,"",1391581557064
activated,editor,org.eclipse.jdt.ui,3.7.2.v20120109-1427,"org.eclipse.jdt.ui.CompilationUnitEditor",1391581583035
activated,view,org.eclipse.jdt.ui,3.7.2.v20120109-1427,"org.eclipse.jdt.ui.PackageExplorer",1391581599836
activated,editor,org.eclipse.jdt.ui,3.7.2.v20120109-1427,"org.eclipse.jdt.ui.CompilationUnitEditor",1391581599969
activated,editor,org.eclipse.jdt.ui,3.7.2.v20120109-1427,"org.eclipse.jdt.ui.CompilationUnitEditor",1391581613789
closed,editor,org.eclipse.jdt.ui,3.7.2.v20120109-1427,"org.eclipse.jdt.ui.CompilationUnitEditor",1391581613789
activated,editor,org.eclipse.jdt.ui,3.7.2.v20120109-1427,"org.eclipse.jdt.ui.CompilationUnitEditor",1391581620222
closed,editor,org.eclipse.jdt.ui,3.7.2.v20120109-1427,"org.eclipse.jdt.ui.CompilationUnitEditor",1391581620223
activated,view,org.eclipse.jdt.ui,3.7.2.v20120109-1427,"org.eclipse.jdt.ui.PackageExplorer",1391581639424
deactivated,workbench,org.eclipse.ui.workbench,3.7.1.v20120104-1859,"",1391581641532
activated,workbench,org.eclipse.ui.workbench,3.7.1.v20120104-1859,"",1391581642797
deactivated,workbench,org.eclipse.ui.workbench,3.7.1.v20120104-1859,"",1391581643150
activated,workbench,org.eclipse.ui.workbench,3.7.1.v20120104-1859,"",1391581751253
deactivated,workbench,org.eclipse.ui.workbench,3.7.1.v20120104-1859,"",1391581754006
activated,workbench,org.eclipse.ui.workbench,3.7.1.v20120104-1859,"",1391581767495
activated,editor,org.eclipse.jdt.ui,3.7.2.v20120109-1427,"org.eclipse.jdt.ui.CompilationUnitEditor",1391581770002
activated,view,org.eclipse.jdt.ui,3.7.2.v20120109-1427,"org.eclipse.jdt.ui.PackageExplorer",1391581793805
deactivated,workbench,org.eclipse.ui.workbench,3.7.1.v20120104-1859,"",1391581795095
activated,workbench,org.eclipse.ui.workbench,3.7.1.v20120104-1859,"",1391581795927
deactivated,workbench,org.eclipse.ui.workbench,3.7.1.v20120104-1859,"",1391581796290
activated,workbench,org.eclipse.ui.workbench,3.7.1.v20120104-1859,"",1391581859576
activated,editor,org.eclipse.jdt.ui,3.7.2.v20120109-1427,"org.eclipse.jdt.ui.CompilationUnitEditor",1391581859593
activated,view,org.eclipse.ui.console,3.5.100.v20111007_r372,"org.eclipse.ui.console.ConsoleView",1391581898541
activated,editor,org.eclipse.jdt.ui,3.7.2.v20120109-1427,"org.eclipse.jdt.ui.CompilationUnitEditor",1391581899202
activated,view,org.eclipse.jdt.ui,3.7.2.v20120109-1427,"org.eclipse.jdt.ui.PackageExplorer",1391581900530
deactivated,workbench,org.eclipse.ui.workbench,3.7.1.v20120104-1859,"",1391581901935
activated,workbench,org.eclipse.ui.workbench,3.7.1.v20120104-1859,"",1391581902751
deactivated,workbench,org.eclipse.ui.workbench,3.7.1.v20120104-1859,"",1391581903140
activated,workbench,org.eclipse.ui.workbench,3.7.1.v20120104-1859,"",1391581945265
activated,editor,org.eclipse.jdt.ui,3.7.2.v20120109-1427,"org.eclipse.jdt.ui.CompilationUnitEditor",1391581956803
activated,view,org.eclipse.jdt.ui,3.7.2.v20120109-1427,"org.eclipse.jdt.ui.PackageExplorer",1391581961319
deactivated,workbench,org.eclipse.ui.workbench,3.7.1.v20120104-1859,"",1391581962531
activated,workbench,org.eclipse.ui.workbench,3.7.1.v20120104-1859,"",1391581963412
deactivated,workbench,org.eclipse.ui.workbench,3.7.1.v20120104-1859,"",1391581963794
activated,workbench,org.eclipse.ui.workbench,3.7.1.v20120104-1859,"",1391581980997
activated,editor,org.eclipse.jdt.ui,3.7.2.v20120109-1427,"org.eclipse.jdt.ui.CompilationUnitEditor",1391581984267
activated,view,org.eclipse.jdt.ui,3.7.2.v20120109-1427,"org.eclipse.jdt.ui.PackageExplorer",1391581994631
deactivated,workbench,org.eclipse.ui.workbench,3.7.1.v20120104-1859,"",1391581995968
activated,workbench,org.eclipse.ui.workbench,3.7.1.v20120104-1859,"",1391581996995
deactivated,workbench,org.eclipse.ui.workbench,3.7.1.v20120104-1859,"",1391581997326
activated,workbench,org.eclipse.ui.workbench,3.7.1.v20120104-1859,"",1391582028215
activated,editor,org.eclipse.jdt.ui,3.7.2.v20120109-1427,"org.eclipse.jdt.ui.CompilationUnitEditor",1391582031922
deactivated,workbench,org.eclipse.ui.workbench,3.7.1.v20120104-1859,"",1391582077422
activated,workbench,org.eclipse.ui.workbench,3.7.1.v20120104-1859,"",1391582098140
activated,view,org.eclipse.jdt.ui,3.7.2.v20120109-1427,"org.eclipse.jdt.ui.PackageExplorer",1391582103860
deactivated,workbench,org.eclipse.ui.workbench,3.7.1.v20120104-1859,"",1391582104722
activated,workbench,org.eclipse.ui.workbench,3.7.1.v20120104-1859,"",1391582105709
deactivated,workbench,org.eclipse.ui.workbench,3.7.1.v20120104-1859,"",1391582106107
activated,workbench,org.eclipse.ui.workbench,3.7.1.v20120104-1859,"",1391582113432
activated,editor,org.eclipse.jdt.ui,3.7.2.v20120109-1427,"org.eclipse.jdt.ui.CompilationUnitEditor",1391582123840
activated,view,org.eclipse.jdt.ui,3.7.2.v20120109-1427,"org.eclipse.jdt.ui.PackageExplorer",1391582170578
activated,editor,org.eclipse.jdt.ui,3.7.2.v20120109-1427,"org.eclipse.jdt.ui.CompilationUnitEditor",1391582172271
activated,view,org.eclipse.jdt.ui,3.7.2.v20120109-1427,"org.eclipse.jdt.ui.PackageExplorer",1391582174801
deactivated,workbench,org.eclipse.ui.workbench,3.7.1.v20120104-1859,"",1391582175801
activated,workbench,org.eclipse.ui.workbench,3.7.1.v20120104-1859,"",1391582176635
