what,kind,bundleId,bundleVersion,description,time
started,bundle,org.eclipse.equinox.preferences,3.4.2.v20120111-2020,"org.eclipse.equinox.preferences",1383182060500
started,bundle,org.eclipse.equinox.registry,3.5.101.R37x_v20110810-1611,"org.eclipse.equinox.registry",1383182060500
started,bundle,org.eclipse.equinox.security,1.1.1.R37x_v20110822-1018,"org.eclipse.equinox.security",1383182060500
started,bundle,org.eclipse.equinox.util,1.0.300.v20110502,"org.eclipse.equinox.util",1383182060500
started,bundle,org.eclipse.help,3.5.100.v20110426,"org.eclipse.help",1383182060500
started,bundle,org.eclipse.jdt.apt.core,3.3.500.v20110420-1015,"org.eclipse.jdt.apt.core",1383182060500
started,bundle,org.eclipse.jdt.apt.pluggable.core,1.0.400.v20110305-1450,"org.eclipse.jdt.apt.pluggable.core",1383182060500
started,bundle,org.eclipse.jdt.core,3.7.3.v20120119-1537,"org.eclipse.jdt.core",1383182060500
started,bundle,org.eclipse.jdt.core.manipulation,1.4.0.v20110928-1453,"org.eclipse.jdt.core.manipulation",1383182060500
started,bundle,org.eclipse.jdt.debug,3.7.1.v20111006_r372,"org.eclipse.jdt.debug",1383182060500
started,bundle,org.eclipse.jdt.debug.ui,3.6.1.v20111006_r372,"org.eclipse.jdt.debug.ui",1383182060500
started,bundle,org.eclipse.jdt.launching,3.6.1.v20111006_r372,"org.eclipse.jdt.launching",1383182060500
started,bundle,org.eclipse.jdt.ui,3.7.2.v20120109-1427,"org.eclipse.jdt.ui",1383182060500
started,bundle,org.eclipse.jface,3.7.0.v20110928-1505,"org.eclipse.jface",1383182060500
started,bundle,org.eclipse.jgit,1.3.0.201202151440-r,"org.eclipse.jgit",1383182060500
started,bundle,org.eclipse.jsch.core,1.1.300.I20110514-0800,"org.eclipse.jsch.core",1383182060500
started,bundle,org.eclipse.ltk.core.refactoring,3.5.201.r372_v20111101-0700,"org.eclipse.ltk.core.refactoring",1383182060500
started,bundle,org.eclipse.ltk.ui.refactoring,3.6.0.v20110928-1453,"org.eclipse.ltk.ui.refactoring",1383182060500
started,bundle,org.eclipse.m2e.logback.configuration,1.0.200.20111228-1245,"org.eclipse.m2e.logback.configuration",1383182060500
started,bundle,org.eclipse.mylyn.bugzilla.core,3.8.3.v20130107-0100,"org.eclipse.mylyn.bugzilla.core",1383182060500
started,bundle,org.eclipse.mylyn.bugzilla.ui,3.8.3.v20130107-0100,"org.eclipse.mylyn.bugzilla.ui",1383182060500
started,bundle,org.eclipse.mylyn.commons.core,3.8.4.v20130429-0100,"org.eclipse.mylyn.commons.core",1383182060500
started,bundle,org.eclipse.mylyn.commons.net,3.8.3.v20130107-0100,"org.eclipse.mylyn.commons.net",1383182060500
started,bundle,org.eclipse.mylyn.commons.notifications.core,1.0.3.v20130107-0100,"org.eclipse.mylyn.commons.notifications.core",1383182060500
started,bundle,org.eclipse.mylyn.commons.notifications.feed,1.0.3.v20130107-0100,"org.eclipse.mylyn.commons.notifications.feed",1383182060501
started,bundle,org.eclipse.mylyn.commons.ui,3.8.4.v20130429-0100,"org.eclipse.mylyn.commons.ui",1383182060501
started,bundle,org.eclipse.mylyn.commons.workbench,3.8.4.v20130429-0100,"org.eclipse.mylyn.commons.workbench",1383182060501
started,bundle,org.eclipse.mylyn.context.core,3.8.3.v20130107-0100,"org.eclipse.mylyn.context.core",1383182060501
started,bundle,org.eclipse.mylyn.context.tasks.ui,3.8.3.v20130107-0100,"org.eclipse.mylyn.context.tasks.ui",1383182060501
started,bundle,org.eclipse.mylyn.monitor.ui,3.8.3.v20130107-0100,"org.eclipse.mylyn.monitor.ui",1383182060501
started,bundle,org.eclipse.mylyn.tasks.ui,3.8.3.v20130107-0100,"org.eclipse.mylyn.tasks.ui",1383182060501
started,bundle,org.eclipse.mylyn.team.ui,3.8.3.v20130107-0100,"org.eclipse.mylyn.team.ui",1383182060501
started,bundle,org.eclipse.team.core,3.6.0.I20110525-0800,"org.eclipse.team.core",1383182060501
started,bundle,org.eclipse.team.cvs.core,3.3.400.I20110510-0800,"org.eclipse.team.cvs.core",1383182060501
started,bundle,org.eclipse.team.cvs.ui,3.3.401.v20120126-1227,"org.eclipse.team.cvs.ui",1383182060501
started,bundle,org.eclipse.team.ui,3.6.101.R37x_v20111109-0800,"org.eclipse.team.ui",1383182060501
started,bundle,org.eclipse.ui,3.7.0.v20110928-1505,"org.eclipse.ui",1383182060501
started,bundle,org.eclipse.ui.console,3.5.100.v20111007_r372,"org.eclipse.ui.console",1383182060501
started,bundle,org.eclipse.ui.editors,3.7.0.v20110928-1504,"org.eclipse.ui.editors",1383182060501
started,bundle,org.eclipse.ui.forms,3.5.101.v20111011-1919,"org.eclipse.ui.forms",1383182060501
started,bundle,org.eclipse.ui.ide,3.7.0.v20110928-1505,"org.eclipse.ui.ide",1383182060501
started,bundle,org.eclipse.ui.navigator,3.5.101.v20120106-1355,"org.eclipse.ui.navigator",1383182060501
started,bundle,org.eclipse.ui.net,1.2.100.v20111208-1155,"org.eclipse.ui.net",1383182060501
started,bundle,org.eclipse.ui.views,3.6.0.v20110928-1505,"org.eclipse.ui.views",1383182060501
started,bundle,org.eclipse.ui.workbench,3.7.1.v20120104-1859,"org.eclipse.ui.workbench",1383182060501
started,bundle,org.eclipse.ui.workbench.texteditor,3.7.0.v20110928-1504,"org.eclipse.ui.workbench.texteditor",1383182060501
started,bundle,org.eclipse.update.configurator,3.3.100.v20100512,"org.eclipse.update.configurator",1383182060501
started,bundle,org.eclipse.update.core,3.2.500.v20110330,"org.eclipse.update.core",1383182060501
started,bundle,org.eclipse.update.scheduler,3.2.300.v20100512,"org.eclipse.update.scheduler",1383182060501
started,bundle,org.eclipse.wb.core,1.5.2.r37x201303061457,"org.eclipse.wb.core",1383182060501
started,bundle,org.eclipse.wb.core.java,1.5.2.r37x201303061505,"org.eclipse.wb.core.java",1383182060501
started,bundle,org.eclipse.wb.core.lib,1.5.2.r37x201303061457,"org.eclipse.wb.core.lib",1383182060502
started,bundle,org.eclipse.wb.discovery.core,1.5.2.r37x201303061516,"org.eclipse.wb.discovery.core",1383182060502
started,bundle,org.eclipse.wb.discovery.ui,1.5.2.r37x201303061516,"org.eclipse.wb.discovery.ui",1383182060502
started,bundle,org.python.pydev,2.7.3.2013031601,"org.python.pydev",1383182060502
started,bundle,org.python.pydev.core,2.7.3.2013031601,"org.python.pydev.core",1383182060502
started,bundle,org.python.pydev.debug,2.7.3.2013031601,"org.python.pydev.debug",1383182060502
started,bundle,org.python.pydev.shared_core,2.7.3.2013031601,"org.python.pydev.shared_core",1383182060502
started,bundle,org.python.pydev.shared_interactive_console,2.7.3.2013031601,"org.python.pydev.shared_interactive_console",1383182060502
started,bundle,org.python.pydev.shared_ui,2.7.3.2013031601,"org.python.pydev.shared_ui",1383182060502
os,sysinfo,,,"win32",1383182060504
arch,sysinfo,,,"x86",1383182060504
ws,sysinfo,,,"win32",1383182060504
locale,sysinfo,,,"en_CA",1383182060504
processors,sysinfo,,,"4",1383182060504
java.runtime.name,sysinfo,,,"Java(TM) SE Runtime Environment",1383182060504
java.runtime.version,sysinfo,,,"1.7.0_25-b17",1383182060504
java.specification.name,sysinfo,,,"Java Platform API Specification",1383182060504
java.specification.vendor,sysinfo,,,"Oracle Corporation",1383182060504
java.specification.version,sysinfo,,,"1.7",1383182060504
java.vendor,sysinfo,,,"Oracle Corporation",1383182060504
java.version,sysinfo,,,"1.7.0_25",1383182060504
java.vm.info,sysinfo,,,"mixed mode, sharing",1383182060504
java.vm.name,sysinfo,,,"Java HotSpot(TM) Client VM",1383182060504
java.vm.specification.name,sysinfo,,,"Java Virtual Machine Specification",1383182060504
java.vm.specification.vendor,sysinfo,,,"Oracle Corporation",1383182060504
java.vm.specification.version,sysinfo,,,"1.7",1383182060504
java.vm.vendor,sysinfo,,,"Oracle Corporation",1383182060504
java.vm.version,sysinfo,,,"23.25-b01",1383182060504
started,bundle,org.eclipse.m2e.usagedata,1.0.200.20111228-1245,"org.eclipse.m2e.usagedata",1383182060506
started,bundle,org.eclipse.epp.usagedata.ui,1.3.1.R201106061540,"org.eclipse.epp.usagedata.ui",1383182061600
deactivated,workbench,org.eclipse.ui.workbench,3.7.1.v20120104-1859,"",1383182062028
activated,workbench,org.eclipse.ui.workbench,3.7.1.v20120104-1859,"",1383182345039
deactivated,workbench,org.eclipse.ui.workbench,3.7.1.v20120104-1859,"",1383182346300
activated,workbench,org.eclipse.ui.workbench,3.7.1.v20120104-1859,"",1383182364406
opened,editor,org.eclipse.jdt.ui,3.7.2.v20120109-1427,"org.eclipse.jdt.ui.CompilationUnitEditor",1383182398443
activated,editor,org.eclipse.jdt.ui,3.7.2.v20120109-1427,"org.eclipse.jdt.ui.CompilationUnitEditor",1383182398472
activated,editor,org.eclipse.jdt.ui,3.7.2.v20120109-1427,"org.eclipse.jdt.ui.CompilationUnitEditor",1383182411326
activated,editor,org.eclipse.jdt.ui,3.7.2.v20120109-1427,"org.eclipse.jdt.ui.CompilationUnitEditor",1383182426993
activated,editor,org.eclipse.jdt.ui,3.7.2.v20120109-1427,"org.eclipse.jdt.ui.CompilationUnitEditor",1383182462110
started,bundle,org.eclipse.ui.externaltools,3.2.0.v20111007_r372,"org.eclipse.ui.externaltools",1383182463895
started,bundle,org.eclipse.cdt.debug.core,7.1.0.201202111925,"org.eclipse.cdt.debug.core",1383182463966
started,bundle,org.eclipse.cdt.debug.ui,7.1.2.201202111925,"org.eclipse.cdt.debug.ui",1383182463995
started,bundle,org.eclipse.tm.tcf,0.4.0.201106081058,"org.eclipse.tm.tcf",1383182464101
started,bundle,org.eclipse.tm.tcf.core,0.4.0.201106081058,"org.eclipse.tm.tcf.core",1383182464102
started,bundle,org.eclipse.tm.tcf.debug.ui,0.4.0.201106081058,"org.eclipse.tm.tcf.debug.ui",1383182464102
started,bundle,org.eclipse.tm.tcf.cdt.ui,0.4.0.201106081058,"org.eclipse.tm.tcf.cdt.ui",1383182464105
started,bundle,org.eclipse.tm.tcf.debug,0.4.0.201106081058,"org.eclipse.tm.tcf.debug",1383182464403
started,bundle,com.google.gdt.eclipse.maven,3.3.0.v201307162142-rel-r37,"com.google.gdt.eclipse.maven",1383182464492
started,bundle,com.google.gdt.eclipse.suite,3.3.0.v201307162142-rel-r37,"com.google.gdt.eclipse.suite",1383182464495
started,bundle,org.eclipse.cdt.launch,7.0.0.201202111925,"org.eclipse.cdt.launch",1383182464554
executed,command,org.eclipse.ui,3.7.0.v20110928-1505,"org.eclipse.ui.edit.copy",1383182495459
executed,command,org.eclipse.ui,3.7.0.v20110928-1505,"org.eclipse.ui.edit.copy",1383182495573
executed,command,org.eclipse.ui,3.7.0.v20110928-1505,"org.eclipse.ui.edit.copy",1383182495701
executed,command,org.eclipse.ui,3.7.0.v20110928-1505,"org.eclipse.ui.edit.copy",1383182495830
deactivated,workbench,org.eclipse.ui.workbench,3.7.1.v20120104-1859,"",1383182496757
activated,workbench,org.eclipse.ui.workbench,3.7.1.v20120104-1859,"",1383182506358
started,bundle,org.eclipse.jdt.junit,3.7.0.v20110928-1453,"org.eclipse.jdt.junit",1383182520072
started,bundle,org.eclipse.mylyn.java.ui,3.8.3.v20130107-0100,"org.eclipse.mylyn.java.ui",1383182524037
activated,editor,org.eclipse.jdt.ui,3.7.2.v20120109-1427,"org.eclipse.jdt.ui.CompilationUnitEditor",1383182544646
activated,editor,org.eclipse.jdt.ui,3.7.2.v20120109-1427,"org.eclipse.jdt.ui.CompilationUnitEditor",1383182552574
deactivated,workbench,org.eclipse.ui.workbench,3.7.1.v20120104-1859,"",1383182570458
activated,workbench,org.eclipse.ui.workbench,3.7.1.v20120104-1859,"",1383182570532
activated,view,org.eclipse.jdt.ui,3.7.2.v20120109-1427,"org.eclipse.jdt.ui.PackageExplorer",1383182608652
started,bundle,org.eclipse.wst.common.project.facet.core,1.4.201.v201201101553,"org.eclipse.wst.common.project.facet.core",1383182608891
started,bundle,org.eclipse.jst.common.project.facet.core,1.4.200.v201103170302,"org.eclipse.jst.common.project.facet.core",1383182608921
started,bundle,org.eclipse.jpt.common.core,1.0.2.v201111103010,"org.eclipse.jpt.common.core",1383182608927
stopped,bundle,org.eclipse.jpt.jpa.core,3.0.2.v201201243020,"org.eclipse.jpt.jpa.core",1383182608930
error,log,,,"An error occurred while automatically activating bundle org.eclipse.jpt.jpa.core (321).",1383182608976
error,log,,,"Could not create content describer for org.eclipse.jpt.jpa.core.content.baseJpaContent. Content type has been disabled.",1383182608977
started,bundle,org.eclipse.wst.sse.core,1.1.602.v201112071516,"org.eclipse.wst.sse.core",1383182609014
activated,editor,org.eclipse.jdt.ui,3.7.2.v20120109-1427,"org.eclipse.jdt.ui.CompilationUnitEditor",1383182614303
activated,view,org.eclipse.jdt.ui,3.7.2.v20120109-1427,"org.eclipse.jdt.ui.PackageExplorer",1383182627343
started,bundle,org.eclipse.mylyn.context.ui,3.8.3.v20130107-0100,"org.eclipse.mylyn.context.ui",1383182632581
opened,editor,org.eclipse.jdt.ui,3.7.2.v20120109-1427,"org.eclipse.jdt.ui.CompilationUnitEditor",1383182632752
activated,editor,org.eclipse.jdt.ui,3.7.2.v20120109-1427,"org.eclipse.jdt.ui.CompilationUnitEditor",1383182632779
activated,editor,org.eclipse.jdt.ui,3.7.2.v20120109-1427,"org.eclipse.jdt.ui.CompilationUnitEditor",1383182639459
closed,editor,org.eclipse.jdt.ui,3.7.2.v20120109-1427,"org.eclipse.jdt.ui.CompilationUnitEditor",1383182639471
activated,view,org.eclipse.jdt.ui,3.7.2.v20120109-1427,"org.eclipse.jdt.ui.PackageExplorer",1383182643218
opened,editor,org.eclipse.jdt.ui,3.7.2.v20120109-1427,"org.eclipse.jdt.ui.CompilationUnitEditor",1383182643371
activated,editor,org.eclipse.jdt.ui,3.7.2.v20120109-1427,"org.eclipse.jdt.ui.CompilationUnitEditor",1383182643396
deactivated,workbench,org.eclipse.ui.workbench,3.7.1.v20120104-1859,"",1383182664440
activated,workbench,org.eclipse.ui.workbench,3.7.1.v20120104-1859,"",1383182667426
deactivated,workbench,org.eclipse.ui.workbench,3.7.1.v20120104-1859,"",1383182680391
activated,workbench,org.eclipse.ui.workbench,3.7.1.v20120104-1859,"",1383182681715
activated,editor,org.eclipse.jdt.ui,3.7.2.v20120109-1427,"org.eclipse.jdt.ui.CompilationUnitEditor",1383182681893
closed,editor,org.eclipse.jdt.ui,3.7.2.v20120109-1427,"org.eclipse.jdt.ui.CompilationUnitEditor",1383182681893
error,log,,,"Could not parse the XML file C:\\Users\\Jesse\\AppData\\Local\\Temp\\site5731447807933406639xml",1383182682921
activated,view,org.eclipse.jdt.ui,3.7.2.v20120109-1427,"org.eclipse.jdt.ui.PackageExplorer",1383182685166
opened,editor,org.eclipse.jdt.ui,3.7.2.v20120109-1427,"org.eclipse.jdt.ui.CompilationUnitEditor",1383182685307
activated,editor,org.eclipse.jdt.ui,3.7.2.v20120109-1427,"org.eclipse.jdt.ui.CompilationUnitEditor",1383182685332
activated,editor,org.eclipse.jdt.ui,3.7.2.v20120109-1427,"org.eclipse.jdt.ui.CompilationUnitEditor",1383182692309
closed,editor,org.eclipse.jdt.ui,3.7.2.v20120109-1427,"org.eclipse.jdt.ui.CompilationUnitEditor",1383182692310
executed,command,org.eclipse.jdt.ui,3.7.2.v20120109-1427,"org.eclipse.jdt.ui.edit.text.java.format",1383182802824
activated,view,org.eclipse.jdt.ui,3.7.2.v20120109-1427,"org.eclipse.jdt.ui.PackageExplorer",1383182820109
deactivated,workbench,org.eclipse.ui.workbench,3.7.1.v20120104-1859,"",1383182821612
activated,workbench,org.eclipse.ui.workbench,3.7.1.v20120104-1859,"",1383182822499
started,bundle,org.eclipse.core.variables,3.2.500.v20110928-1503,"org.eclipse.core.variables",1383182822928
started,bundle,org.eclipse.m2e.launching,1.0.200.20111228-1245,"org.eclipse.m2e.launching",1383182823022
started,bundle,org.eclipse.cdt.debug.mi.ui,6.1.1.201202111925,"org.eclipse.cdt.debug.mi.ui",1383182823055
started,bundle,org.eclipse.cdt.debug.mi.core,7.1.1.201202111925,"org.eclipse.cdt.debug.mi.core",1383182823184
deactivated,workbench,org.eclipse.ui.workbench,3.7.1.v20120104-1859,"",1383182824366
activated,workbench,org.eclipse.ui.workbench,3.7.1.v20120104-1859,"",1383182849347
deactivated,workbench,org.eclipse.ui.workbench,3.7.1.v20120104-1859,"",1383182852496
activated,workbench,org.eclipse.ui.workbench,3.7.1.v20120104-1859,"",1383182858625
activated,editor,org.eclipse.jdt.ui,3.7.2.v20120109-1427,"org.eclipse.jdt.ui.CompilationUnitEditor",1383182862735
activated,view,org.eclipse.jdt.ui,3.7.2.v20120109-1427,"org.eclipse.jdt.ui.PackageExplorer",1383182873442
deactivated,workbench,org.eclipse.ui.workbench,3.7.1.v20120104-1859,"",1383182874676
activated,workbench,org.eclipse.ui.workbench,3.7.1.v20120104-1859,"",1383182875972
deactivated,workbench,org.eclipse.ui.workbench,3.7.1.v20120104-1859,"",1383182876568
activated,workbench,org.eclipse.ui.workbench,3.7.1.v20120104-1859,"",1383182883564
activated,editor,org.eclipse.jdt.ui,3.7.2.v20120109-1427,"org.eclipse.jdt.ui.CompilationUnitEditor",1383182886666
executed,command,org.eclipse.ui,3.7.0.v20110928-1505,"org.eclipse.ui.edit.cut",1383182888332
started,bundle,org.eclipse.mylyn.java.tasks,3.8.3.v20130107-0100,"org.eclipse.mylyn.java.tasks",1383182904522
executed,command,org.eclipse.ui,3.7.0.v20110928-1505,"org.eclipse.ui.edit.paste",1383182906281
activated,view,org.eclipse.jdt.ui,3.7.2.v20120109-1427,"org.eclipse.jdt.ui.PackageExplorer",1383182908563
deactivated,workbench,org.eclipse.ui.workbench,3.7.1.v20120104-1859,"",1383182909821
activated,workbench,org.eclipse.ui.workbench,3.7.1.v20120104-1859,"",1383182910790
deactivated,workbench,org.eclipse.ui.workbench,3.7.1.v20120104-1859,"",1383182911203
activated,workbench,org.eclipse.ui.workbench,3.7.1.v20120104-1859,"",1383182928040
opened,editor,org.eclipse.jdt.ui,3.7.2.v20120109-1427,"org.eclipse.jdt.ui.CompilationUnitEditor",1383182933093
activated,editor,org.eclipse.jdt.ui,3.7.2.v20120109-1427,"org.eclipse.jdt.ui.CompilationUnitEditor",1383182933119
activated,editor,org.eclipse.jdt.ui,3.7.2.v20120109-1427,"org.eclipse.jdt.ui.CompilationUnitEditor",1383182985106
executed,command,org.eclipse.ui,3.7.0.v20110928-1505,"org.eclipse.ui.file.saveAll",1383183069940
activated,editor,org.eclipse.jdt.ui,3.7.2.v20120109-1427,"org.eclipse.jdt.ui.CompilationUnitEditor",1383183072268
activated,editor,org.eclipse.jdt.ui,3.7.2.v20120109-1427,"org.eclipse.jdt.ui.CompilationUnitEditor",1383183073521
activated,view,org.eclipse.jdt.ui,3.7.2.v20120109-1427,"org.eclipse.jdt.ui.PackageExplorer",1383183087747
deactivated,workbench,org.eclipse.ui.workbench,3.7.1.v20120104-1859,"",1383183088934
activated,workbench,org.eclipse.ui.workbench,3.7.1.v20120104-1859,"",1383183089770
deactivated,workbench,org.eclipse.ui.workbench,3.7.1.v20120104-1859,"",1383183090202
activated,workbench,org.eclipse.ui.workbench,3.7.1.v20120104-1859,"",1383183106372
opened,editor,org.eclipse.jdt.ui,3.7.2.v20120109-1427,"org.eclipse.jdt.ui.CompilationUnitEditor",1383183109221
activated,editor,org.eclipse.jdt.ui,3.7.2.v20120109-1427,"org.eclipse.jdt.ui.CompilationUnitEditor",1383183109254
opened,editor,org.eclipse.jdt.ui,3.7.2.v20120109-1427,"org.eclipse.jdt.ui.CompilationUnitEditor",1383183110933
activated,editor,org.eclipse.jdt.ui,3.7.2.v20120109-1427,"org.eclipse.jdt.ui.CompilationUnitEditor",1383183110953
activated,editor,org.eclipse.jdt.ui,3.7.2.v20120109-1427,"org.eclipse.jdt.ui.CompilationUnitEditor",1383183111761
activated,editor,org.eclipse.jdt.ui,3.7.2.v20120109-1427,"org.eclipse.jdt.ui.CompilationUnitEditor",1383183113241
deactivated,workbench,org.eclipse.ui.workbench,3.7.1.v20120104-1859,"",1383183118110
activated,workbench,org.eclipse.ui.workbench,3.7.1.v20120104-1859,"",1383183180310
activated,view,org.eclipse.jdt.ui,3.7.2.v20120109-1427,"org.eclipse.jdt.ui.PackageExplorer",1383183197932
opened,editor,org.eclipse.jdt.ui,3.7.2.v20120109-1427,"org.eclipse.jdt.ui.CompilationUnitEditor",1383183202074
activated,editor,org.eclipse.jdt.ui,3.7.2.v20120109-1427,"org.eclipse.jdt.ui.CompilationUnitEditor",1383183202101
executed,command,org.eclipse.ui,3.7.0.v20110928-1505,"org.eclipse.ui.edit.copy",1383183225208
executed,command,org.eclipse.ui,3.7.0.v20110928-1505,"org.eclipse.ui.edit.paste",1383183226445
executed,command,org.eclipse.ui,3.7.0.v20110928-1505,"org.eclipse.ui.file.saveAll",1383183237792
deactivated,workbench,org.eclipse.ui.workbench,3.7.1.v20120104-1859,"",1383183240298
activated,workbench,org.eclipse.ui.workbench,3.7.1.v20120104-1859,"",1383183268674
activated,view,org.eclipse.jdt.ui,3.7.2.v20120109-1427,"org.eclipse.jdt.ui.PackageExplorer",1383183276186
started,bundle,org.eclipse.compare,3.5.202.R37x_v20111109-0800,"org.eclipse.compare",1383183276640
executed,command,org.eclipse.ui,3.7.0.v20110928-1505,"org.eclipse.ui.file.refresh",1383183278034
deactivated,workbench,org.eclipse.ui.workbench,3.7.1.v20120104-1859,"",1383183278779
activated,workbench,org.eclipse.ui.workbench,3.7.1.v20120104-1859,"",1383183286932
activated,editor,org.eclipse.jdt.ui,3.7.2.v20120109-1427,"org.eclipse.jdt.ui.CompilationUnitEditor",1383183293723
executed,command,org.eclipse.ui,3.7.0.v20110928-1505,"org.eclipse.ui.edit.copy",1383183302400
executed,command,org.eclipse.ui,3.7.0.v20110928-1505,"org.eclipse.ui.edit.paste",1383183303192
activated,editor,org.eclipse.jdt.ui,3.7.2.v20120109-1427,"org.eclipse.jdt.ui.CompilationUnitEditor",1383183323683
activated,editor,org.eclipse.jdt.ui,3.7.2.v20120109-1427,"org.eclipse.jdt.ui.CompilationUnitEditor",1383183336173
activated,editor,org.eclipse.jdt.ui,3.7.2.v20120109-1427,"org.eclipse.jdt.ui.CompilationUnitEditor",1383183421098
activated,editor,org.eclipse.jdt.ui,3.7.2.v20120109-1427,"org.eclipse.jdt.ui.CompilationUnitEditor",1383183422598
closed,editor,org.eclipse.jdt.ui,3.7.2.v20120109-1427,"org.eclipse.jdt.ui.CompilationUnitEditor",1383183422599
closed,editor,org.eclipse.jdt.ui,3.7.2.v20120109-1427,"org.eclipse.jdt.ui.CompilationUnitEditor",1383183423530
closed,editor,org.eclipse.jdt.ui,3.7.2.v20120109-1427,"org.eclipse.jdt.ui.CompilationUnitEditor",1383183424704
closed,editor,org.eclipse.jdt.ui,3.7.2.v20120109-1427,"org.eclipse.jdt.ui.CompilationUnitEditor",1383183426253
activated,editor,org.eclipse.jdt.ui,3.7.2.v20120109-1427,"org.eclipse.jdt.ui.CompilationUnitEditor",1383183427105
activated,view,org.eclipse.jdt.ui,3.7.2.v20120109-1427,"org.eclipse.jdt.ui.PackageExplorer",1383183429985
opened,editor,org.eclipse.jdt.ui,3.7.2.v20120109-1427,"org.eclipse.jdt.ui.CompilationUnitEditor",1383183430171
activated,editor,org.eclipse.jdt.ui,3.7.2.v20120109-1427,"org.eclipse.jdt.ui.CompilationUnitEditor",1383183430196
activated,view,org.eclipse.jdt.ui,3.7.2.v20120109-1427,"org.eclipse.jdt.ui.PackageExplorer",1383183448876
activated,editor,org.eclipse.jdt.ui,3.7.2.v20120109-1427,"org.eclipse.jdt.ui.CompilationUnitEditor",1383183449031
activated,view,org.eclipse.jdt.ui,3.7.2.v20120109-1427,"org.eclipse.jdt.ui.PackageExplorer",1383183463948
activated,editor,org.eclipse.jdt.ui,3.7.2.v20120109-1427,"org.eclipse.jdt.ui.CompilationUnitEditor",1383183464121
activated,editor,org.eclipse.jdt.ui,3.7.2.v20120109-1427,"org.eclipse.jdt.ui.CompilationUnitEditor",1383183468628
closed,editor,org.eclipse.jdt.ui,3.7.2.v20120109-1427,"org.eclipse.jdt.ui.CompilationUnitEditor",1383183468629
activated,view,org.eclipse.jdt.ui,3.7.2.v20120109-1427,"org.eclipse.jdt.ui.PackageExplorer",1383183469714
deactivated,workbench,org.eclipse.ui.workbench,3.7.1.v20120104-1859,"",1383183474389
activated,workbench,org.eclipse.ui.workbench,3.7.1.v20120104-1859,"",1383183478605
opened,editor,org.eclipse.jdt.ui,3.7.2.v20120109-1427,"org.eclipse.jdt.ui.CompilationUnitEditor",1383183478933
activated,editor,org.eclipse.jdt.ui,3.7.2.v20120109-1427,"org.eclipse.jdt.ui.CompilationUnitEditor",1383183478954
activated,editor,org.eclipse.jdt.ui,3.7.2.v20120109-1427,"org.eclipse.jdt.ui.CompilationUnitEditor",1383183489120
activated,editor,org.eclipse.jdt.ui,3.7.2.v20120109-1427,"org.eclipse.jdt.ui.CompilationUnitEditor",1383183490085
activated,editor,org.eclipse.jdt.ui,3.7.2.v20120109-1427,"org.eclipse.jdt.ui.CompilationUnitEditor",1383183491363
activated,editor,org.eclipse.jdt.ui,3.7.2.v20120109-1427,"org.eclipse.jdt.ui.CompilationUnitEditor",1383183492403
activated,view,org.eclipse.jdt.ui,3.7.2.v20120109-1427,"org.eclipse.jdt.ui.PackageExplorer",1383183493238
opened,editor,org.eclipse.jdt.ui,3.7.2.v20120109-1427,"org.eclipse.jdt.ui.CompilationUnitEditor",1383183493406
activated,editor,org.eclipse.jdt.ui,3.7.2.v20120109-1427,"org.eclipse.jdt.ui.CompilationUnitEditor",1383183493432
activated,editor,org.eclipse.jdt.ui,3.7.2.v20120109-1427,"org.eclipse.jdt.ui.CompilationUnitEditor",1383183495751
executed,command,org.eclipse.ui,3.7.0.v20110928-1505,"org.eclipse.ui.edit.text.contentAssist.proposals",1383183497574
activated,editor,org.eclipse.jdt.ui,3.7.2.v20120109-1427,"org.eclipse.jdt.ui.CompilationUnitEditor",1383183500821
activated,editor,org.eclipse.jdt.ui,3.7.2.v20120109-1427,"org.eclipse.jdt.ui.CompilationUnitEditor",1383183513278
activated,editor,org.eclipse.jdt.ui,3.7.2.v20120109-1427,"org.eclipse.jdt.ui.CompilationUnitEditor",1383183514496
activated,editor,org.eclipse.jdt.ui,3.7.2.v20120109-1427,"org.eclipse.jdt.ui.CompilationUnitEditor",1383183515915
activated,editor,org.eclipse.jdt.ui,3.7.2.v20120109-1427,"org.eclipse.jdt.ui.CompilationUnitEditor",1383183516552
activated,editor,org.eclipse.jdt.ui,3.7.2.v20120109-1427,"org.eclipse.jdt.ui.CompilationUnitEditor",1383183518269
activated,editor,org.eclipse.jdt.ui,3.7.2.v20120109-1427,"org.eclipse.jdt.ui.CompilationUnitEditor",1383183519023
activated,editor,org.eclipse.jdt.ui,3.7.2.v20120109-1427,"org.eclipse.jdt.ui.CompilationUnitEditor",1383183530641
executed,command,org.eclipse.jdt.ui,3.7.2.v20120109-1427,"org.eclipse.jdt.ui.edit.text.java.organize.imports",1383183541312
executed,command,org.eclipse.jdt.ui,3.7.2.v20120109-1427,"org.eclipse.jdt.ui.edit.text.java.organize.imports",1383183561422
activated,editor,org.eclipse.jdt.ui,3.7.2.v20120109-1427,"org.eclipse.jdt.ui.CompilationUnitEditor",1383183572240
activated,editor,org.eclipse.jdt.ui,3.7.2.v20120109-1427,"org.eclipse.jdt.ui.CompilationUnitEditor",1383183578969
activated,editor,org.eclipse.jdt.ui,3.7.2.v20120109-1427,"org.eclipse.jdt.ui.CompilationUnitEditor",1383183583002
