what,kind,bundleId,bundleVersion,description,time
started,bundle,org.eclipse.cdt.managedbuilder.core,8.0.2.201202111925,"org.eclipse.cdt.managedbuilder.core",1377117204552
started,bundle,org.eclipse.cdt.scripting,1.0.0.201202112006,"org.eclipse.cdt.scripting",1377117204552
started,bundle,org.eclipse.cdt.ui,5.3.2.201202111925,"org.eclipse.cdt.ui",1377117204552
started,bundle,org.eclipse.compare.core,3.5.200.I20110208-0800,"org.eclipse.compare.core",1377117204552
started,bundle,org.eclipse.core.contenttype,3.4.100.v20110423-0524,"org.eclipse.core.contenttype",1377117204552
started,bundle,org.eclipse.core.databinding.observable,1.4.0.I20110222-0800,"org.eclipse.core.databinding.observable",1377117204552
started,bundle,org.eclipse.core.expressions,3.4.300.v20110228,"org.eclipse.core.expressions",1377117204552
started,bundle,org.eclipse.core.filebuffers,3.5.200.v20110928-1504,"org.eclipse.core.filebuffers",1377117204552
started,bundle,org.eclipse.core.filesystem,1.3.100.v20110423-0524,"org.eclipse.core.filesystem",1377117204552
started,bundle,org.eclipse.core.jobs,3.5.101.v20120113-1953,"org.eclipse.core.jobs",1377117204552
started,bundle,org.eclipse.core.net,1.2.100.I20110511-0800,"org.eclipse.core.net",1377117204552
started,bundle,org.eclipse.core.resources,3.7.101.v20120125-1505,"org.eclipse.core.resources",1377117204552
started,bundle,org.eclipse.core.runtime,3.7.0.v20110110,"org.eclipse.core.runtime",1377117204552
started,bundle,org.eclipse.core.runtime.compatibility,3.2.100.v20100505,"org.eclipse.core.runtime.compatibility",1377117204553
started,bundle,org.eclipse.core.runtime.compatibility.auth,3.2.200.v20110110,"org.eclipse.core.runtime.compatibility.auth",1377117204553
started,bundle,org.eclipse.core.variables,3.2.500.v20110928-1503,"org.eclipse.core.variables",1377117204553
started,bundle,org.eclipse.debug.core,3.7.1.v20111129-2031,"org.eclipse.debug.core",1377117204553
started,bundle,org.eclipse.ecf.filetransfer,5.0.0.v20110531-2218,"org.eclipse.ecf.filetransfer",1377117204553
started,bundle,org.eclipse.egit.core,1.3.0.201202151440-r,"org.eclipse.egit.core",1377117204553
started,bundle,org.eclipse.egit.ui,1.3.0.201202151440-r,"org.eclipse.egit.ui",1377117204553
started,bundle,org.eclipse.epp.mpc.ui,1.1.1.I20110907-0947,"org.eclipse.epp.mpc.ui",1377117204553
started,bundle,org.eclipse.epp.usagedata.gathering,1.3.1.R201106061540,"org.eclipse.epp.usagedata.gathering",1377117204553
started,bundle,org.eclipse.epp.usagedata.recording,1.3.1.R201106061540,"org.eclipse.epp.usagedata.recording",1377117204553
started,bundle,org.eclipse.equinox.app,1.3.100.v20110321,"org.eclipse.equinox.app",1377117204553
started,bundle,org.eclipse.equinox.common,3.6.0.v20110523,"org.eclipse.equinox.common",1377117204553
started,bundle,org.eclipse.equinox.ds,1.3.1.R37x_v20110701,"org.eclipse.equinox.ds",1377117204553
started,bundle,org.eclipse.equinox.event,1.2.100.v20110502,"org.eclipse.equinox.event",1377117204553
started,bundle,org.eclipse.equinox.p2.artifact.repository,1.1.101.v20110815-1419,"org.eclipse.equinox.p2.artifact.repository",1377117204553
started,bundle,org.eclipse.equinox.p2.core,2.1.1.v20120113-1346,"org.eclipse.equinox.p2.core",1377117204553
started,bundle,org.eclipse.equinox.p2.director,2.1.1.v20111126-0211,"org.eclipse.equinox.p2.director",1377117204554
started,bundle,org.eclipse.equinox.p2.directorywatcher,1.0.300.v20110815-1419,"org.eclipse.equinox.p2.directorywatcher",1377117204554
started,bundle,org.eclipse.equinox.p2.engine,2.1.1.R37x_v20111003,"org.eclipse.equinox.p2.engine",1377117204554
started,bundle,org.eclipse.equinox.p2.extensionlocation,1.2.100.v20110815-1419,"org.eclipse.equinox.p2.extensionlocation",1377117204554
started,bundle,org.eclipse.equinox.p2.garbagecollector,1.0.200.v20110815-1419,"org.eclipse.equinox.p2.garbagecollector",1377117204554
started,bundle,org.eclipse.equinox.p2.metadata,2.1.0.v20110815-1419,"org.eclipse.equinox.p2.metadata",1377117204554
started,bundle,org.eclipse.equinox.p2.metadata.repository,1.2.0.v20110815-1419,"org.eclipse.equinox.p2.metadata.repository",1377117204554
started,bundle,org.eclipse.equinox.p2.operations,2.1.1.R37x_v20111111,"org.eclipse.equinox.p2.operations",1377117204554
started,bundle,org.eclipse.equinox.p2.publisher,1.2.0.v20110815-1419,"org.eclipse.equinox.p2.publisher",1377117204554
started,bundle,org.eclipse.equinox.p2.publisher.eclipse,1.0.0.v20110815-1438,"org.eclipse.equinox.p2.publisher.eclipse",1377117204554
started,bundle,org.eclipse.equinox.p2.reconciler.dropins,1.1.100.v20110815-1419,"org.eclipse.equinox.p2.reconciler.dropins",1377117204554
started,bundle,org.eclipse.equinox.p2.repository,2.1.1.v20120113-1346,"org.eclipse.equinox.p2.repository",1377117204554
started,bundle,org.eclipse.equinox.p2.touchpoint.eclipse,2.1.1.v20110815-1419,"org.eclipse.equinox.p2.touchpoint.eclipse",1377117204554
started,bundle,org.eclipse.equinox.p2.transport.ecf,1.0.0.v20111128-0624,"org.eclipse.equinox.p2.transport.ecf",1377117204555
started,bundle,org.eclipse.equinox.p2.ui.sdk.scheduler,1.0.100.v20110815-1419,"org.eclipse.equinox.p2.ui.sdk.scheduler",1377117204555
started,bundle,org.eclipse.equinox.p2.updatechecker,1.1.200.v20110815-1419,"org.eclipse.equinox.p2.updatechecker",1377117204555
started,bundle,org.eclipse.equinox.p2.updatesite,1.0.300.v20110815-1419,"org.eclipse.equinox.p2.updatesite",1377117204555
started,bundle,org.eclipse.equinox.preferences,3.4.2.v20120111-2020,"org.eclipse.equinox.preferences",1377117204555
started,bundle,org.eclipse.equinox.registry,3.5.101.R37x_v20110810-1611,"org.eclipse.equinox.registry",1377117204555
started,bundle,org.eclipse.equinox.security,1.1.1.R37x_v20110822-1018,"org.eclipse.equinox.security",1377117204555
started,bundle,org.eclipse.equinox.util,1.0.300.v20110502,"org.eclipse.equinox.util",1377117204555
started,bundle,org.eclipse.help,3.5.100.v20110426,"org.eclipse.help",1377117204555
started,bundle,org.eclipse.jdt.apt.core,3.3.500.v20110420-1015,"org.eclipse.jdt.apt.core",1377117204555
started,bundle,org.eclipse.jdt.apt.pluggable.core,1.0.400.v20110305-1450,"org.eclipse.jdt.apt.pluggable.core",1377117204555
started,bundle,org.eclipse.jdt.core,3.7.3.v20120119-1537,"org.eclipse.jdt.core",1377117204555
started,bundle,org.eclipse.jdt.core.manipulation,1.4.0.v20110928-1453,"org.eclipse.jdt.core.manipulation",1377117204555
started,bundle,org.eclipse.jdt.launching,3.6.1.v20111006_r372,"org.eclipse.jdt.launching",1377117204555
started,bundle,org.eclipse.jdt.ui,3.7.2.v20120109-1427,"org.eclipse.jdt.ui",1377117204555
started,bundle,org.eclipse.jface,3.7.0.v20110928-1505,"org.eclipse.jface",1377117204555
started,bundle,org.eclipse.jgit,1.3.0.201202151440-r,"org.eclipse.jgit",1377117204555
started,bundle,org.eclipse.jsch.core,1.1.300.I20110514-0800,"org.eclipse.jsch.core",1377117204555
started,bundle,org.eclipse.ltk.core.refactoring,3.5.201.r372_v20111101-0700,"org.eclipse.ltk.core.refactoring",1377117204555
started,bundle,org.eclipse.ltk.ui.refactoring,3.6.0.v20110928-1453,"org.eclipse.ltk.ui.refactoring",1377117204555
started,bundle,org.eclipse.m2e.logback.configuration,1.0.200.20111228-1245,"org.eclipse.m2e.logback.configuration",1377117204555
started,bundle,org.eclipse.mylyn.bugzilla.core,3.8.3.v20130107-0100,"org.eclipse.mylyn.bugzilla.core",1377117204555
started,bundle,org.eclipse.mylyn.bugzilla.ui,3.8.3.v20130107-0100,"org.eclipse.mylyn.bugzilla.ui",1377117204555
started,bundle,org.eclipse.mylyn.commons.core,3.8.4.v20130429-0100,"org.eclipse.mylyn.commons.core",1377117204555
started,bundle,org.eclipse.mylyn.commons.net,3.8.3.v20130107-0100,"org.eclipse.mylyn.commons.net",1377117204555
started,bundle,org.eclipse.mylyn.commons.notifications.core,1.0.3.v20130107-0100,"org.eclipse.mylyn.commons.notifications.core",1377117204555
started,bundle,org.eclipse.mylyn.commons.notifications.feed,1.0.3.v20130107-0100,"org.eclipse.mylyn.commons.notifications.feed",1377117204556
started,bundle,org.eclipse.mylyn.commons.notifications.ui,1.0.3.v20130107-0100,"org.eclipse.mylyn.commons.notifications.ui",1377117204556
started,bundle,org.eclipse.mylyn.commons.ui,3.8.4.v20130429-0100,"org.eclipse.mylyn.commons.ui",1377117204556
started,bundle,org.eclipse.mylyn.commons.workbench,3.8.4.v20130429-0100,"org.eclipse.mylyn.commons.workbench",1377117204556
started,bundle,org.eclipse.mylyn.context.core,3.8.3.v20130107-0100,"org.eclipse.mylyn.context.core",1377117204556
started,bundle,org.eclipse.mylyn.context.tasks.ui,3.8.3.v20130107-0100,"org.eclipse.mylyn.context.tasks.ui",1377117204556
started,bundle,org.eclipse.mylyn.monitor.ui,3.8.3.v20130107-0100,"org.eclipse.mylyn.monitor.ui",1377117204556
started,bundle,org.eclipse.mylyn.tasks.index.core,3.8.3.v20130107-0100,"org.eclipse.mylyn.tasks.index.core",1377117204556
started,bundle,org.eclipse.mylyn.tasks.ui,3.8.3.v20130107-0100,"org.eclipse.mylyn.tasks.ui",1377117204556
started,bundle,org.eclipse.mylyn.team.ui,3.8.3.v20130107-0100,"org.eclipse.mylyn.team.ui",1377117204556
started,bundle,org.eclipse.search,3.7.0.v20110928-1504,"org.eclipse.search",1377117204556
started,bundle,org.eclipse.team.core,3.6.0.I20110525-0800,"org.eclipse.team.core",1377117204556
started,bundle,org.eclipse.team.cvs.core,3.3.400.I20110510-0800,"org.eclipse.team.cvs.core",1377117204556
started,bundle,org.eclipse.team.cvs.ui,3.3.401.v20120126-1227,"org.eclipse.team.cvs.ui",1377117204556
started,bundle,org.eclipse.team.ui,3.6.101.R37x_v20111109-0800,"org.eclipse.team.ui",1377117204556
started,bundle,org.eclipse.ui,3.7.0.v20110928-1505,"org.eclipse.ui",1377117204556
started,bundle,org.eclipse.ui.console,3.5.100.v20111007_r372,"org.eclipse.ui.console",1377117204556
started,bundle,org.eclipse.ui.editors,3.7.0.v20110928-1504,"org.eclipse.ui.editors",1377117204556
started,bundle,org.eclipse.ui.forms,3.5.101.v20111011-1919,"org.eclipse.ui.forms",1377117204556
started,bundle,org.eclipse.ui.ide,3.7.0.v20110928-1505,"org.eclipse.ui.ide",1377117204556
started,bundle,org.eclipse.ui.net,1.2.100.v20111208-1155,"org.eclipse.ui.net",1377117204556
started,bundle,org.eclipse.ui.views,3.6.0.v20110928-1505,"org.eclipse.ui.views",1377117204556
started,bundle,org.eclipse.ui.workbench,3.7.1.v20120104-1859,"org.eclipse.ui.workbench",1377117204556
started,bundle,org.eclipse.ui.workbench.texteditor,3.7.0.v20110928-1504,"org.eclipse.ui.workbench.texteditor",1377117204556
started,bundle,org.eclipse.update.configurator,3.3.100.v20100512,"org.eclipse.update.configurator",1377117204557
started,bundle,org.eclipse.update.core,3.2.500.v20110330,"org.eclipse.update.core",1377117204557
started,bundle,org.eclipse.update.scheduler,3.2.300.v20100512,"org.eclipse.update.scheduler",1377117204557
started,bundle,org.eclipse.wb.core,1.5.2.r37x201303061457,"org.eclipse.wb.core",1377117204557
started,bundle,org.eclipse.wb.core.java,1.5.2.r37x201303061505,"org.eclipse.wb.core.java",1377117204557
started,bundle,org.eclipse.wb.core.lib,1.5.2.r37x201303061457,"org.eclipse.wb.core.lib",1377117204557
started,bundle,org.eclipse.wb.discovery.core,1.5.2.r37x201303061516,"org.eclipse.wb.discovery.core",1377117204557
started,bundle,org.eclipse.wb.discovery.ui,1.5.2.r37x201303061516,"org.eclipse.wb.discovery.ui",1377117204557
os,sysinfo,,,"win32",1377117204559
arch,sysinfo,,,"x86",1377117204559
ws,sysinfo,,,"win32",1377117204559
locale,sysinfo,,,"en_CA",1377117204559
processors,sysinfo,,,"4",1377117204559
java.runtime.name,sysinfo,,,"Java(TM) SE Runtime Environment",1377117204559
java.runtime.version,sysinfo,,,"1.7.0_25-b17",1377117204559
java.specification.name,sysinfo,,,"Java Platform API Specification",1377117204559
java.specification.vendor,sysinfo,,,"Oracle Corporation",1377117204559
java.specification.version,sysinfo,,,"1.7",1377117204559
java.vendor,sysinfo,,,"Oracle Corporation",1377117204559
java.version,sysinfo,,,"1.7.0_25",1377117204559
java.vm.info,sysinfo,,,"mixed mode, sharing",1377117204559
java.vm.name,sysinfo,,,"Java HotSpot(TM) Client VM",1377117204559
java.vm.specification.name,sysinfo,,,"Java Virtual Machine Specification",1377117204559
java.vm.specification.vendor,sysinfo,,,"Oracle Corporation",1377117204559
java.vm.specification.version,sysinfo,,,"1.7",1377117204559
java.vm.vendor,sysinfo,,,"Oracle Corporation",1377117204559
java.vm.version,sysinfo,,,"23.25-b01",1377117204559
started,bundle,org.eclipse.m2e.usagedata,1.0.200.20111228-1245,"org.eclipse.m2e.usagedata",1377117204561
deactivated,workbench,org.eclipse.ui.workbench,3.7.1.v20120104-1859,"",1377117268026
activated,workbench,org.eclipse.ui.workbench,3.7.1.v20120104-1859,"",1377118958990
deactivated,workbench,org.eclipse.ui.workbench,3.7.1.v20120104-1859,"",1377119075693
activated,workbench,org.eclipse.ui.workbench,3.7.1.v20120104-1859,"",1377119167973
deactivated,workbench,org.eclipse.ui.workbench,3.7.1.v20120104-1859,"",1377119168733
activated,workbench,org.eclipse.ui.workbench,3.7.1.v20120104-1859,"",1377124197154
deactivated,workbench,org.eclipse.ui.workbench,3.7.1.v20120104-1859,"",1377124197570
activated,workbench,org.eclipse.ui.workbench,3.7.1.v20120104-1859,"",1377124223671
deactivated,workbench,org.eclipse.ui.workbench,3.7.1.v20120104-1859,"",1377124229310
activated,workbench,org.eclipse.ui.workbench,3.7.1.v20120104-1859,"",1377125152959
opened,editor,org.eclipse.jdt.ui,3.7.2.v20120109-1427,"org.eclipse.jdt.ui.CompilationUnitEditor",1377125157085
started,bundle,org.eclipse.ui.navigator,3.5.101.v20120106-1355,"org.eclipse.ui.navigator",1377125157148
activated,editor,org.eclipse.jdt.ui,3.7.2.v20120109-1427,"org.eclipse.jdt.ui.CompilationUnitEditor",1377125157149
closed,editor,org.eclipse.jdt.ui,3.7.2.v20120109-1427,"org.eclipse.jdt.ui.CompilationUnitEditor",1377125157159
opened,editor,org.eclipse.jdt.ui,3.7.2.v20120109-1427,"org.eclipse.jdt.ui.CompilationUnitEditor",1377125158028
activated,editor,org.eclipse.jdt.ui,3.7.2.v20120109-1427,"org.eclipse.jdt.ui.CompilationUnitEditor",1377125158083
activated,editor,org.eclipse.jdt.ui,3.7.2.v20120109-1427,"org.eclipse.jdt.ui.CompilationUnitEditor",1377125158931
closed,editor,org.eclipse.jdt.ui,3.7.2.v20120109-1427,"org.eclipse.jdt.ui.CompilationUnitEditor",1377125158931
opened,editor,org.eclipse.jdt.ui,3.7.2.v20120109-1427,"org.eclipse.jdt.ui.CompilationUnitEditor",1377125162367
activated,editor,org.eclipse.jdt.ui,3.7.2.v20120109-1427,"org.eclipse.jdt.ui.CompilationUnitEditor",1377125162424
activated,editor,org.eclipse.jdt.ui,3.7.2.v20120109-1427,"org.eclipse.jdt.ui.CompilationUnitEditor",1377125163185
closed,editor,org.eclipse.jdt.ui,3.7.2.v20120109-1427,"org.eclipse.jdt.ui.CompilationUnitEditor",1377125163185
opened,editor,org.eclipse.jdt.ui,3.7.2.v20120109-1427,"org.eclipse.jdt.ui.CompilationUnitEditor",1377125166997
activated,editor,org.eclipse.jdt.ui,3.7.2.v20120109-1427,"org.eclipse.jdt.ui.CompilationUnitEditor",1377125167034
closed,editor,org.eclipse.jdt.ui,3.7.2.v20120109-1427,"org.eclipse.jdt.ui.CompilationUnitEditor",1377125167034
activated,view,org.eclipse.jdt.ui,3.7.2.v20120109-1427,"org.eclipse.jdt.ui.PackageExplorer",1377125168470
started,bundle,org.eclipse.wst.common.project.facet.core,1.4.201.v201201101553,"org.eclipse.wst.common.project.facet.core",1377125168683
started,bundle,org.eclipse.jst.common.project.facet.core,1.4.200.v201103170302,"org.eclipse.jst.common.project.facet.core",1377125168712
started,bundle,org.eclipse.jpt.common.core,1.0.2.v201111103010,"org.eclipse.jpt.common.core",1377125168715
stopped,bundle,org.eclipse.jpt.jpa.core,3.0.2.v201201243020,"org.eclipse.jpt.jpa.core",1377125168716
error,log,,,"An error occurred while automatically activating bundle org.eclipse.jpt.jpa.core (321).",1377125168748
error,log,,,"Could not create content describer for org.eclipse.jpt.jpa.core.content.baseJpaContent. Content type has been disabled.",1377125168749
started,bundle,org.eclipse.wst.sse.core,1.1.602.v201112071516,"org.eclipse.wst.sse.core",1377125168789
deactivated,workbench,org.eclipse.ui.workbench,3.7.1.v20120104-1859,"",1377125287435
activated,workbench,org.eclipse.ui.workbench,3.7.1.v20120104-1859,"",1377125355605
started,bundle,org.eclipse.compare,3.5.202.R37x_v20111109-0800,"org.eclipse.compare",1377125359964
deactivated,workbench,org.eclipse.ui.workbench,3.7.1.v20120104-1859,"",1377125363523
activated,workbench,org.eclipse.ui.workbench,3.7.1.v20120104-1859,"",1377125385607
opened,editor,org.eclipse.jdt.ui,3.7.2.v20120109-1427,"org.eclipse.jdt.ui.CompilationUnitEditor",1377125385720
activated,editor,org.eclipse.jdt.ui,3.7.2.v20120109-1427,"org.eclipse.jdt.ui.CompilationUnitEditor",1377125385776
started,bundle,com.google.gdt.eclipse.maven,3.3.0.v201307162142-rel-r37,"com.google.gdt.eclipse.maven",1377125386002
started,bundle,com.google.gdt.eclipse.suite,3.3.0.v201307162142-rel-r37,"com.google.gdt.eclipse.suite",1377125386030
started,bundle,org.eclipse.jdt.junit,3.7.0.v20110928-1453,"org.eclipse.jdt.junit",1377125396779
started,bundle,org.eclipse.mylyn.java.tasks,3.8.3.v20130107-0100,"org.eclipse.mylyn.java.tasks",1377125401799
deactivated,workbench,org.eclipse.ui.workbench,3.7.1.v20120104-1859,"",1377125410048
activated,workbench,org.eclipse.ui.workbench,3.7.1.v20120104-1859,"",1377125410184
deactivated,workbench,org.eclipse.ui.workbench,3.7.1.v20120104-1859,"",1377125416154
activated,workbench,org.eclipse.ui.workbench,3.7.1.v20120104-1859,"",1377125423907
deactivated,workbench,org.eclipse.ui.workbench,3.7.1.v20120104-1859,"",1377125425458
activated,workbench,org.eclipse.ui.workbench,3.7.1.v20120104-1859,"",1377125456727
activated,editor,org.eclipse.jdt.ui,3.7.2.v20120109-1427,"org.eclipse.jdt.ui.CompilationUnitEditor",1377125459744
activated,editor,org.eclipse.jdt.ui,3.7.2.v20120109-1427,"org.eclipse.jdt.ui.CompilationUnitEditor",1377125463656
activated,view,org.eclipse.jdt.ui,3.7.2.v20120109-1427,"org.eclipse.jdt.ui.PackageExplorer",1377125465370
opened,editor,org.eclipse.jdt.ui,3.7.2.v20120109-1427,"org.eclipse.jdt.ui.CompilationUnitEditor",1377125466054
activated,editor,org.eclipse.jdt.ui,3.7.2.v20120109-1427,"org.eclipse.jdt.ui.CompilationUnitEditor",1377125466109
activated,editor,org.eclipse.jdt.ui,3.7.2.v20120109-1427,"org.eclipse.jdt.ui.CompilationUnitEditor",1377125475395
closed,editor,org.eclipse.jdt.ui,3.7.2.v20120109-1427,"org.eclipse.jdt.ui.CompilationUnitEditor",1377125475395
deactivated,workbench,org.eclipse.ui.workbench,3.7.1.v20120104-1859,"",1377125477208
activated,workbench,org.eclipse.ui.workbench,3.7.1.v20120104-1859,"",1377125520247
started,bundle,org.eclipse.mylyn.java.ui,3.8.3.v20130107-0100,"org.eclipse.mylyn.java.ui",1377125529969
executed,command,org.eclipse.ui,3.7.0.v20110928-1505,"org.eclipse.ui.edit.text.contentAssist.proposals",1377125530319
deactivated,workbench,org.eclipse.ui.workbench,3.7.1.v20120104-1859,"",1377125593179
activated,workbench,org.eclipse.ui.workbench,3.7.1.v20120104-1859,"",1377125631963
activated,editor,org.eclipse.jdt.ui,3.7.2.v20120109-1427,"org.eclipse.jdt.ui.CompilationUnitEditor",1377125659295
activated,editor,org.eclipse.jdt.ui,3.7.2.v20120109-1427,"org.eclipse.jdt.ui.CompilationUnitEditor",1377125660053
activated,view,org.eclipse.jdt.ui,3.7.2.v20120109-1427,"org.eclipse.jdt.ui.PackageExplorer",1377125660736
started,bundle,org.eclipse.mylyn.context.ui,3.8.3.v20130107-0100,"org.eclipse.mylyn.context.ui",1377125660821
opened,editor,org.eclipse.jdt.ui,3.7.2.v20120109-1427,"org.eclipse.jdt.ui.CompilationUnitEditor",1377125660896
activated,editor,org.eclipse.jdt.ui,3.7.2.v20120109-1427,"org.eclipse.jdt.ui.CompilationUnitEditor",1377125660950
activated,editor,org.eclipse.jdt.ui,3.7.2.v20120109-1427,"org.eclipse.jdt.ui.CompilationUnitEditor",1377125666198
deactivated,workbench,org.eclipse.ui.workbench,3.7.1.v20120104-1859,"",1377125674085
activated,workbench,org.eclipse.ui.workbench,3.7.1.v20120104-1859,"",1377125688169
executed,command,org.eclipse.jdt.ui,3.7.2.v20120109-1427,"org.eclipse.jdt.ui.edit.text.java.organize.imports",1377125695355
deactivated,workbench,org.eclipse.ui.workbench,3.7.1.v20120104-1859,"",1377125700753
activated,workbench,org.eclipse.ui.workbench,3.7.1.v20120104-1859,"",1377125708259
deactivated,workbench,org.eclipse.ui.workbench,3.7.1.v20120104-1859,"",1377125720701
activated,workbench,org.eclipse.ui.workbench,3.7.1.v20120104-1859,"",1377125725156
deactivated,workbench,org.eclipse.ui.workbench,3.7.1.v20120104-1859,"",1377125725899
activated,workbench,org.eclipse.ui.workbench,3.7.1.v20120104-1859,"",1377125727014
executed,command,org.eclipse.jdt.ui,3.7.2.v20120109-1427,"org.eclipse.jdt.ui.edit.text.java.organize.imports",1377125733963
deactivated,workbench,org.eclipse.ui.workbench,3.7.1.v20120104-1859,"",1377125740109
activated,workbench,org.eclipse.ui.workbench,3.7.1.v20120104-1859,"",1377125740195
deactivated,workbench,org.eclipse.ui.workbench,3.7.1.v20120104-1859,"",1377125744447
activated,workbench,org.eclipse.ui.workbench,3.7.1.v20120104-1859,"",1377125747360
deactivated,workbench,org.eclipse.ui.workbench,3.7.1.v20120104-1859,"",1377125779811
activated,workbench,org.eclipse.ui.workbench,3.7.1.v20120104-1859,"",1377126580988
deactivated,workbench,org.eclipse.ui.workbench,3.7.1.v20120104-1859,"",1377126581427
activated,workbench,org.eclipse.ui.workbench,3.7.1.v20120104-1859,"",1377132947726
activated,view,org.eclipse.jdt.ui,3.7.2.v20120109-1427,"org.eclipse.jdt.ui.PackageExplorer",1377132950032
deactivated,workbench,org.eclipse.ui.workbench,3.7.1.v20120104-1859,"",1377132952258
activated,workbench,org.eclipse.ui.workbench,3.7.1.v20120104-1859,"",1377132956940
opened,editor,org.eclipse.jdt.ui,3.7.2.v20120109-1427,"org.eclipse.jdt.ui.CompilationUnitEditor",1377132957033
activated,editor,org.eclipse.jdt.ui,3.7.2.v20120109-1427,"org.eclipse.jdt.ui.CompilationUnitEditor",1377132957083
deactivated,workbench,org.eclipse.ui.workbench,3.7.1.v20120104-1859,"",1377132958933
activated,workbench,org.eclipse.ui.workbench,3.7.1.v20120104-1859,"",1377132973152
executed,command,org.eclipse.ui,3.7.0.v20110928-1505,"org.eclipse.ui.edit.paste",1377132976118
deactivated,workbench,org.eclipse.ui.workbench,3.7.1.v20120104-1859,"",1377133017524
activated,workbench,org.eclipse.ui.workbench,3.7.1.v20120104-1859,"",1377133045144
deactivated,workbench,org.eclipse.ui.workbench,3.7.1.v20120104-1859,"",1377133049023
activated,workbench,org.eclipse.ui.workbench,3.7.1.v20120104-1859,"",1377133059946
deactivated,workbench,org.eclipse.ui.workbench,3.7.1.v20120104-1859,"",1377133126272
activated,workbench,org.eclipse.ui.workbench,3.7.1.v20120104-1859,"",1377133131665
activated,view,org.eclipse.jdt.ui,3.7.2.v20120109-1427,"org.eclipse.jdt.ui.PackageExplorer",1377133132804
deactivated,workbench,org.eclipse.ui.workbench,3.7.1.v20120104-1859,"",1377133133317
started,bundle,org.eclipse.emf.common,2.7.0.v20120127-1122,"org.eclipse.emf.common",1377133134520
started,bundle,org.eclipse.wst.common.frameworks,1.2.102.v201201190400,"org.eclipse.wst.common.frameworks",1377133134522
started,bundle,org.eclipse.wst.common.emf,1.2.100.v201101101900,"org.eclipse.wst.common.emf",1377133134554
started,bundle,org.eclipse.emf.ecore,2.7.0.v20120127-1122,"org.eclipse.emf.ecore",1377133134588
started,bundle,org.eclipse.jem.util,2.1.100.v201103021400,"org.eclipse.jem.util",1377133134612
started,bundle,org.eclipse.emf.ecore.xmi,2.7.0.v20120127-1122,"org.eclipse.emf.ecore.xmi",1377133134615
started,bundle,org.eclipse.wst.common.emfworkbench.integration,1.2.101.v201107140600,"org.eclipse.wst.common.emfworkbench.integration",1377133134616
started,bundle,org.eclipse.wst.common.core,1.2.0.v200908252030,"org.eclipse.wst.common.core",1377133134662
started,bundle,org.eclipse.wst.common.modulecore,1.2.103.v201201190400,"org.eclipse.wst.common.modulecore",1377133134664
started,bundle,org.eclipse.jst.j2ee.core,1.2.102.v201202090300,"org.eclipse.jst.j2ee.core",1377133134680
started,bundle,org.eclipse.jem,2.0.501.v201111030500,"org.eclipse.jem",1377133134707
started,bundle,org.eclipse.wst.common.frameworks.ui,1.2.100.v201105122000,"org.eclipse.wst.common.frameworks.ui",1377133134743
started,bundle,org.eclipse.wst.xml.core,1.1.602.v201201091944,"org.eclipse.wst.xml.core",1377133134754
started,bundle,org.eclipse.wst.validation,1.2.303.v201202090300,"org.eclipse.wst.validation",1377133134773
started,bundle,org.eclipse.jst.j2ee,1.1.503.v201202090300,"org.eclipse.jst.j2ee",1377133134804
error,log,,,"Participant 'org.eclipse.jpt.jpa.core.refactoring.jpaDeleteTypeParticipant' removed due to the following exception",1377133134827
started,bundle,org.eclipse.wst.jsdt.manipulation,1.0.300.v201104272153,"org.eclipse.wst.jsdt.manipulation",1377133136644
started,bundle,org.eclipse.wst.jsdt.core,1.1.102.v201111090634,"org.eclipse.wst.jsdt.core",1377133136811
started,bundle,org.eclipse.wst.jsdt.ui,1.1.102.v201201131900,"org.eclipse.wst.jsdt.ui",1377133136902
closed,editor,org.eclipse.jdt.ui,3.7.2.v20120109-1427,"org.eclipse.jdt.ui.CompilationUnitEditor",1377133137231
activated,workbench,org.eclipse.ui.workbench,3.7.1.v20120104-1859,"",1377133137283
executed,command,org.eclipse.ui,3.7.0.v20110928-1505,"org.eclipse.ui.edit.delete",1377133137291
activated,editor,org.eclipse.jdt.ui,3.7.2.v20120109-1427,"org.eclipse.jdt.ui.CompilationUnitEditor",1377133142822
deactivated,workbench,org.eclipse.ui.workbench,3.7.1.v20120104-1859,"",1377133148755
activated,workbench,org.eclipse.ui.workbench,3.7.1.v20120104-1859,"",1377134488657
deactivated,workbench,org.eclipse.ui.workbench,3.7.1.v20120104-1859,"",1377134494231
