what,kind,bundleId,bundleVersion,description,time
deactivated,workbench,org.eclipse.ui.workbench,3.7.1.v20120104-1859,"",1377465843300
started,bundle,org.eclipse.core.variables,3.2.500.v20110928-1503,"org.eclipse.core.variables",1377465844536
started,bundle,org.eclipse.m2e.launching,1.0.200.20111228-1245,"org.eclipse.m2e.launching",1377465844596
started,bundle,org.eclipse.cdt.debug.mi.ui,6.1.1.201202111925,"org.eclipse.cdt.debug.mi.ui",1377465844680
started,bundle,org.eclipse.cdt.debug.mi.core,7.1.1.201202111925,"org.eclipse.cdt.debug.mi.core",1377465844814
activated,workbench,org.eclipse.ui.workbench,3.7.1.v20120104-1859,"",1377465844870
deactivated,workbench,org.eclipse.ui.workbench,3.7.1.v20120104-1859,"",1377465845869
activated,workbench,org.eclipse.ui.workbench,3.7.1.v20120104-1859,"",1377465863511
activated,editor,org.eclipse.jdt.ui,3.7.2.v20120109-1427,"org.eclipse.jdt.ui.CompilationUnitEditor",1377465865218
started,bundle,org.eclipse.mylyn.java.ui,3.8.3.v20130107-0100,"org.eclipse.mylyn.java.ui",1377465908010
executed,command,org.eclipse.ui,3.7.0.v20110928-1505,"org.eclipse.ui.edit.undo",1377466099088
started,bundle,org.eclipse.cdt.launch,7.0.0.201202111925,"org.eclipse.cdt.launch",1377466113273
activated,editor,org.eclipse.jdt.ui,3.7.2.v20120109-1427,"org.eclipse.jdt.ui.CompilationUnitEditor",1377466113958
deactivated,workbench,org.eclipse.ui.workbench,3.7.1.v20120104-1859,"",1377466114702
activated,workbench,org.eclipse.ui.workbench,3.7.1.v20120104-1859,"",1377466115655
deactivated,workbench,org.eclipse.ui.workbench,3.7.1.v20120104-1859,"",1377466116228
activated,workbench,org.eclipse.ui.workbench,3.7.1.v20120104-1859,"",1377466116612
activated,view,org.eclipse.ui.console,3.5.100.v20111007_r372,"org.eclipse.ui.console.ConsoleView",1377466117581
activated,view,org.eclipse.jdt.ui,3.7.2.v20120109-1427,"org.eclipse.jdt.ui.PackageExplorer",1377466126518
started,bundle,org.eclipse.mylyn.context.ui,3.8.3.v20130107-0100,"org.eclipse.mylyn.context.ui",1377466126550
started,bundle,org.eclipse.compare,3.5.202.R37x_v20111109-0800,"org.eclipse.compare",1377466126991
executed,command,org.eclipse.ui,3.7.0.v20110928-1505,"org.eclipse.ui.file.refresh",1377466130692
activated,editor,org.eclipse.jdt.ui,3.7.2.v20120109-1427,"org.eclipse.jdt.ui.CompilationUnitEditor",1377466131779
activated,editor,org.eclipse.jdt.ui,3.7.2.v20120109-1427,"org.eclipse.jdt.ui.CompilationUnitEditor",1377466132166
deactivated,workbench,org.eclipse.ui.workbench,3.7.1.v20120104-1859,"",1377466133540
activated,workbench,org.eclipse.ui.workbench,3.7.1.v20120104-1859,"",1377466140366
activated,editor,org.eclipse.jdt.ui,3.7.2.v20120109-1427,"org.eclipse.jdt.ui.CompilationUnitEditor",1377466141935
activated,editor,org.eclipse.jdt.ui,3.7.2.v20120109-1427,"org.eclipse.jdt.ui.CompilationUnitEditor",1377466147558
deactivated,workbench,org.eclipse.ui.workbench,3.7.1.v20120104-1859,"",1377466148578
activated,workbench,org.eclipse.ui.workbench,3.7.1.v20120104-1859,"",1377466155711
activated,editor,org.eclipse.jdt.ui,3.7.2.v20120109-1427,"org.eclipse.jdt.ui.CompilationUnitEditor",1377466156993
activated,editor,org.eclipse.jdt.ui,3.7.2.v20120109-1427,"org.eclipse.jdt.ui.CompilationUnitEditor",1377466175969
deactivated,workbench,org.eclipse.ui.workbench,3.7.1.v20120104-1859,"",1377466176517
activated,workbench,org.eclipse.ui.workbench,3.7.1.v20120104-1859,"",1377466177381
deactivated,workbench,org.eclipse.ui.workbench,3.7.1.v20120104-1859,"",1377466177759
activated,workbench,org.eclipse.ui.workbench,3.7.1.v20120104-1859,"",1377466312369
activated,view,org.eclipse.jdt.ui,3.7.2.v20120109-1427,"org.eclipse.jdt.ui.PackageExplorer",1377466316152
opened,editor,org.eclipse.jdt.ui,3.7.2.v20120109-1427,"org.eclipse.jdt.ui.CompilationUnitEditor",1377466320477
activated,editor,org.eclipse.jdt.ui,3.7.2.v20120109-1427,"org.eclipse.jdt.ui.CompilationUnitEditor",1377466320535
activated,editor,org.eclipse.jdt.ui,3.7.2.v20120109-1427,"org.eclipse.jdt.ui.CompilationUnitEditor",1377466339701
closed,editor,org.eclipse.jdt.ui,3.7.2.v20120109-1427,"org.eclipse.jdt.ui.CompilationUnitEditor",1377466339724
activated,view,org.eclipse.jdt.ui,3.7.2.v20120109-1427,"org.eclipse.jdt.ui.PackageExplorer",1377466341295
opened,editor,org.eclipse.jdt.ui,3.7.2.v20120109-1427,"org.eclipse.jdt.ui.CompilationUnitEditor",1377466344653
activated,editor,org.eclipse.jdt.ui,3.7.2.v20120109-1427,"org.eclipse.jdt.ui.CompilationUnitEditor",1377466344711
activated,editor,org.eclipse.jdt.ui,3.7.2.v20120109-1427,"org.eclipse.jdt.ui.CompilationUnitEditor",1377466349709
closed,editor,org.eclipse.jdt.ui,3.7.2.v20120109-1427,"org.eclipse.jdt.ui.CompilationUnitEditor",1377466349709
activated,view,org.eclipse.jdt.ui,3.7.2.v20120109-1427,"org.eclipse.jdt.ui.PackageExplorer",1377466350759
activated,editor,org.eclipse.jdt.ui,3.7.2.v20120109-1427,"org.eclipse.jdt.ui.CompilationUnitEditor",1377466353961
activated,view,org.eclipse.jdt.ui,3.7.2.v20120109-1427,"org.eclipse.jdt.ui.PackageExplorer",1377466373012
opened,editor,org.eclipse.jdt.ui,3.7.2.v20120109-1427,"org.eclipse.jdt.ui.CompilationUnitEditor",1377466377279
activated,editor,org.eclipse.jdt.ui,3.7.2.v20120109-1427,"org.eclipse.jdt.ui.CompilationUnitEditor",1377466377334
activated,editor,org.eclipse.jdt.ui,3.7.2.v20120109-1427,"org.eclipse.jdt.ui.CompilationUnitEditor",1377466386616
deactivated,workbench,org.eclipse.ui.workbench,3.7.1.v20120104-1859,"",1377466387404
activated,workbench,org.eclipse.ui.workbench,3.7.1.v20120104-1859,"",1377466388091
deactivated,workbench,org.eclipse.ui.workbench,3.7.1.v20120104-1859,"",1377466388488
activated,workbench,org.eclipse.ui.workbench,3.7.1.v20120104-1859,"",1377466418469
activated,editor,org.eclipse.jdt.ui,3.7.2.v20120109-1427,"org.eclipse.jdt.ui.CompilationUnitEditor",1377466421500
activated,editor,org.eclipse.jdt.ui,3.7.2.v20120109-1427,"org.eclipse.jdt.ui.CompilationUnitEditor",1377466440039
activated,editor,org.eclipse.jdt.ui,3.7.2.v20120109-1427,"org.eclipse.jdt.ui.CompilationUnitEditor",1377466441196
activated,editor,org.eclipse.jdt.ui,3.7.2.v20120109-1427,"org.eclipse.jdt.ui.CompilationUnitEditor",1377466457232
activated,editor,org.eclipse.jdt.ui,3.7.2.v20120109-1427,"org.eclipse.jdt.ui.CompilationUnitEditor",1377466460664
activated,view,org.eclipse.jdt.ui,3.7.2.v20120109-1427,"org.eclipse.jdt.ui.PackageExplorer",1377466482126
activated,editor,org.eclipse.jdt.ui,3.7.2.v20120109-1427,"org.eclipse.jdt.ui.CompilationUnitEditor",1377466489377
executed,command,org.eclipse.jdt.ui,3.7.2.v20120109-1427,"org.eclipse.jdt.ui.edit.text.java.organize.imports",1377466540104
activated,editor,org.eclipse.jdt.ui,3.7.2.v20120109-1427,"org.eclipse.jdt.ui.CompilationUnitEditor",1377466576516
deactivated,workbench,org.eclipse.ui.workbench,3.7.1.v20120104-1859,"",1377466576970
activated,workbench,org.eclipse.ui.workbench,3.7.1.v20120104-1859,"",1377466577953
deactivated,workbench,org.eclipse.ui.workbench,3.7.1.v20120104-1859,"",1377466578349
activated,workbench,org.eclipse.ui.workbench,3.7.1.v20120104-1859,"",1377466687298
activated,editor,org.eclipse.jdt.ui,3.7.2.v20120109-1427,"org.eclipse.jdt.ui.CompilationUnitEditor",1377466696849
activated,view,org.eclipse.jdt.ui,3.7.2.v20120109-1427,"org.eclipse.jdt.ui.PackageExplorer",1377466698623
opened,editor,org.eclipse.jdt.ui,3.7.2.v20120109-1427,"org.eclipse.jdt.ui.CompilationUnitEditor",1377466700116
activated,editor,org.eclipse.jdt.ui,3.7.2.v20120109-1427,"org.eclipse.jdt.ui.CompilationUnitEditor",1377466700174
activated,editor,org.eclipse.jdt.ui,3.7.2.v20120109-1427,"org.eclipse.jdt.ui.CompilationUnitEditor",1377466708925
activated,editor,org.eclipse.jdt.ui,3.7.2.v20120109-1427,"org.eclipse.jdt.ui.CompilationUnitEditor",1377466709844
activated,editor,org.eclipse.jdt.ui,3.7.2.v20120109-1427,"org.eclipse.jdt.ui.CompilationUnitEditor",1377466742079
activated,editor,org.eclipse.jdt.ui,3.7.2.v20120109-1427,"org.eclipse.jdt.ui.CompilationUnitEditor",1377466744384
activated,editor,org.eclipse.jdt.ui,3.7.2.v20120109-1427,"org.eclipse.jdt.ui.CompilationUnitEditor",1377466747399
deactivated,workbench,org.eclipse.ui.workbench,3.7.1.v20120104-1859,"",1377466747998
activated,workbench,org.eclipse.ui.workbench,3.7.1.v20120104-1859,"",1377466748789
deactivated,workbench,org.eclipse.ui.workbench,3.7.1.v20120104-1859,"",1377466749169
activated,workbench,org.eclipse.ui.workbench,3.7.1.v20120104-1859,"",1377466754618
activated,editor,org.eclipse.jdt.ui,3.7.2.v20120109-1427,"org.eclipse.jdt.ui.CompilationUnitEditor",1377466756137
activated,editor,org.eclipse.jdt.ui,3.7.2.v20120109-1427,"org.eclipse.jdt.ui.CompilationUnitEditor",1377466760346
deactivated,workbench,org.eclipse.ui.workbench,3.7.1.v20120104-1859,"",1377466760895
activated,workbench,org.eclipse.ui.workbench,3.7.1.v20120104-1859,"",1377466761598
deactivated,workbench,org.eclipse.ui.workbench,3.7.1.v20120104-1859,"",1377466761966
activated,workbench,org.eclipse.ui.workbench,3.7.1.v20120104-1859,"",1377466784789
activated,editor,org.eclipse.jdt.ui,3.7.2.v20120109-1427,"org.eclipse.jdt.ui.CompilationUnitEditor",1377466786611
activated,editor,org.eclipse.jdt.ui,3.7.2.v20120109-1427,"org.eclipse.jdt.ui.CompilationUnitEditor",1377466789941
deactivated,workbench,org.eclipse.ui.workbench,3.7.1.v20120104-1859,"",1377466790641
activated,workbench,org.eclipse.ui.workbench,3.7.1.v20120104-1859,"",1377466791506
deactivated,workbench,org.eclipse.ui.workbench,3.7.1.v20120104-1859,"",1377466791858
activated,workbench,org.eclipse.ui.workbench,3.7.1.v20120104-1859,"",1377466873006
activated,view,org.eclipse.jdt.ui,3.7.2.v20120109-1427,"org.eclipse.jdt.ui.PackageExplorer",1377466875546
opened,editor,org.eclipse.jdt.ui,3.7.2.v20120109-1427,"org.eclipse.jdt.ui.CompilationUnitEditor",1377466878374
activated,editor,org.eclipse.jdt.ui,3.7.2.v20120109-1427,"org.eclipse.jdt.ui.CompilationUnitEditor",1377466878427
activated,editor,org.eclipse.jdt.ui,3.7.2.v20120109-1427,"org.eclipse.jdt.ui.CompilationUnitEditor",1377466879751
activated,editor,org.eclipse.jdt.ui,3.7.2.v20120109-1427,"org.eclipse.jdt.ui.CompilationUnitEditor",1377466880259
closed,editor,org.eclipse.jdt.ui,3.7.2.v20120109-1427,"org.eclipse.jdt.ui.CompilationUnitEditor",1377466880259
activated,editor,org.eclipse.jdt.ui,3.7.2.v20120109-1427,"org.eclipse.jdt.ui.CompilationUnitEditor",1377466880893
activated,editor,org.eclipse.jdt.ui,3.7.2.v20120109-1427,"org.eclipse.jdt.ui.CompilationUnitEditor",1377466882338
closed,editor,org.eclipse.jdt.ui,3.7.2.v20120109-1427,"org.eclipse.jdt.ui.CompilationUnitEditor",1377466882338
activated,editor,org.eclipse.jdt.ui,3.7.2.v20120109-1427,"org.eclipse.jdt.ui.CompilationUnitEditor",1377466883183
started,bundle,org.eclipse.mylyn.java.tasks,3.8.3.v20130107-0100,"org.eclipse.mylyn.java.tasks",1377466889859
executed,command,org.eclipse.ui,3.7.0.v20110928-1505,"org.eclipse.ui.edit.copy",1377466889912
activated,editor,org.eclipse.jdt.ui,3.7.2.v20120109-1427,"org.eclipse.jdt.ui.CompilationUnitEditor",1377466890943
executed,command,org.eclipse.ui,3.7.0.v20110928-1505,"org.eclipse.ui.edit.paste",1377466899662
executed,command,org.eclipse.jdt.ui,3.7.2.v20120109-1427,"org.eclipse.jdt.ui.edit.text.java.organize.imports",1377466902680
activated,editor,org.eclipse.jdt.ui,3.7.2.v20120109-1427,"org.eclipse.jdt.ui.CompilationUnitEditor",1377466925972
executed,command,org.eclipse.jdt.ui,3.7.2.v20120109-1427,"org.eclipse.jdt.ui.edit.text.java.organize.imports",1377466927768
executed,command,org.eclipse.ui,3.7.0.v20110928-1505,"org.eclipse.ui.file.saveAll",1377466929581
activated,editor,org.eclipse.jdt.ui,3.7.2.v20120109-1427,"org.eclipse.jdt.ui.CompilationUnitEditor",1377466942675
activated,editor,org.eclipse.jdt.ui,3.7.2.v20120109-1427,"org.eclipse.jdt.ui.CompilationUnitEditor",1377466946969
executed,command,org.eclipse.ui,3.7.0.v20110928-1505,"org.eclipse.ui.edit.copy",1377466949957
executed,command,org.eclipse.ui,3.7.0.v20110928-1505,"org.eclipse.ui.edit.cut",1377466950939
activated,editor,org.eclipse.jdt.ui,3.7.2.v20120109-1427,"org.eclipse.jdt.ui.CompilationUnitEditor",1377466952407
executed,command,org.eclipse.ui,3.7.0.v20110928-1505,"org.eclipse.ui.edit.paste",1377466953024
activated,editor,org.eclipse.jdt.ui,3.7.2.v20120109-1427,"org.eclipse.jdt.ui.CompilationUnitEditor",1377466954834
executed,command,org.eclipse.ui,3.7.0.v20110928-1505,"org.eclipse.ui.edit.cut",1377466978531
activated,editor,org.eclipse.jdt.ui,3.7.2.v20120109-1427,"org.eclipse.jdt.ui.CompilationUnitEditor",1377466981233
executed,command,org.eclipse.ui,3.7.0.v20110928-1505,"org.eclipse.ui.edit.paste",1377466984224
activated,editor,org.eclipse.jdt.ui,3.7.2.v20120109-1427,"org.eclipse.jdt.ui.CompilationUnitEditor",1377467017839
activated,editor,org.eclipse.jdt.ui,3.7.2.v20120109-1427,"org.eclipse.jdt.ui.CompilationUnitEditor",1377467025182
activated,editor,org.eclipse.jdt.ui,3.7.2.v20120109-1427,"org.eclipse.jdt.ui.CompilationUnitEditor",1377467031558
deactivated,workbench,org.eclipse.ui.workbench,3.7.1.v20120104-1859,"",1377467052223
activated,workbench,org.eclipse.ui.workbench,3.7.1.v20120104-1859,"",1377467057430
executed,command,org.eclipse.jdt.ui,3.7.2.v20120109-1427,"org.eclipse.jdt.ui.edit.text.java.organize.imports",1377467057468
executed,command,org.eclipse.ui,3.7.0.v20110928-1505,"org.eclipse.ui.edit.cut",1377467092583
executed,command,org.eclipse.ui,3.7.0.v20110928-1505,"org.eclipse.ui.edit.paste",1377467097032
executed,command,org.eclipse.ui,3.7.0.v20110928-1505,"org.eclipse.ui.edit.cut",1377467146123
activated,editor,org.eclipse.jdt.ui,3.7.2.v20120109-1427,"org.eclipse.jdt.ui.CompilationUnitEditor",1377467153532
executed,command,org.eclipse.ui,3.7.0.v20110928-1505,"org.eclipse.ui.edit.paste",1377467163112
activated,editor,org.eclipse.jdt.ui,3.7.2.v20120109-1427,"org.eclipse.jdt.ui.CompilationUnitEditor",1377467169745
activated,editor,org.eclipse.jdt.ui,3.7.2.v20120109-1427,"org.eclipse.jdt.ui.CompilationUnitEditor",1377467187519
activated,editor,org.eclipse.jdt.ui,3.7.2.v20120109-1427,"org.eclipse.jdt.ui.CompilationUnitEditor",1377467191971
activated,editor,org.eclipse.jdt.ui,3.7.2.v20120109-1427,"org.eclipse.jdt.ui.CompilationUnitEditor",1377467205147
deactivated,workbench,org.eclipse.ui.workbench,3.7.1.v20120104-1859,"",1377467206048
activated,workbench,org.eclipse.ui.workbench,3.7.1.v20120104-1859,"",1377467206872
deactivated,workbench,org.eclipse.ui.workbench,3.7.1.v20120104-1859,"",1377467207310
activated,workbench,org.eclipse.ui.workbench,3.7.1.v20120104-1859,"",1377467212974
activated,editor,org.eclipse.jdt.ui,3.7.2.v20120109-1427,"org.eclipse.jdt.ui.CompilationUnitEditor",1377467213983
activated,editor,org.eclipse.jdt.ui,3.7.2.v20120109-1427,"org.eclipse.jdt.ui.CompilationUnitEditor",1377467216338
executed,command,org.eclipse.jdt.ui,3.7.2.v20120109-1427,"org.eclipse.jdt.ui.edit.text.java.organize.imports",1377467219368
executed,command,org.eclipse.ui,3.7.0.v20110928-1505,"org.eclipse.ui.file.saveAll",1377467227542
activated,editor,org.eclipse.jdt.ui,3.7.2.v20120109-1427,"org.eclipse.jdt.ui.CompilationUnitEditor",1377467229080
executed,command,org.eclipse.jdt.ui,3.7.2.v20120109-1427,"org.eclipse.jdt.ui.edit.text.java.organize.imports",1377467234744
executed,command,org.eclipse.ui,3.7.0.v20110928-1505,"org.eclipse.ui.file.saveAll",1377467236488
activated,editor,org.eclipse.jdt.ui,3.7.2.v20120109-1427,"org.eclipse.jdt.ui.CompilationUnitEditor",1377467257224
activated,editor,org.eclipse.jdt.ui,3.7.2.v20120109-1427,"org.eclipse.jdt.ui.CompilationUnitEditor",1377467259248
deactivated,workbench,org.eclipse.ui.workbench,3.7.1.v20120104-1859,"",1377467259750
activated,workbench,org.eclipse.ui.workbench,3.7.1.v20120104-1859,"",1377467260717
deactivated,workbench,org.eclipse.ui.workbench,3.7.1.v20120104-1859,"",1377467261056
activated,workbench,org.eclipse.ui.workbench,3.7.1.v20120104-1859,"",1377467833992
executed,command,org.eclipse.ui,3.7.0.v20110928-1505,"org.eclipse.ui.file.refresh",1377467837749
deactivated,workbench,org.eclipse.ui.workbench,3.7.1.v20120104-1859,"",1377467839551
activated,workbench,org.eclipse.ui.workbench,3.7.1.v20120104-1859,"",1377467843036
activated,view,org.eclipse.jdt.ui,3.7.2.v20120109-1427,"org.eclipse.jdt.ui.PackageExplorer",1377467844543
executed,command,org.eclipse.ui,3.7.0.v20110928-1505,"org.eclipse.ui.file.refresh",1377467846059
started,bundle,org.eclipse.jdt.junit.core,3.7.0.v20110928-1453,"org.eclipse.jdt.junit.core",1377467846697
started,bundle,com.android.ide.eclipse.ndk,22.0.5.v201307292155--757759,"com.android.ide.eclipse.ndk",1377467846748
started,bundle,com.android.ide.eclipse.ddms,22.0.5.v201307292155--757759,"com.android.ide.eclipse.ddms",1377467847229
started,bundle,com.android.ide.eclipse.traceview,22.0.5.v201307292155--757759,"com.android.ide.eclipse.traceview",1377467851805
activated,editor,org.eclipse.jdt.ui,3.7.2.v20120109-1427,"org.eclipse.jdt.ui.CompilationUnitEditor",1377467862586
deactivated,workbench,org.eclipse.ui.workbench,3.7.1.v20120104-1859,"",1377467863899
activated,workbench,org.eclipse.ui.workbench,3.7.1.v20120104-1859,"",1377467877336
deactivated,workbench,org.eclipse.ui.workbench,3.7.1.v20120104-1859,"",1377467878995
activated,workbench,org.eclipse.ui.workbench,3.7.1.v20120104-1859,"",1377467889999
deactivated,workbench,org.eclipse.ui.workbench,3.7.1.v20120104-1859,"",1377467891203
activated,workbench,org.eclipse.ui.workbench,3.7.1.v20120104-1859,"",1377468110743
deactivated,workbench,org.eclipse.ui.workbench,3.7.1.v20120104-1859,"",1377468111213
activated,workbench,org.eclipse.ui.workbench,3.7.1.v20120104-1859,"",1377468119089
deactivated,workbench,org.eclipse.ui.workbench,3.7.1.v20120104-1859,"",1377468122437
activated,workbench,org.eclipse.ui.workbench,3.7.1.v20120104-1859,"",1377468390049
activated,view,org.eclipse.jdt.ui,3.7.2.v20120109-1427,"org.eclipse.jdt.ui.PackageExplorer",1377468391634
executed,command,org.eclipse.ui,3.7.0.v20110928-1505,"org.eclipse.ui.file.refresh",1377468394349
started,bundle,com.google.gdt.eclipse.platform.shared,3.3.0.v201307162142-rel-r37,"com.google.gdt.eclipse.platform.shared",1377468402420
opened,editor,org.eclipse.ui.editors,3.7.0.v20110928-1504,"org.eclipse.ui.DefaultTextEditor",1377468404902
activated,editor,org.eclipse.ui.editors,3.7.0.v20110928-1504,"org.eclipse.ui.DefaultTextEditor",1377468404970
deactivated,workbench,org.eclipse.ui.workbench,3.7.1.v20120104-1859,"",1377468428737
activated,workbench,org.eclipse.ui.workbench,3.7.1.v20120104-1859,"",1377468470818
activated,editor,org.eclipse.jdt.ui,3.7.2.v20120109-1427,"org.eclipse.jdt.ui.CompilationUnitEditor",1377468503622
deactivated,workbench,org.eclipse.ui.workbench,3.7.1.v20120104-1859,"",1377468504535
activated,workbench,org.eclipse.ui.workbench,3.7.1.v20120104-1859,"",1377468504774
activated,view,org.eclipse.ui.console,3.5.100.v20111007_r372,"org.eclipse.ui.console.ConsoleView",1377468506726
activated,view,org.eclipse.jdt.ui,3.7.2.v20120109-1427,"org.eclipse.jdt.ui.PackageExplorer",1377468514341
executed,command,org.eclipse.ui,3.7.0.v20110928-1505,"org.eclipse.ui.file.refresh",1377468516177
activated,editor,org.eclipse.jdt.ui,3.7.2.v20120109-1427,"org.eclipse.jdt.ui.CompilationUnitEditor",1377468518712
deactivated,workbench,org.eclipse.ui.workbench,3.7.1.v20120104-1859,"",1377468519799
activated,workbench,org.eclipse.ui.workbench,3.7.1.v20120104-1859,"",1377468520066
activated,view,org.eclipse.ui.console,3.5.100.v20111007_r372,"org.eclipse.ui.console.ConsoleView",1377468521072
activated,view,org.eclipse.jdt.ui,3.7.2.v20120109-1427,"org.eclipse.jdt.ui.PackageExplorer",1377468526622
activated,editor,org.eclipse.ui.editors,3.7.0.v20110928-1504,"org.eclipse.ui.DefaultTextEditor",1377468531990
activated,view,org.eclipse.ui.console,3.5.100.v20111007_r372,"org.eclipse.ui.console.ConsoleView",1377468545762
deactivated,workbench,org.eclipse.ui.workbench,3.7.1.v20120104-1859,"",1377468561807
activated,workbench,org.eclipse.ui.workbench,3.7.1.v20120104-1859,"",1377468568929
activated,editor,org.eclipse.ui.editors,3.7.0.v20110928-1504,"org.eclipse.ui.DefaultTextEditor",1377468571031
activated,view,org.eclipse.jdt.ui,3.7.2.v20120109-1427,"org.eclipse.jdt.ui.PackageExplorer",1377468578314
executed,command,org.eclipse.ui,3.7.0.v20110928-1505,"org.eclipse.ui.file.refresh",1377468579761
activated,editor,org.eclipse.ui.editors,3.7.0.v20110928-1504,"org.eclipse.ui.DefaultTextEditor",1377468581791
executed,command,org.eclipse.ui,3.7.0.v20110928-1505,"org.eclipse.ui.file.saveAll",1377468584060
activated,editor,org.eclipse.jdt.ui,3.7.2.v20120109-1427,"org.eclipse.jdt.ui.CompilationUnitEditor",1377468585299
closed,editor,org.eclipse.ui.editors,3.7.0.v20110928-1504,"org.eclipse.ui.DefaultTextEditor",1377468585299
deactivated,workbench,org.eclipse.ui.workbench,3.7.1.v20120104-1859,"",1377468587747
activated,workbench,org.eclipse.ui.workbench,3.7.1.v20120104-1859,"",1377468634540
activated,view,org.eclipse.jdt.ui,3.7.2.v20120109-1427,"org.eclipse.jdt.ui.PackageExplorer",1377468637491
opened,editor,org.eclipse.jdt.ui,3.7.2.v20120109-1427,"org.eclipse.jdt.ui.CompilationUnitEditor",1377468643323
activated,editor,org.eclipse.jdt.ui,3.7.2.v20120109-1427,"org.eclipse.jdt.ui.CompilationUnitEditor",1377468643376
activated,view,org.eclipse.jdt.ui,3.7.2.v20120109-1427,"org.eclipse.jdt.ui.PackageExplorer",1377468699902
opened,editor,org.eclipse.jdt.ui,3.7.2.v20120109-1427,"org.eclipse.jdt.ui.CompilationUnitEditor",1377468703234
activated,editor,org.eclipse.jdt.ui,3.7.2.v20120109-1427,"org.eclipse.jdt.ui.CompilationUnitEditor",1377468703294
activated,view,org.eclipse.jdt.ui,3.7.2.v20120109-1427,"org.eclipse.jdt.ui.PackageExplorer",1377468714215
activated,editor,org.eclipse.jdt.ui,3.7.2.v20120109-1427,"org.eclipse.jdt.ui.CompilationUnitEditor",1377468715927
deactivated,workbench,org.eclipse.ui.workbench,3.7.1.v20120104-1859,"",1377468734394
activated,workbench,org.eclipse.ui.workbench,3.7.1.v20120104-1859,"",1377468920478
deactivated,workbench,org.eclipse.ui.workbench,3.7.1.v20120104-1859,"",1377468968116
activated,workbench,org.eclipse.ui.workbench,3.7.1.v20120104-1859,"",1377468992991
deactivated,workbench,org.eclipse.ui.workbench,3.7.1.v20120104-1859,"",1377469009168
activated,workbench,org.eclipse.ui.workbench,3.7.1.v20120104-1859,"",1377469016049
deactivated,workbench,org.eclipse.ui.workbench,3.7.1.v20120104-1859,"",1377469025178
activated,workbench,org.eclipse.ui.workbench,3.7.1.v20120104-1859,"",1377469028074
deactivated,workbench,org.eclipse.ui.workbench,3.7.1.v20120104-1859,"",1377469039052
activated,workbench,org.eclipse.ui.workbench,3.7.1.v20120104-1859,"",1377469223625
deactivated,workbench,org.eclipse.ui.workbench,3.7.1.v20120104-1859,"",1377469231626
activated,workbench,org.eclipse.ui.workbench,3.7.1.v20120104-1859,"",1377470528764
deactivated,workbench,org.eclipse.ui.workbench,3.7.1.v20120104-1859,"",1377470533379
activated,workbench,org.eclipse.ui.workbench,3.7.1.v20120104-1859,"",1377471696422
deactivated,workbench,org.eclipse.ui.workbench,3.7.1.v20120104-1859,"",1377471697988
activated,workbench,org.eclipse.ui.workbench,3.7.1.v20120104-1859,"",1377471701782
deactivated,workbench,org.eclipse.ui.workbench,3.7.1.v20120104-1859,"",1377471702204
activated,workbench,org.eclipse.ui.workbench,3.7.1.v20120104-1859,"",1377471703150
deactivated,workbench,org.eclipse.ui.workbench,3.7.1.v20120104-1859,"",1377471704285
activated,workbench,org.eclipse.ui.workbench,3.7.1.v20120104-1859,"",1377471704895
activated,editor,org.eclipse.jdt.ui,3.7.2.v20120109-1427,"org.eclipse.jdt.ui.CompilationUnitEditor",1377471707380
deactivated,workbench,org.eclipse.ui.workbench,3.7.1.v20120104-1859,"",1377471710854
activated,workbench,org.eclipse.ui.workbench,3.7.1.v20120104-1859,"",1377472258932
deactivated,workbench,org.eclipse.ui.workbench,3.7.1.v20120104-1859,"",1377472292750
activated,workbench,org.eclipse.ui.workbench,3.7.1.v20120104-1859,"",1377472392668
deactivated,workbench,org.eclipse.ui.workbench,3.7.1.v20120104-1859,"",1377472393907
activated,workbench,org.eclipse.ui.workbench,3.7.1.v20120104-1859,"",1377476812144
activated,editor,org.eclipse.jdt.ui,3.7.2.v20120109-1427,"org.eclipse.jdt.ui.CompilationUnitEditor",1377476815338
activated,view,org.eclipse.jdt.ui,3.7.2.v20120109-1427,"org.eclipse.jdt.ui.PackageExplorer",1377476817146
opened,editor,org.eclipse.jdt.ui,3.7.2.v20120109-1427,"org.eclipse.jdt.ui.CompilationUnitEditor",1377476819798
activated,editor,org.eclipse.jdt.ui,3.7.2.v20120109-1427,"org.eclipse.jdt.ui.CompilationUnitEditor",1377476819854
activated,view,org.eclipse.jdt.ui,3.7.2.v20120109-1427,"org.eclipse.jdt.ui.PackageExplorer",1377476827687
opened,editor,org.eclipse.jdt.ui,3.7.2.v20120109-1427,"org.eclipse.jdt.ui.CompilationUnitEditor",1377476827844
activated,editor,org.eclipse.jdt.ui,3.7.2.v20120109-1427,"org.eclipse.jdt.ui.CompilationUnitEditor",1377476827901
executed,command,org.eclipse.ui,3.7.0.v20110928-1505,"org.eclipse.ui.edit.cut",1377476908714
executed,command,org.eclipse.ui,3.7.0.v20110928-1505,"org.eclipse.ui.edit.paste",1377476911210
executed,command,org.eclipse.ui,3.7.0.v20110928-1505,"org.eclipse.ui.edit.paste",1377476914155
