what,kind,bundleId,bundleVersion,description,time
opened,editor,org.eclipse.jdt.ui,3.7.2.v20120109-1427,"org.eclipse.jdt.ui.CompilationUnitEditor",1391409001450
activated,editor,org.eclipse.jdt.ui,3.7.2.v20120109-1427,"org.eclipse.jdt.ui.CompilationUnitEditor",1391409001476
executed,command,org.eclipse.ui,3.7.0.v20110928-1505,"org.eclipse.ui.edit.text.contentAssist.proposals",1391409012973
deactivated,workbench,org.eclipse.ui.workbench,3.7.1.v20120104-1859,"",1391409014694
activated,workbench,org.eclipse.ui.workbench,3.7.1.v20120104-1859,"",1391409023162
executed,command,org.eclipse.ui,3.7.0.v20110928-1505,"org.eclipse.ui.edit.text.contentAssist.proposals",1391409025802
executed,command,org.eclipse.ui,3.7.0.v20110928-1505,"org.eclipse.ui.edit.text.contentAssist.proposals",1391409031900
executed,command,org.eclipse.ui,3.7.0.v20110928-1505,"org.eclipse.ui.edit.text.contentAssist.proposals",1391409035885
executed,command,org.eclipse.ui,3.7.0.v20110928-1505,"org.eclipse.ui.edit.text.contentAssist.proposals",1391409059274
started,bundle,org.eclipse.mylyn.java.tasks,3.8.3.v20130107-0100,"org.eclipse.mylyn.java.tasks",1391409108552
executed,command,org.eclipse.ui,3.7.0.v20110928-1505,"org.eclipse.ui.edit.copy",1391409108725
executed,command,org.eclipse.ui,3.7.0.v20110928-1505,"org.eclipse.ui.edit.paste",1391409110423
executed,command,org.eclipse.ui,3.7.0.v20110928-1505,"org.eclipse.ui.file.saveAll",1391409115313
executed,command,org.eclipse.ui,3.7.0.v20110928-1505,"org.eclipse.ui.file.saveAll",1391409123358
activated,editor,org.eclipse.jdt.ui,3.7.2.v20120109-1427,"org.eclipse.jdt.ui.CompilationUnitEditor",1391409124271
closed,editor,org.eclipse.jdt.ui,3.7.2.v20120109-1427,"org.eclipse.jdt.ui.CompilationUnitEditor",1391409124271
deactivated,workbench,org.eclipse.ui.workbench,3.7.1.v20120104-1859,"",1391409140386
activated,workbench,org.eclipse.ui.workbench,3.7.1.v20120104-1859,"",1391409141642
activated,view,org.eclipse.jdt.ui,3.7.2.v20120109-1427,"org.eclipse.jdt.ui.PackageExplorer",1391409143588
deactivated,workbench,org.eclipse.ui.workbench,3.7.1.v20120104-1859,"",1391409144869
activated,workbench,org.eclipse.ui.workbench,3.7.1.v20120104-1859,"",1391409197726
activated,editor,org.eclipse.jdt.ui,3.7.2.v20120109-1427,"org.eclipse.jdt.ui.CompilationUnitEditor",1391409198383
activated,view,org.eclipse.jdt.ui,3.7.2.v20120109-1427,"org.eclipse.jdt.ui.PackageExplorer",1391409219334
opened,editor,org.eclipse.jdt.ui,3.7.2.v20120109-1427,"org.eclipse.jdt.ui.CompilationUnitEditor",1391409219462
activated,editor,org.eclipse.jdt.ui,3.7.2.v20120109-1427,"org.eclipse.jdt.ui.CompilationUnitEditor",1391409219486
activated,view,org.eclipse.jdt.ui,3.7.2.v20120109-1427,"org.eclipse.jdt.ui.PackageExplorer",1391409227724
deactivated,workbench,org.eclipse.ui.workbench,3.7.1.v20120104-1859,"",1391409228719
activated,workbench,org.eclipse.ui.workbench,3.7.1.v20120104-1859,"",1391409229691
deactivated,workbench,org.eclipse.ui.workbench,3.7.1.v20120104-1859,"",1391409230073
activated,workbench,org.eclipse.ui.workbench,3.7.1.v20120104-1859,"",1391409237360
activated,editor,org.eclipse.jdt.ui,3.7.2.v20120109-1427,"org.eclipse.jdt.ui.CompilationUnitEditor",1391409242936
executed,command,org.eclipse.ui,3.7.0.v20110928-1505,"org.eclipse.ui.edit.text.contentAssist.proposals",1391409249393
deactivated,workbench,org.eclipse.ui.workbench,3.7.1.v20120104-1859,"",1391409255004
activated,workbench,org.eclipse.ui.workbench,3.7.1.v20120104-1859,"",1391409274455
executed,command,org.eclipse.ui,3.7.0.v20110928-1505,"org.eclipse.ui.edit.undo",1391409276641
executed,command,org.eclipse.ui,3.7.0.v20110928-1505,"org.eclipse.ui.edit.undo",1391409287071
executed,command,org.eclipse.ui,3.7.0.v20110928-1505,"org.eclipse.ui.edit.undo",1391409287295
executed,command,org.eclipse.ui,3.7.0.v20110928-1505,"org.eclipse.ui.edit.undo",1391409287487
executed,command,org.eclipse.ui,3.7.0.v20110928-1505,"org.eclipse.ui.edit.undo",1391409287664
executed,command,org.eclipse.ui,3.7.0.v20110928-1505,"org.eclipse.ui.edit.undo",1391409287855
executed,command,org.eclipse.ui,3.7.0.v20110928-1505,"org.eclipse.ui.edit.undo",1391409288034
executed,command,org.eclipse.ui,3.7.0.v20110928-1505,"org.eclipse.ui.edit.undo",1391409288208
executed,command,org.eclipse.ui,3.7.0.v20110928-1505,"org.eclipse.ui.edit.undo",1391409288464
executed,command,org.eclipse.ui,3.7.0.v20110928-1505,"org.eclipse.ui.edit.undo",1391409288784
executed,command,org.eclipse.ui,3.7.0.v20110928-1505,"org.eclipse.ui.edit.undo",1391409289104
executed,command,org.eclipse.ui,3.7.0.v20110928-1505,"org.eclipse.ui.edit.undo",1391409289331
activated,view,org.eclipse.jdt.ui,3.7.2.v20120109-1427,"org.eclipse.jdt.ui.PackageExplorer",1391409299390
deactivated,workbench,org.eclipse.ui.workbench,3.7.1.v20120104-1859,"",1391409300799
activated,workbench,org.eclipse.ui.workbench,3.7.1.v20120104-1859,"",1391409301581
deactivated,workbench,org.eclipse.ui.workbench,3.7.1.v20120104-1859,"",1391409301936
activated,workbench,org.eclipse.ui.workbench,3.7.1.v20120104-1859,"",1391409307745
activated,view,org.eclipse.jdt.ui,3.7.2.v20120109-1427,"org.eclipse.jdt.ui.JavadocView",1391409307921
deactivated,workbench,org.eclipse.ui.workbench,3.7.1.v20120104-1859,"",1391409308945
activated,workbench,org.eclipse.ui.workbench,3.7.1.v20120104-1859,"",1391409311254
activated,view,org.eclipse.ui.console,3.5.100.v20111007_r372,"org.eclipse.ui.console.ConsoleView",1391409311258
activated,editor,org.eclipse.jdt.ui,3.7.2.v20120109-1427,"org.eclipse.jdt.ui.CompilationUnitEditor",1391409311880
activated,view,org.eclipse.search,3.7.0.v20110928-1504,"org.eclipse.search.ui.views.SearchView",1391409313288
activated,editor,org.eclipse.jdt.ui,3.7.2.v20120109-1427,"org.eclipse.jdt.ui.CompilationUnitEditor",1391409313300
closed,view,org.eclipse.search,3.7.0.v20110928-1504,"org.eclipse.search.ui.views.SearchView",1391409313318
activated,editor,org.eclipse.jdt.ui,3.7.2.v20120109-1427,"org.eclipse.jdt.ui.CompilationUnitEditor",1391409323319
activated,view,org.eclipse.jdt.ui,3.7.2.v20120109-1427,"org.eclipse.jdt.ui.PackageExplorer",1391409365667
deactivated,workbench,org.eclipse.ui.workbench,3.7.1.v20120104-1859,"",1391409367048
activated,workbench,org.eclipse.ui.workbench,3.7.1.v20120104-1859,"",1391409367742
deactivated,workbench,org.eclipse.ui.workbench,3.7.1.v20120104-1859,"",1391409368118
activated,workbench,org.eclipse.ui.workbench,3.7.1.v20120104-1859,"",1391409415602
deactivated,workbench,org.eclipse.ui.workbench,3.7.1.v20120104-1859,"",1391409416792
activated,workbench,org.eclipse.ui.workbench,3.7.1.v20120104-1859,"",1391409423265
activated,editor,org.eclipse.jdt.ui,3.7.2.v20120109-1427,"org.eclipse.jdt.ui.CompilationUnitEditor",1391409424798
activated,view,org.eclipse.jdt.ui,3.7.2.v20120109-1427,"org.eclipse.jdt.ui.PackageExplorer",1391409450216
activated,editor,org.eclipse.jdt.ui,3.7.2.v20120109-1427,"org.eclipse.jdt.ui.CompilationUnitEditor",1391409451749
activated,view,org.eclipse.jdt.ui,3.7.2.v20120109-1427,"org.eclipse.jdt.ui.PackageExplorer",1391409462776
deactivated,workbench,org.eclipse.ui.workbench,3.7.1.v20120104-1859,"",1391409463818
activated,workbench,org.eclipse.ui.workbench,3.7.1.v20120104-1859,"",1391409464599
deactivated,workbench,org.eclipse.ui.workbench,3.7.1.v20120104-1859,"",1391409464964
activated,workbench,org.eclipse.ui.workbench,3.7.1.v20120104-1859,"",1391409486000
activated,editor,org.eclipse.jdt.ui,3.7.2.v20120109-1427,"org.eclipse.jdt.ui.CompilationUnitEditor",1391409487365
activated,view,org.eclipse.jdt.ui,3.7.2.v20120109-1427,"org.eclipse.jdt.ui.PackageExplorer",1391409504484
deactivated,workbench,org.eclipse.ui.workbench,3.7.1.v20120104-1859,"",1391409506100
activated,workbench,org.eclipse.ui.workbench,3.7.1.v20120104-1859,"",1391409506845
deactivated,workbench,org.eclipse.ui.workbench,3.7.1.v20120104-1859,"",1391409507251
activated,workbench,org.eclipse.ui.workbench,3.7.1.v20120104-1859,"",1391409536795
activated,editor,org.eclipse.jdt.ui,3.7.2.v20120109-1427,"org.eclipse.jdt.ui.CompilationUnitEditor",1391409538414
activated,view,org.eclipse.jdt.ui,3.7.2.v20120109-1427,"org.eclipse.jdt.ui.PackageExplorer",1391409549536
deactivated,workbench,org.eclipse.ui.workbench,3.7.1.v20120104-1859,"",1391409550568
activated,workbench,org.eclipse.ui.workbench,3.7.1.v20120104-1859,"",1391409551537
deactivated,workbench,org.eclipse.ui.workbench,3.7.1.v20120104-1859,"",1391409551922
activated,workbench,org.eclipse.ui.workbench,3.7.1.v20120104-1859,"",1391409556496
activated,editor,org.eclipse.jdt.ui,3.7.2.v20120109-1427,"org.eclipse.jdt.ui.CompilationUnitEditor",1391409557840
activated,editor,org.eclipse.jdt.ui,3.7.2.v20120109-1427,"org.eclipse.jdt.ui.CompilationUnitEditor",1391409560358
activated,editor,org.eclipse.jdt.ui,3.7.2.v20120109-1427,"org.eclipse.jdt.ui.CompilationUnitEditor",1391409567215
activated,view,org.eclipse.jdt.ui,3.7.2.v20120109-1427,"org.eclipse.jdt.ui.PackageExplorer",1391409583123
deactivated,workbench,org.eclipse.ui.workbench,3.7.1.v20120104-1859,"",1391409585067
activated,workbench,org.eclipse.ui.workbench,3.7.1.v20120104-1859,"",1391409585856
deactivated,workbench,org.eclipse.ui.workbench,3.7.1.v20120104-1859,"",1391409586252
activated,workbench,org.eclipse.ui.workbench,3.7.1.v20120104-1859,"",1391409590794
activated,editor,org.eclipse.jdt.ui,3.7.2.v20120109-1427,"org.eclipse.jdt.ui.CompilationUnitEditor",1391409591807
executed,command,org.eclipse.ui,3.7.0.v20110928-1505,"org.eclipse.ui.file.saveAll",1391409595706
activated,editor,org.eclipse.jdt.ui,3.7.2.v20120109-1427,"org.eclipse.jdt.ui.CompilationUnitEditor",1391409600303
closed,editor,org.eclipse.jdt.ui,3.7.2.v20120109-1427,"org.eclipse.jdt.ui.CompilationUnitEditor",1391409600303
executed,command,org.eclipse.ui,3.7.0.v20110928-1505,"org.eclipse.ui.edit.undo",1391409652553
executed,command,org.eclipse.ui,3.7.0.v20110928-1505,"org.eclipse.ui.edit.undo",1391409652779
executed,command,org.eclipse.ui,3.7.0.v20110928-1505,"org.eclipse.ui.edit.undo",1391409653066
deactivated,workbench,org.eclipse.ui.workbench,3.7.1.v20120104-1859,"",1391409730410
activated,workbench,org.eclipse.ui.workbench,3.7.1.v20120104-1859,"",1391409786767
deactivated,workbench,org.eclipse.ui.workbench,3.7.1.v20120104-1859,"",1391409821914
activated,workbench,org.eclipse.ui.workbench,3.7.1.v20120104-1859,"",1391409851607
activated,view,org.eclipse.jdt.ui,3.7.2.v20120109-1427,"org.eclipse.jdt.ui.PackageExplorer",1391409867578
deactivated,workbench,org.eclipse.ui.workbench,3.7.1.v20120104-1859,"",1391409868649
activated,workbench,org.eclipse.ui.workbench,3.7.1.v20120104-1859,"",1391409869316
deactivated,workbench,org.eclipse.ui.workbench,3.7.1.v20120104-1859,"",1391409869692
activated,workbench,org.eclipse.ui.workbench,3.7.1.v20120104-1859,"",1391409878831
activated,editor,org.eclipse.jdt.ui,3.7.2.v20120109-1427,"org.eclipse.jdt.ui.CompilationUnitEditor",1391409881678
activated,view,org.eclipse.jdt.ui,3.7.2.v20120109-1427,"org.eclipse.jdt.ui.PackageExplorer",1391409903665
opened,editor,org.eclipse.jdt.ui,3.7.2.v20120109-1427,"org.eclipse.jdt.ui.CompilationUnitEditor",1391409907989
activated,editor,org.eclipse.jdt.ui,3.7.2.v20120109-1427,"org.eclipse.jdt.ui.CompilationUnitEditor",1391409908013
deactivated,workbench,org.eclipse.ui.workbench,3.7.1.v20120104-1859,"",1391409918810
activated,workbench,org.eclipse.ui.workbench,3.7.1.v20120104-1859,"",1391409922505
executed,command,org.eclipse.jdt.ui,3.7.2.v20120109-1427,"org.eclipse.jdt.ui.edit.text.java.organize.imports",1391409922523
deactivated,workbench,org.eclipse.ui.workbench,3.7.1.v20120104-1859,"",1391409945334
activated,workbench,org.eclipse.ui.workbench,3.7.1.v20120104-1859,"",1391409967196
executed,command,org.eclipse.ui,3.7.0.v20110928-1505,"org.eclipse.ui.file.saveAll",1391409988920
activated,view,org.eclipse.jdt.ui,3.7.2.v20120109-1427,"org.eclipse.jdt.ui.PackageExplorer",1391409991561
activated,editor,org.eclipse.jdt.ui,3.7.2.v20120109-1427,"org.eclipse.jdt.ui.CompilationUnitEditor",1391409992215
activated,editor,org.eclipse.jdt.ui,3.7.2.v20120109-1427,"org.eclipse.jdt.ui.CompilationUnitEditor",1391409996122
activated,editor,org.eclipse.jdt.ui,3.7.2.v20120109-1427,"org.eclipse.jdt.ui.CompilationUnitEditor",1391410007001
activated,editor,org.eclipse.jdt.ui,3.7.2.v20120109-1427,"org.eclipse.jdt.ui.CompilationUnitEditor",1391410012876
executed,command,org.eclipse.ui,3.7.0.v20110928-1505,"org.eclipse.ui.edit.text.contentAssist.proposals",1391410033597
deactivated,workbench,org.eclipse.ui.workbench,3.7.1.v20120104-1859,"",1391410035172
activated,workbench,org.eclipse.ui.workbench,3.7.1.v20120104-1859,"",1391410035316
activated,view,org.eclipse.jdt.ui,3.7.2.v20120109-1427,"org.eclipse.jdt.ui.PackageExplorer",1391410048804
opened,editor,org.eclipse.jdt.ui,3.7.2.v20120109-1427,"org.eclipse.jdt.ui.CompilationUnitEditor",1391410050047
activated,editor,org.eclipse.jdt.ui,3.7.2.v20120109-1427,"org.eclipse.jdt.ui.CompilationUnitEditor",1391410050072
activated,editor,org.eclipse.jdt.ui,3.7.2.v20120109-1427,"org.eclipse.jdt.ui.CompilationUnitEditor",1391410055952
activated,editor,org.eclipse.jdt.ui,3.7.2.v20120109-1427,"org.eclipse.jdt.ui.CompilationUnitEditor",1391410058633
activated,editor,org.eclipse.jdt.ui,3.7.2.v20120109-1427,"org.eclipse.jdt.ui.CompilationUnitEditor",1391410078314
activated,editor,org.eclipse.jdt.ui,3.7.2.v20120109-1427,"org.eclipse.jdt.ui.CompilationUnitEditor",1391410096789
activated,editor,org.eclipse.jdt.ui,3.7.2.v20120109-1427,"org.eclipse.jdt.ui.CompilationUnitEditor",1391410099686
activated,editor,org.eclipse.jdt.ui,3.7.2.v20120109-1427,"org.eclipse.jdt.ui.CompilationUnitEditor",1391410101643
activated,editor,org.eclipse.jdt.ui,3.7.2.v20120109-1427,"org.eclipse.jdt.ui.CompilationUnitEditor",1391410103208
activated,editor,org.eclipse.jdt.ui,3.7.2.v20120109-1427,"org.eclipse.jdt.ui.CompilationUnitEditor",1391410103713
activated,editor,org.eclipse.jdt.ui,3.7.2.v20120109-1427,"org.eclipse.jdt.ui.CompilationUnitEditor",1391410107831
deactivated,workbench,org.eclipse.ui.workbench,3.7.1.v20120104-1859,"",1391410143055
activated,workbench,org.eclipse.ui.workbench,3.7.1.v20120104-1859,"",1391410189626
deactivated,workbench,org.eclipse.ui.workbench,3.7.1.v20120104-1859,"",1391410266884
activated,workbench,org.eclipse.ui.workbench,3.7.1.v20120104-1859,"",1391410266966
activated,editor,org.eclipse.jdt.ui,3.7.2.v20120109-1427,"org.eclipse.jdt.ui.CompilationUnitEditor",1391410299318
activated,editor,org.eclipse.jdt.ui,3.7.2.v20120109-1427,"org.eclipse.jdt.ui.CompilationUnitEditor",1391410306289
deactivated,workbench,org.eclipse.ui.workbench,3.7.1.v20120104-1859,"",1391410343849
activated,workbench,org.eclipse.ui.workbench,3.7.1.v20120104-1859,"",1391410346603
activated,view,org.eclipse.jdt.ui,3.7.2.v20120109-1427,"org.eclipse.jdt.ui.PackageExplorer",1391410353290
opened,editor,org.eclipse.jdt.ui,3.7.2.v20120109-1427,"org.eclipse.jdt.ui.CompilationUnitEditor",1391410353414
activated,editor,org.eclipse.jdt.ui,3.7.2.v20120109-1427,"org.eclipse.jdt.ui.CompilationUnitEditor",1391410353439
activated,view,org.eclipse.jdt.ui,3.7.2.v20120109-1427,"org.eclipse.jdt.ui.PackageExplorer",1391410358661
opened,editor,org.eclipse.jdt.ui,3.7.2.v20120109-1427,"org.eclipse.jdt.ui.CompilationUnitEditor",1391410358826
activated,editor,org.eclipse.jdt.ui,3.7.2.v20120109-1427,"org.eclipse.jdt.ui.CompilationUnitEditor",1391410358853
activated,editor,org.eclipse.jdt.ui,3.7.2.v20120109-1427,"org.eclipse.jdt.ui.CompilationUnitEditor",1391410368608
closed,editor,org.eclipse.jdt.ui,3.7.2.v20120109-1427,"org.eclipse.jdt.ui.CompilationUnitEditor",1391410368608
activated,view,org.eclipse.jdt.ui,3.7.2.v20120109-1427,"org.eclipse.jdt.ui.PackageExplorer",1391410404231
opened,editor,org.eclipse.jdt.ui,3.7.2.v20120109-1427,"org.eclipse.jdt.ui.CompilationUnitEditor",1391410404387
activated,editor,org.eclipse.jdt.ui,3.7.2.v20120109-1427,"org.eclipse.jdt.ui.CompilationUnitEditor",1391410404411
activated,editor,org.eclipse.jdt.ui,3.7.2.v20120109-1427,"org.eclipse.jdt.ui.CompilationUnitEditor",1391410406212
closed,editor,org.eclipse.jdt.ui,3.7.2.v20120109-1427,"org.eclipse.jdt.ui.CompilationUnitEditor",1391410406212
deactivated,workbench,org.eclipse.ui.workbench,3.7.1.v20120104-1859,"",1391410415082
activated,workbench,org.eclipse.ui.workbench,3.7.1.v20120104-1859,"",1391410418246
activated,editor,org.eclipse.jdt.ui,3.7.2.v20120109-1427,"org.eclipse.jdt.ui.CompilationUnitEditor",1391410418267
closed,editor,org.eclipse.jdt.ui,3.7.2.v20120109-1427,"org.eclipse.jdt.ui.CompilationUnitEditor",1391410418267
activated,view,org.eclipse.jdt.ui,3.7.2.v20120109-1427,"org.eclipse.jdt.ui.PackageExplorer",1391410421726
opened,editor,org.eclipse.jdt.ui,3.7.2.v20120109-1427,"org.eclipse.jdt.ui.CompilationUnitEditor",1391410421870
activated,editor,org.eclipse.jdt.ui,3.7.2.v20120109-1427,"org.eclipse.jdt.ui.CompilationUnitEditor",1391410421896
deactivated,workbench,org.eclipse.ui.workbench,3.7.1.v20120104-1859,"",1391410433715
activated,workbench,org.eclipse.ui.workbench,3.7.1.v20120104-1859,"",1391410434654
activated,editor,org.eclipse.jdt.ui,3.7.2.v20120109-1427,"org.eclipse.jdt.ui.CompilationUnitEditor",1391410434675
closed,editor,org.eclipse.jdt.ui,3.7.2.v20120109-1427,"org.eclipse.jdt.ui.CompilationUnitEditor",1391410434676
activated,view,org.eclipse.jdt.ui,3.7.2.v20120109-1427,"org.eclipse.jdt.ui.PackageExplorer",1391410450356
opened,editor,org.eclipse.jdt.ui,3.7.2.v20120109-1427,"org.eclipse.jdt.ui.CompilationUnitEditor",1391410450498
activated,editor,org.eclipse.jdt.ui,3.7.2.v20120109-1427,"org.eclipse.jdt.ui.CompilationUnitEditor",1391410450524
activated,editor,org.eclipse.jdt.ui,3.7.2.v20120109-1427,"org.eclipse.jdt.ui.CompilationUnitEditor",1391410516735
executed,command,org.eclipse.ui,3.7.0.v20110928-1505,"org.eclipse.ui.file.saveAll",1391410564213
activated,editor,org.eclipse.jdt.ui,3.7.2.v20120109-1427,"org.eclipse.jdt.ui.CompilationUnitEditor",1391410566998
activated,editor,org.eclipse.jdt.ui,3.7.2.v20120109-1427,"org.eclipse.jdt.ui.CompilationUnitEditor",1391410567626
closed,editor,org.eclipse.jdt.ui,3.7.2.v20120109-1427,"org.eclipse.jdt.ui.CompilationUnitEditor",1391410567626
closed,editor,org.eclipse.jdt.ui,3.7.2.v20120109-1427,"org.eclipse.jdt.ui.CompilationUnitEditor",1391410568820
activated,editor,org.eclipse.jdt.ui,3.7.2.v20120109-1427,"org.eclipse.jdt.ui.CompilationUnitEditor",1391410569944
closed,editor,org.eclipse.jdt.ui,3.7.2.v20120109-1427,"org.eclipse.jdt.ui.CompilationUnitEditor",1391410569944
executed,command,org.eclipse.ui,3.7.0.v20110928-1505,"org.eclipse.ui.edit.cut",1391410578767
executed,command,org.eclipse.ui,3.7.0.v20110928-1505,"org.eclipse.ui.edit.paste",1391410594466
activated,view,org.eclipse.jdt.ui,3.7.2.v20120109-1427,"org.eclipse.jdt.ui.PackageExplorer",1391410605449
opened,editor,org.eclipse.jdt.ui,3.7.2.v20120109-1427,"org.eclipse.jdt.ui.CompilationUnitEditor",1391410605634
activated,editor,org.eclipse.jdt.ui,3.7.2.v20120109-1427,"org.eclipse.jdt.ui.CompilationUnitEditor",1391410605662
executed,command,org.eclipse.ui,3.7.0.v20110928-1505,"org.eclipse.ui.edit.paste",1391410614945
executed,command,org.eclipse.ui,3.7.0.v20110928-1505,"org.eclipse.ui.file.saveAll",1391410639269
activated,editor,org.eclipse.jdt.ui,3.7.2.v20120109-1427,"org.eclipse.jdt.ui.CompilationUnitEditor",1391410640367
closed,editor,org.eclipse.jdt.ui,3.7.2.v20120109-1427,"org.eclipse.jdt.ui.CompilationUnitEditor",1391410640367
activated,view,org.eclipse.jdt.ui,3.7.2.v20120109-1427,"org.eclipse.jdt.ui.PackageExplorer",1391410650157
deactivated,workbench,org.eclipse.ui.workbench,3.7.1.v20120104-1859,"",1391410651309
activated,workbench,org.eclipse.ui.workbench,3.7.1.v20120104-1859,"",1391410652193
deactivated,workbench,org.eclipse.ui.workbench,3.7.1.v20120104-1859,"",1391410652555
activated,workbench,org.eclipse.ui.workbench,3.7.1.v20120104-1859,"",1391410657234
activated,editor,org.eclipse.jdt.ui,3.7.2.v20120109-1427,"org.eclipse.jdt.ui.CompilationUnitEditor",1391410657897
executed,command,org.eclipse.ui,3.7.0.v20110928-1505,"org.eclipse.ui.file.saveAll",1391410686983
executed,command,org.eclipse.jdt.ui,3.7.2.v20120109-1427,"org.eclipse.jdt.ui.edit.text.java.organize.imports",1391410689651
executed,command,org.eclipse.ui,3.7.0.v20110928-1505,"org.eclipse.ui.file.saveAll",1391410691106
deactivated,workbench,org.eclipse.ui.workbench,3.7.1.v20120104-1859,"",1391410692491
activated,workbench,org.eclipse.ui.workbench,3.7.1.v20120104-1859,"",1391410694071
activated,view,org.eclipse.jdt.ui,3.7.2.v20120109-1427,"org.eclipse.jdt.ui.PackageExplorer",1391410733644
opened,editor,org.eclipse.jdt.ui,3.7.2.v20120109-1427,"org.eclipse.jdt.ui.CompilationUnitEditor",1391410733823
activated,editor,org.eclipse.jdt.ui,3.7.2.v20120109-1427,"org.eclipse.jdt.ui.CompilationUnitEditor",1391410733849
activated,view,org.eclipse.jdt.ui,3.7.2.v20120109-1427,"org.eclipse.jdt.ui.PackageExplorer",1391410767564
deactivated,workbench,org.eclipse.ui.workbench,3.7.1.v20120104-1859,"",1391410768537
activated,workbench,org.eclipse.ui.workbench,3.7.1.v20120104-1859,"",1391410769319
deactivated,workbench,org.eclipse.ui.workbench,3.7.1.v20120104-1859,"",1391410769678
activated,workbench,org.eclipse.ui.workbench,3.7.1.v20120104-1859,"",1391410772440
activated,view,org.eclipse.ui.console,3.5.100.v20111007_r372,"org.eclipse.ui.console.ConsoleView",1391410772448
activated,editor,org.eclipse.jdt.ui,3.7.2.v20120109-1427,"org.eclipse.jdt.ui.CompilationUnitEditor",1391410792544
opened,editor,org.eclipse.jdt.ui,3.7.2.v20120109-1427,"org.eclipse.jdt.ui.CompilationUnitEditor",1391410802720
activated,editor,org.eclipse.jdt.ui,3.7.2.v20120109-1427,"org.eclipse.jdt.ui.CompilationUnitEditor",1391410802754
activated,editor,org.eclipse.jdt.ui,3.7.2.v20120109-1427,"org.eclipse.jdt.ui.CompilationUnitEditor",1391410803609
executed,command,org.eclipse.ui,3.7.0.v20110928-1505,"org.eclipse.ui.edit.cut",1391410817917
executed,command,org.eclipse.ui,3.7.0.v20110928-1505,"org.eclipse.ui.edit.paste",1391410823707
activated,editor,org.eclipse.jdt.ui,3.7.2.v20120109-1427,"org.eclipse.jdt.ui.CompilationUnitEditor",1391410831751
executed,command,org.eclipse.ui,3.7.0.v20110928-1505,"org.eclipse.ui.file.refresh",1391410832823
executed,command,org.eclipse.ui,3.7.0.v20110928-1505,"org.eclipse.ui.file.saveAll",1391410833651
activated,editor,org.eclipse.jdt.ui,3.7.2.v20120109-1427,"org.eclipse.jdt.ui.CompilationUnitEditor",1391410835895
activated,editor,org.eclipse.jdt.ui,3.7.2.v20120109-1427,"org.eclipse.jdt.ui.CompilationUnitEditor",1391410837050
activated,editor,org.eclipse.jdt.ui,3.7.2.v20120109-1427,"org.eclipse.jdt.ui.CompilationUnitEditor",1391410837655
closed,editor,org.eclipse.jdt.ui,3.7.2.v20120109-1427,"org.eclipse.jdt.ui.CompilationUnitEditor",1391410837656
activated,editor,org.eclipse.jdt.ui,3.7.2.v20120109-1427,"org.eclipse.jdt.ui.CompilationUnitEditor",1391410838631
activated,view,org.eclipse.jdt.ui,3.7.2.v20120109-1427,"org.eclipse.jdt.ui.PackageExplorer",1391410842193
deactivated,workbench,org.eclipse.ui.workbench,3.7.1.v20120104-1859,"",1391410843846
activated,workbench,org.eclipse.ui.workbench,3.7.1.v20120104-1859,"",1391410844082
activated,view,org.eclipse.ui.console,3.5.100.v20111007_r372,"org.eclipse.ui.console.ConsoleView",1391410846442
activated,editor,org.eclipse.jdt.ui,3.7.2.v20120109-1427,"org.eclipse.jdt.ui.CompilationUnitEditor",1391410854140
activated,view,org.eclipse.jdt.ui,3.7.2.v20120109-1427,"org.eclipse.jdt.ui.PackageExplorer",1391410878482
opened,editor,org.eclipse.jdt.ui,3.7.2.v20120109-1427,"org.eclipse.jdt.ui.CompilationUnitEditor",1391410878655
activated,editor,org.eclipse.jdt.ui,3.7.2.v20120109-1427,"org.eclipse.jdt.ui.CompilationUnitEditor",1391410878698
executed,command,org.eclipse.ui,3.7.0.v20110928-1505,"org.eclipse.ui.file.refresh",1391410880348
activated,editor,org.eclipse.jdt.ui,3.7.2.v20120109-1427,"org.eclipse.jdt.ui.CompilationUnitEditor",1391410883054
closed,editor,org.eclipse.jdt.ui,3.7.2.v20120109-1427,"org.eclipse.jdt.ui.CompilationUnitEditor",1391410883054
deactivated,workbench,org.eclipse.ui.workbench,3.7.1.v20120104-1859,"",1391410923207
activated,workbench,org.eclipse.ui.workbench,3.7.1.v20120104-1859,"",1391410926610
deactivated,workbench,org.eclipse.ui.workbench,3.7.1.v20120104-1859,"",1391410927344
activated,workbench,org.eclipse.ui.workbench,3.7.1.v20120104-1859,"",1391410928525
deactivated,workbench,org.eclipse.ui.workbench,3.7.1.v20120104-1859,"",1391410928921
activated,workbench,org.eclipse.ui.workbench,3.7.1.v20120104-1859,"",1391410942215
executed,command,org.eclipse.ui,3.7.0.v20110928-1505,"org.eclipse.ui.edit.paste",1391410976348
executed,command,org.eclipse.ui,3.7.0.v20110928-1505,"org.eclipse.ui.edit.undo",1391410977664
executed,command,org.eclipse.ui,3.7.0.v20110928-1505,"org.eclipse.ui.edit.undo",1391410978177
executed,command,org.eclipse.ui,3.7.0.v20110928-1505,"org.eclipse.ui.edit.undo",1391410978496
executed,command,org.eclipse.ui,3.7.0.v20110928-1505,"org.eclipse.ui.edit.undo",1391410978882
executed,command,org.eclipse.ui,3.7.0.v20110928-1505,"org.eclipse.ui.edit.copy",1391410980203
