what,kind,bundleId,bundleVersion,description,time
executed,command,org.eclipse.ui,3.7.0.v20110928-1505,"org.eclipse.ui.edit.paste",1383693347140
executed,command,org.eclipse.jdt.ui,3.7.2.v20120109-1427,"org.eclipse.jdt.ui.edit.text.java.organize.imports",1383693378287
executed,command,org.eclipse.jdt.ui,3.7.2.v20120109-1427,"org.eclipse.jdt.ui.edit.text.java.organize.imports",1383693405574
deactivated,workbench,org.eclipse.ui.workbench,3.7.1.v20120104-1859,"",1383693410642
activated,workbench,org.eclipse.ui.workbench,3.7.1.v20120104-1859,"",1383693413068
deactivated,workbench,org.eclipse.ui.workbench,3.7.1.v20120104-1859,"",1383693413629
activated,workbench,org.eclipse.ui.workbench,3.7.1.v20120104-1859,"",1383693428728
activated,view,org.eclipse.jdt.ui,3.7.2.v20120109-1427,"org.eclipse.jdt.ui.PackageExplorer",1383693440027
deactivated,workbench,org.eclipse.ui.workbench,3.7.1.v20120104-1859,"",1383693441207
activated,workbench,org.eclipse.ui.workbench,3.7.1.v20120104-1859,"",1383693442470
deactivated,workbench,org.eclipse.ui.workbench,3.7.1.v20120104-1859,"",1383693442867
activated,workbench,org.eclipse.ui.workbench,3.7.1.v20120104-1859,"",1383693457433
deactivated,workbench,org.eclipse.ui.workbench,3.7.1.v20120104-1859,"",1383693461781
activated,workbench,org.eclipse.ui.workbench,3.7.1.v20120104-1859,"",1383693546451
activated,editor,org.eclipse.jdt.ui,3.7.2.v20120109-1427,"org.eclipse.jdt.ui.CompilationUnitEditor",1383693549783
activated,view,org.eclipse.jdt.ui,3.7.2.v20120109-1427,"org.eclipse.jdt.ui.PackageExplorer",1383693557618
opened,editor,org.eclipse.jdt.ui,3.7.2.v20120109-1427,"org.eclipse.jdt.ui.CompilationUnitEditor",1383693558822
activated,editor,org.eclipse.jdt.ui,3.7.2.v20120109-1427,"org.eclipse.jdt.ui.CompilationUnitEditor",1383693558849
executed,command,org.eclipse.ui,3.7.0.v20110928-1505,"org.eclipse.ui.file.saveAll",1383693571087
executed,command,org.eclipse.ui,3.7.0.v20110928-1505,"org.eclipse.ui.file.saveAll",1383693585999
executed,command,org.eclipse.ui,3.7.0.v20110928-1505,"org.eclipse.ui.edit.undo",1383693595891
executed,command,org.eclipse.ui,3.7.0.v20110928-1505,"org.eclipse.ui.edit.undo",1383693596429
executed,command,org.eclipse.ui,3.7.0.v20110928-1505,"org.eclipse.ui.file.saveAll",1383693599959
executed,command,org.eclipse.ui,3.7.0.v20110928-1505,"org.eclipse.ui.file.saveAll",1383693677635
executed,command,org.eclipse.ui,3.7.0.v20110928-1505,"org.eclipse.ui.file.saveAll",1383693686318
activated,view,org.eclipse.jdt.ui,3.7.2.v20120109-1427,"org.eclipse.jdt.ui.PackageExplorer",1383693688673
activated,editor,org.eclipse.jdt.ui,3.7.2.v20120109-1427,"org.eclipse.jdt.ui.CompilationUnitEditor",1383693690233
activated,editor,org.eclipse.jdt.ui,3.7.2.v20120109-1427,"org.eclipse.jdt.ui.CompilationUnitEditor",1383693697099
executed,command,org.eclipse.ui,3.7.0.v20110928-1505,"org.eclipse.ui.navigate.backwardHistory",1383693697106
executed,command,org.eclipse.ui,3.7.0.v20110928-1505,"org.eclipse.ui.edit.undo",1383693699307
executed,command,org.eclipse.ui,3.7.0.v20110928-1505,"org.eclipse.ui.edit.undo",1383693699769
executed,command,org.eclipse.ui,3.7.0.v20110928-1505,"org.eclipse.ui.edit.undo",1383693701084
executed,command,org.eclipse.ui,3.7.0.v20110928-1505,"org.eclipse.ui.edit.undo",1383693701608
executed,command,org.eclipse.ui,3.7.0.v20110928-1505,"org.eclipse.ui.file.saveAll",1383693702984
activated,editor,org.eclipse.jdt.ui,3.7.2.v20120109-1427,"org.eclipse.jdt.ui.CompilationUnitEditor",1383693705283
closed,editor,org.eclipse.jdt.ui,3.7.2.v20120109-1427,"org.eclipse.jdt.ui.CompilationUnitEditor",1383693705285
activated,view,org.eclipse.jdt.ui,3.7.2.v20120109-1427,"org.eclipse.jdt.ui.PackageExplorer",1383693713077
activated,editor,org.eclipse.jdt.ui,3.7.2.v20120109-1427,"org.eclipse.jdt.ui.CompilationUnitEditor",1383693713213
activated,view,org.eclipse.jdt.ui,3.7.2.v20120109-1427,"org.eclipse.jdt.ui.PackageExplorer",1383693732009
opened,editor,org.eclipse.jdt.ui,3.7.2.v20120109-1427,"org.eclipse.jdt.ui.CompilationUnitEditor",1383693732322
activated,editor,org.eclipse.jdt.ui,3.7.2.v20120109-1427,"org.eclipse.jdt.ui.CompilationUnitEditor",1383693732349
activated,editor,org.eclipse.jdt.ui,3.7.2.v20120109-1427,"org.eclipse.jdt.ui.CompilationUnitEditor",1383693742448
closed,editor,org.eclipse.jdt.ui,3.7.2.v20120109-1427,"org.eclipse.jdt.ui.CompilationUnitEditor",1383693742448
activated,editor,org.eclipse.jdt.ui,3.7.2.v20120109-1427,"org.eclipse.jdt.ui.CompilationUnitEditor",1383693744935
activated,editor,org.eclipse.jdt.ui,3.7.2.v20120109-1427,"org.eclipse.jdt.ui.CompilationUnitEditor",1383693745732
closed,editor,org.eclipse.jdt.ui,3.7.2.v20120109-1427,"org.eclipse.jdt.ui.CompilationUnitEditor",1383693745732
closed,editor,org.eclipse.jdt.ui,3.7.2.v20120109-1427,"org.eclipse.jdt.ui.CompilationUnitEditor",1383693747337
closed,editor,org.eclipse.jdt.ui,3.7.2.v20120109-1427,"org.eclipse.jdt.ui.CompilationUnitEditor",1383693748090
activated,editor,org.eclipse.jdt.ui,3.7.2.v20120109-1427,"org.eclipse.jdt.ui.CompilationUnitEditor",1383693751410
executed,command,org.eclipse.ui,3.7.0.v20110928-1505,"org.eclipse.ui.file.saveAll",1383693820470
activated,view,org.eclipse.jdt.ui,3.7.2.v20120109-1427,"org.eclipse.jdt.ui.PackageExplorer",1383693933073
opened,editor,org.eclipse.jdt.ui,3.7.2.v20120109-1427,"org.eclipse.jdt.ui.CompilationUnitEditor",1383693935084
activated,editor,org.eclipse.jdt.ui,3.7.2.v20120109-1427,"org.eclipse.jdt.ui.CompilationUnitEditor",1383693935110
deactivated,workbench,org.eclipse.ui.workbench,3.7.1.v20120104-1859,"",1383693936114
activated,workbench,org.eclipse.ui.workbench,3.7.1.v20120104-1859,"",1383694003967
executed,command,org.eclipse.ui,3.7.0.v20110928-1505,"org.eclipse.ui.edit.copy",1383694018818
executed,command,org.eclipse.ui,3.7.0.v20110928-1505,"org.eclipse.ui.edit.copy",1383694018994
executed,command,org.eclipse.ui,3.7.0.v20110928-1505,"org.eclipse.ui.edit.copy",1383694019123
executed,command,org.eclipse.ui,3.7.0.v20110928-1505,"org.eclipse.ui.edit.copy",1383694019266
executed,command,org.eclipse.ui,3.7.0.v20110928-1505,"org.eclipse.ui.edit.copy",1383694019410
executed,command,org.eclipse.ui,3.7.0.v20110928-1505,"org.eclipse.ui.edit.copy",1383694019555
executed,command,org.eclipse.ui,3.7.0.v20110928-1505,"org.eclipse.ui.edit.copy",1383694019683
executed,command,org.eclipse.ui,3.7.0.v20110928-1505,"org.eclipse.ui.edit.copy",1383694019841
executed,command,org.eclipse.ui,3.7.0.v20110928-1505,"org.eclipse.ui.edit.copy",1383694019971
executed,command,org.eclipse.ui,3.7.0.v20110928-1505,"org.eclipse.ui.edit.copy",1383694020099
executed,command,org.eclipse.ui,3.7.0.v20110928-1505,"org.eclipse.ui.edit.copy",1383694020143
executed,command,org.eclipse.ui,3.7.0.v20110928-1505,"org.eclipse.ui.edit.copy",1383694020401
executed,command,org.eclipse.ui,3.7.0.v20110928-1505,"org.eclipse.ui.edit.copy",1383694020546
executed,command,org.eclipse.ui,3.7.0.v20110928-1505,"org.eclipse.ui.edit.copy",1383694020674
executed,command,org.eclipse.ui,3.7.0.v20110928-1505,"org.eclipse.ui.edit.copy",1383694032501
executed,command,org.eclipse.ui,3.7.0.v20110928-1505,"org.eclipse.ui.edit.copy",1383694035732
activated,editor,org.eclipse.jdt.ui,3.7.2.v20120109-1427,"org.eclipse.jdt.ui.CompilationUnitEditor",1383694037014
executed,command,org.eclipse.ui,3.7.0.v20110928-1505,"org.eclipse.ui.edit.paste",1383694039845
activated,editor,org.eclipse.jdt.ui,3.7.2.v20120109-1427,"org.eclipse.jdt.ui.CompilationUnitEditor",1383694044542
executed,command,org.eclipse.ui,3.7.0.v20110928-1505,"org.eclipse.ui.file.saveAll",1383694046657
activated,editor,org.eclipse.jdt.ui,3.7.2.v20120109-1427,"org.eclipse.jdt.ui.CompilationUnitEditor",1383694059158
executed,command,org.eclipse.ui,3.7.0.v20110928-1505,"org.eclipse.ui.file.saveAll",1383694117736
executed,command,org.eclipse.jdt.ui,3.7.2.v20120109-1427,"org.eclipse.jdt.ui.edit.text.java.organize.imports",1383694122670
executed,command,org.eclipse.ui,3.7.0.v20110928-1505,"org.eclipse.ui.file.saveAll",1383694129103
activated,view,org.eclipse.jdt.ui,3.7.2.v20120109-1427,"org.eclipse.jdt.ui.PackageExplorer",1383694130696
deactivated,workbench,org.eclipse.ui.workbench,3.7.1.v20120104-1859,"",1383694132726
activated,workbench,org.eclipse.ui.workbench,3.7.1.v20120104-1859,"",1383694145986
activated,editor,org.eclipse.jdt.ui,3.7.2.v20120109-1427,"org.eclipse.jdt.ui.CompilationUnitEditor",1383694146834
activated,view,org.eclipse.jdt.ui,3.7.2.v20120109-1427,"org.eclipse.jdt.ui.PackageExplorer",1383694168911
deactivated,workbench,org.eclipse.ui.workbench,3.7.1.v20120104-1859,"",1383694170259
activated,workbench,org.eclipse.ui.workbench,3.7.1.v20120104-1859,"",1383694171191
deactivated,workbench,org.eclipse.ui.workbench,3.7.1.v20120104-1859,"",1383694171581
activated,workbench,org.eclipse.ui.workbench,3.7.1.v20120104-1859,"",1383694193669
deactivated,workbench,org.eclipse.ui.workbench,3.7.1.v20120104-1859,"",1383694194558
activated,workbench,org.eclipse.ui.workbench,3.7.1.v20120104-1859,"",1383694287507
activated,editor,org.eclipse.jdt.ui,3.7.2.v20120109-1427,"org.eclipse.jdt.ui.CompilationUnitEditor",1383694289407
deactivated,workbench,org.eclipse.ui.workbench,3.7.1.v20120104-1859,"",1383694296898
activated,workbench,org.eclipse.ui.workbench,3.7.1.v20120104-1859,"",1383694303960
activated,view,org.eclipse.jdt.ui,3.7.2.v20120109-1427,"org.eclipse.jdt.ui.PackageExplorer",1383694305303
deactivated,workbench,org.eclipse.ui.workbench,3.7.1.v20120104-1859,"",1383694306262
activated,workbench,org.eclipse.ui.workbench,3.7.1.v20120104-1859,"",1383694307045
deactivated,workbench,org.eclipse.ui.workbench,3.7.1.v20120104-1859,"",1383694307380
activated,workbench,org.eclipse.ui.workbench,3.7.1.v20120104-1859,"",1383694324839
activated,editor,org.eclipse.jdt.ui,3.7.2.v20120109-1427,"org.eclipse.jdt.ui.CompilationUnitEditor",1383694326118
activated,view,org.eclipse.jdt.ui,3.7.2.v20120109-1427,"org.eclipse.jdt.ui.PackageExplorer",1383694405117
deactivated,workbench,org.eclipse.ui.workbench,3.7.1.v20120104-1859,"",1383694406092
activated,workbench,org.eclipse.ui.workbench,3.7.1.v20120104-1859,"",1383694406935
deactivated,workbench,org.eclipse.ui.workbench,3.7.1.v20120104-1859,"",1383694407315
activated,workbench,org.eclipse.ui.workbench,3.7.1.v20120104-1859,"",1383694418769
activated,editor,org.eclipse.jdt.ui,3.7.2.v20120109-1427,"org.eclipse.jdt.ui.CompilationUnitEditor",1383694424303
deactivated,workbench,org.eclipse.ui.workbench,3.7.1.v20120104-1859,"",1383694435186
activated,workbench,org.eclipse.ui.workbench,3.7.1.v20120104-1859,"",1383694440892
deactivated,workbench,org.eclipse.ui.workbench,3.7.1.v20120104-1859,"",1383694473291
activated,workbench,org.eclipse.ui.workbench,3.7.1.v20120104-1859,"",1383694477295
activated,view,org.eclipse.jdt.ui,3.7.2.v20120109-1427,"org.eclipse.jdt.ui.PackageExplorer",1383694496913
deactivated,workbench,org.eclipse.ui.workbench,3.7.1.v20120104-1859,"",1383694497831
activated,workbench,org.eclipse.ui.workbench,3.7.1.v20120104-1859,"",1383694498667
deactivated,workbench,org.eclipse.ui.workbench,3.7.1.v20120104-1859,"",1383694499063
activated,workbench,org.eclipse.ui.workbench,3.7.1.v20120104-1859,"",1383694505815
activated,view,org.eclipse.jdt.ui,3.7.2.v20120109-1427,"org.eclipse.jdt.ui.JavadocView",1383694505916
activated,view,org.eclipse.ui.console,3.5.100.v20111007_r372,"org.eclipse.ui.console.ConsoleView",1383694507783
activated,editor,org.eclipse.jdt.ui,3.7.2.v20120109-1427,"org.eclipse.jdt.ui.CompilationUnitEditor",1383694511313
deactivated,workbench,org.eclipse.ui.workbench,3.7.1.v20120104-1859,"",1383694514786
activated,workbench,org.eclipse.ui.workbench,3.7.1.v20120104-1859,"",1383694534440
executed,command,org.eclipse.ui,3.7.0.v20110928-1505,"org.eclipse.ui.edit.copy",1383694597283
executed,command,org.eclipse.ui,3.7.0.v20110928-1505,"org.eclipse.ui.edit.paste",1383694602697
started,bundle,org.eclipse.compare,3.5.202.R37x_v20111109-0800,"org.eclipse.compare",1383694712205
executed,command,org.eclipse.ui,3.7.0.v20110928-1505,"org.eclipse.ui.edit.copy",1383694761046
executed,command,org.eclipse.ui,3.7.0.v20110928-1505,"org.eclipse.ui.edit.paste",1383694762173
activated,view,org.eclipse.jdt.ui,3.7.2.v20120109-1427,"org.eclipse.jdt.ui.PackageExplorer",1383694794472
deactivated,workbench,org.eclipse.ui.workbench,3.7.1.v20120104-1859,"",1383694795617
activated,workbench,org.eclipse.ui.workbench,3.7.1.v20120104-1859,"",1383694796407
deactivated,workbench,org.eclipse.ui.workbench,3.7.1.v20120104-1859,"",1383694796757
activated,workbench,org.eclipse.ui.workbench,3.7.1.v20120104-1859,"",1383694804989
activated,editor,org.eclipse.jdt.ui,3.7.2.v20120109-1427,"org.eclipse.jdt.ui.CompilationUnitEditor",1383694808958
executed,command,org.eclipse.ui,3.7.0.v20110928-1505,"org.eclipse.ui.edit.copy",1383694810915
executed,command,org.eclipse.ui,3.7.0.v20110928-1505,"org.eclipse.ui.edit.paste",1383694813813
executed,command,org.eclipse.ui,3.7.0.v20110928-1505,"org.eclipse.ui.edit.paste",1383694816147
activated,view,org.eclipse.jdt.ui,3.7.2.v20120109-1427,"org.eclipse.jdt.ui.PackageExplorer",1383694817834
deactivated,workbench,org.eclipse.ui.workbench,3.7.1.v20120104-1859,"",1383694818898
activated,workbench,org.eclipse.ui.workbench,3.7.1.v20120104-1859,"",1383694820595
deactivated,workbench,org.eclipse.ui.workbench,3.7.1.v20120104-1859,"",1383694820990
activated,workbench,org.eclipse.ui.workbench,3.7.1.v20120104-1859,"",1383694829239
activated,editor,org.eclipse.jdt.ui,3.7.2.v20120109-1427,"org.eclipse.jdt.ui.CompilationUnitEditor",1383694830144
activated,view,org.eclipse.jdt.ui,3.7.2.v20120109-1427,"org.eclipse.jdt.ui.PackageExplorer",1383694849154
deactivated,workbench,org.eclipse.ui.workbench,3.7.1.v20120104-1859,"",1383694850691
activated,workbench,org.eclipse.ui.workbench,3.7.1.v20120104-1859,"",1383694851579
deactivated,workbench,org.eclipse.ui.workbench,3.7.1.v20120104-1859,"",1383694851926
activated,workbench,org.eclipse.ui.workbench,3.7.1.v20120104-1859,"",1383694862126
activated,editor,org.eclipse.jdt.ui,3.7.2.v20120109-1427,"org.eclipse.jdt.ui.CompilationUnitEditor",1383694863598
deactivated,workbench,org.eclipse.ui.workbench,3.7.1.v20120104-1859,"",1383694901121
activated,workbench,org.eclipse.ui.workbench,3.7.1.v20120104-1859,"",1383694929828
activated,view,org.eclipse.jdt.ui,3.7.2.v20120109-1427,"org.eclipse.jdt.ui.PackageExplorer",1383694953247
deactivated,workbench,org.eclipse.ui.workbench,3.7.1.v20120104-1859,"",1383694954813
activated,workbench,org.eclipse.ui.workbench,3.7.1.v20120104-1859,"",1383694955839
deactivated,workbench,org.eclipse.ui.workbench,3.7.1.v20120104-1859,"",1383694956186
activated,workbench,org.eclipse.ui.workbench,3.7.1.v20120104-1859,"",1383694968506
activated,editor,org.eclipse.jdt.ui,3.7.2.v20120109-1427,"org.eclipse.jdt.ui.CompilationUnitEditor",1383694974534
activated,view,org.eclipse.jdt.ui,3.7.2.v20120109-1427,"org.eclipse.jdt.ui.PackageExplorer",1383694985753
deactivated,workbench,org.eclipse.ui.workbench,3.7.1.v20120104-1859,"",1383694987325
activated,workbench,org.eclipse.ui.workbench,3.7.1.v20120104-1859,"",1383694988256
deactivated,workbench,org.eclipse.ui.workbench,3.7.1.v20120104-1859,"",1383694988674
activated,workbench,org.eclipse.ui.workbench,3.7.1.v20120104-1859,"",1383694998706
activated,editor,org.eclipse.jdt.ui,3.7.2.v20120109-1427,"org.eclipse.jdt.ui.CompilationUnitEditor",1383695015243
activated,view,org.eclipse.jdt.ui,3.7.2.v20120109-1427,"org.eclipse.jdt.ui.PackageExplorer",1383695030540
deactivated,workbench,org.eclipse.ui.workbench,3.7.1.v20120104-1859,"",1383695031658
activated,workbench,org.eclipse.ui.workbench,3.7.1.v20120104-1859,"",1383695032773
deactivated,workbench,org.eclipse.ui.workbench,3.7.1.v20120104-1859,"",1383695033118
activated,workbench,org.eclipse.ui.workbench,3.7.1.v20120104-1859,"",1383695072723
activated,editor,org.eclipse.jdt.ui,3.7.2.v20120109-1427,"org.eclipse.jdt.ui.CompilationUnitEditor",1383695077060
activated,editor,org.eclipse.jdt.ui,3.7.2.v20120109-1427,"org.eclipse.jdt.ui.CompilationUnitEditor",1383695079311
executed,command,org.eclipse.ui,3.7.0.v20110928-1505,"org.eclipse.ui.edit.copy",1383695085547
executed,command,org.eclipse.ui,3.7.0.v20110928-1505,"org.eclipse.ui.edit.paste",1383695087169
activated,editor,org.eclipse.jdt.ui,3.7.2.v20120109-1427,"org.eclipse.jdt.ui.CompilationUnitEditor",1383695110968
activated,editor,org.eclipse.jdt.ui,3.7.2.v20120109-1427,"org.eclipse.jdt.ui.CompilationUnitEditor",1383695115677
activated,view,org.eclipse.jdt.ui,3.7.2.v20120109-1427,"org.eclipse.jdt.ui.PackageExplorer",1383695126510
opened,editor,org.eclipse.jdt.ui,3.7.2.v20120109-1427,"org.eclipse.jdt.ui.CompilationUnitEditor",1383695126717
activated,editor,org.eclipse.jdt.ui,3.7.2.v20120109-1427,"org.eclipse.jdt.ui.CompilationUnitEditor",1383695126742
activated,view,org.eclipse.jdt.ui,3.7.2.v20120109-1427,"org.eclipse.jdt.ui.PackageExplorer",1383695143353
deactivated,workbench,org.eclipse.ui.workbench,3.7.1.v20120104-1859,"",1383695144498
activated,workbench,org.eclipse.ui.workbench,3.7.1.v20120104-1859,"",1383695145378
deactivated,workbench,org.eclipse.ui.workbench,3.7.1.v20120104-1859,"",1383695145739
activated,workbench,org.eclipse.ui.workbench,3.7.1.v20120104-1859,"",1383695172689
activated,editor,org.eclipse.jdt.ui,3.7.2.v20120109-1427,"org.eclipse.jdt.ui.CompilationUnitEditor",1383695173407
activated,editor,org.eclipse.jdt.ui,3.7.2.v20120109-1427,"org.eclipse.jdt.ui.CompilationUnitEditor",1383695174948
closed,editor,org.eclipse.jdt.ui,3.7.2.v20120109-1427,"org.eclipse.jdt.ui.CompilationUnitEditor",1383695174948
activated,editor,org.eclipse.jdt.ui,3.7.2.v20120109-1427,"org.eclipse.jdt.ui.CompilationUnitEditor",1383695175923
activated,editor,org.eclipse.jdt.ui,3.7.2.v20120109-1427,"org.eclipse.jdt.ui.CompilationUnitEditor",1383695177126
deactivated,workbench,org.eclipse.ui.workbench,3.7.1.v20120104-1859,"",1383695202768
activated,workbench,org.eclipse.ui.workbench,3.7.1.v20120104-1859,"",1383695224518
deactivated,workbench,org.eclipse.ui.workbench,3.7.1.v20120104-1859,"",1383695233256
activated,workbench,org.eclipse.ui.workbench,3.7.1.v20120104-1859,"",1383695242621
deactivated,workbench,org.eclipse.ui.workbench,3.7.1.v20120104-1859,"",1383695248626
activated,workbench,org.eclipse.ui.workbench,3.7.1.v20120104-1859,"",1383695248783
executed,command,org.eclipse.ui,3.7.0.v20110928-1505,"org.eclipse.ui.file.saveAll",1383695255540
activated,view,org.eclipse.jdt.ui,3.7.2.v20120109-1427,"org.eclipse.jdt.ui.PackageExplorer",1383695256629
deactivated,workbench,org.eclipse.ui.workbench,3.7.1.v20120104-1859,"",1383695258432
activated,workbench,org.eclipse.ui.workbench,3.7.1.v20120104-1859,"",1383695274038
activated,editor,org.eclipse.jdt.ui,3.7.2.v20120109-1427,"org.eclipse.jdt.ui.CompilationUnitEditor",1383695281243
deactivated,workbench,org.eclipse.ui.workbench,3.7.1.v20120104-1859,"",1383695287879
activated,workbench,org.eclipse.ui.workbench,3.7.1.v20120104-1859,"",1383695407130
deactivated,workbench,org.eclipse.ui.workbench,3.7.1.v20120104-1859,"",1383695415752
activated,workbench,org.eclipse.ui.workbench,3.7.1.v20120104-1859,"",1383695460005
activated,view,org.eclipse.jdt.ui,3.7.2.v20120109-1427,"org.eclipse.jdt.ui.PackageExplorer",1383695467228
deactivated,workbench,org.eclipse.ui.workbench,3.7.1.v20120104-1859,"",1383695468431
activated,workbench,org.eclipse.ui.workbench,3.7.1.v20120104-1859,"",1383695469278
deactivated,workbench,org.eclipse.ui.workbench,3.7.1.v20120104-1859,"",1383695469679
activated,workbench,org.eclipse.ui.workbench,3.7.1.v20120104-1859,"",1383695502627
activated,editor,org.eclipse.jdt.ui,3.7.2.v20120109-1427,"org.eclipse.jdt.ui.CompilationUnitEditor",1383695506155
deactivated,workbench,org.eclipse.ui.workbench,3.7.1.v20120104-1859,"",1383695518529
activated,workbench,org.eclipse.ui.workbench,3.7.1.v20120104-1859,"",1383695519455
activated,view,org.eclipse.jdt.ui,3.7.2.v20120109-1427,"org.eclipse.jdt.ui.PackageExplorer",1383695522357
deactivated,workbench,org.eclipse.ui.workbench,3.7.1.v20120104-1859,"",1383695523750
activated,workbench,org.eclipse.ui.workbench,3.7.1.v20120104-1859,"",1383695524641
deactivated,workbench,org.eclipse.ui.workbench,3.7.1.v20120104-1859,"",1383695525013
activated,workbench,org.eclipse.ui.workbench,3.7.1.v20120104-1859,"",1383695533107
activated,editor,org.eclipse.jdt.ui,3.7.2.v20120109-1427,"org.eclipse.jdt.ui.CompilationUnitEditor",1383695534584
activated,view,org.eclipse.jdt.ui,3.7.2.v20120109-1427,"org.eclipse.jdt.ui.PackageExplorer",1383695549383
deactivated,workbench,org.eclipse.ui.workbench,3.7.1.v20120104-1859,"",1383695550587
activated,workbench,org.eclipse.ui.workbench,3.7.1.v20120104-1859,"",1383695551948
deactivated,workbench,org.eclipse.ui.workbench,3.7.1.v20120104-1859,"",1383695552266
activated,workbench,org.eclipse.ui.workbench,3.7.1.v20120104-1859,"",1383695563026
activated,editor,org.eclipse.jdt.ui,3.7.2.v20120109-1427,"org.eclipse.jdt.ui.CompilationUnitEditor",1383695568012
deactivated,workbench,org.eclipse.ui.workbench,3.7.1.v20120104-1859,"",1383695588175
activated,workbench,org.eclipse.ui.workbench,3.7.1.v20120104-1859,"",1383695664792
deactivated,workbench,org.eclipse.ui.workbench,3.7.1.v20120104-1859,"",1383697095602
activated,workbench,org.eclipse.ui.workbench,3.7.1.v20120104-1859,"",1383697604407
deactivated,workbench,org.eclipse.ui.workbench,3.7.1.v20120104-1859,"",1383697613199
activated,workbench,org.eclipse.ui.workbench,3.7.1.v20120104-1859,"",1383697807966
activated,view,org.eclipse.jdt.ui,3.7.2.v20120109-1427,"org.eclipse.jdt.ui.PackageExplorer",1383697819315
deactivated,workbench,org.eclipse.ui.workbench,3.7.1.v20120104-1859,"",1383697820867
activated,workbench,org.eclipse.ui.workbench,3.7.1.v20120104-1859,"",1383697822484
deactivated,workbench,org.eclipse.ui.workbench,3.7.1.v20120104-1859,"",1383697822820
activated,workbench,org.eclipse.ui.workbench,3.7.1.v20120104-1859,"",1383697886903
deactivated,workbench,org.eclipse.ui.workbench,3.7.1.v20120104-1859,"",1383697887896
activated,workbench,org.eclipse.ui.workbench,3.7.1.v20120104-1859,"",1383698026617
opened,editor,org.eclipse.jdt.ui,3.7.2.v20120109-1427,"org.eclipse.jdt.ui.CompilationUnitEditor",1383698039795
activated,editor,org.eclipse.jdt.ui,3.7.2.v20120109-1427,"org.eclipse.jdt.ui.CompilationUnitEditor",1383698039822
activated,editor,org.eclipse.jdt.ui,3.7.2.v20120109-1427,"org.eclipse.jdt.ui.CompilationUnitEditor",1383698055890
closed,editor,org.eclipse.jdt.ui,3.7.2.v20120109-1427,"org.eclipse.jdt.ui.CompilationUnitEditor",1383698055890
activated,view,org.eclipse.jdt.ui,3.7.2.v20120109-1427,"org.eclipse.jdt.ui.PackageExplorer",1383698060395
opened,editor,org.eclipse.jdt.ui,3.7.2.v20120109-1427,"org.eclipse.jdt.ui.CompilationUnitEditor",1383698060691
activated,editor,org.eclipse.jdt.ui,3.7.2.v20120109-1427,"org.eclipse.jdt.ui.CompilationUnitEditor",1383698060715
activated,editor,org.eclipse.jdt.ui,3.7.2.v20120109-1427,"org.eclipse.jdt.ui.CompilationUnitEditor",1383698062348
closed,editor,org.eclipse.jdt.ui,3.7.2.v20120109-1427,"org.eclipse.jdt.ui.CompilationUnitEditor",1383698062348
activated,view,org.eclipse.jdt.ui,3.7.2.v20120109-1427,"org.eclipse.jdt.ui.PackageExplorer",1383698065665
opened,editor,org.eclipse.jdt.ui,3.7.2.v20120109-1427,"org.eclipse.jdt.ui.CompilationUnitEditor",1383698065815
activated,editor,org.eclipse.jdt.ui,3.7.2.v20120109-1427,"org.eclipse.jdt.ui.CompilationUnitEditor",1383698065839
activated,editor,org.eclipse.jdt.ui,3.7.2.v20120109-1427,"org.eclipse.jdt.ui.CompilationUnitEditor",1383698069296
closed,editor,org.eclipse.jdt.ui,3.7.2.v20120109-1427,"org.eclipse.jdt.ui.CompilationUnitEditor",1383698069296
activated,editor,org.eclipse.jdt.ui,3.7.2.v20120109-1427,"org.eclipse.jdt.ui.CompilationUnitEditor",1383698074314
activated,view,org.eclipse.jdt.ui,3.7.2.v20120109-1427,"org.eclipse.jdt.ui.PackageExplorer",1383698109061
opened,editor,org.eclipse.jdt.ui,3.7.2.v20120109-1427,"org.eclipse.jdt.ui.CompilationUnitEditor",1383698109348
activated,editor,org.eclipse.jdt.ui,3.7.2.v20120109-1427,"org.eclipse.jdt.ui.CompilationUnitEditor",1383698109384
deactivated,workbench,org.eclipse.ui.workbench,3.7.1.v20120104-1859,"",1383698186560
activated,workbench,org.eclipse.ui.workbench,3.7.1.v20120104-1859,"",1383698186691
deactivated,workbench,org.eclipse.ui.workbench,3.7.1.v20120104-1859,"",1383698249508
activated,workbench,org.eclipse.ui.workbench,3.7.1.v20120104-1859,"",1383698254792
activated,view,org.eclipse.jdt.ui,3.7.2.v20120109-1427,"org.eclipse.jdt.ui.PackageExplorer",1383698289029
opened,editor,org.eclipse.jdt.ui,3.7.2.v20120109-1427,"org.eclipse.jdt.ui.CompilationUnitEditor",1383698289184
activated,editor,org.eclipse.jdt.ui,3.7.2.v20120109-1427,"org.eclipse.jdt.ui.CompilationUnitEditor",1383698289207
executed,command,org.eclipse.ui,3.7.0.v20110928-1505,"org.eclipse.ui.edit.text.contentAssist.proposals",1383698296783
executed,command,org.eclipse.ui,3.7.0.v20110928-1505,"org.eclipse.ui.edit.text.contentAssist.proposals",1383698300736
deactivated,workbench,org.eclipse.ui.workbench,3.7.1.v20120104-1859,"",1383698305415
activated,workbench,org.eclipse.ui.workbench,3.7.1.v20120104-1859,"",1383698307675
executed,command,org.eclipse.ui,3.7.0.v20110928-1505,"org.eclipse.ui.edit.text.contentAssist.proposals",1383698309999
deactivated,workbench,org.eclipse.ui.workbench,3.7.1.v20120104-1859,"",1383698311196
activated,workbench,org.eclipse.ui.workbench,3.7.1.v20120104-1859,"",1383698311329
deactivated,workbench,org.eclipse.ui.workbench,3.7.1.v20120104-1859,"",1383698313027
activated,workbench,org.eclipse.ui.workbench,3.7.1.v20120104-1859,"",1383698314031
activated,editor,org.eclipse.jdt.ui,3.7.2.v20120109-1427,"org.eclipse.jdt.ui.CompilationUnitEditor",1383698314060
closed,editor,org.eclipse.jdt.ui,3.7.2.v20120109-1427,"org.eclipse.jdt.ui.CompilationUnitEditor",1383698314061
deactivated,workbench,org.eclipse.ui.workbench,3.7.1.v20120104-1859,"",1383698331846
activated,workbench,org.eclipse.ui.workbench,3.7.1.v20120104-1859,"",1383698331923
executed,command,org.eclipse.ui,3.7.0.v20110928-1505,"org.eclipse.ui.file.saveAll",1383698338626
deactivated,workbench,org.eclipse.ui.workbench,3.7.1.v20120104-1859,"",1383698372822
activated,workbench,org.eclipse.ui.workbench,3.7.1.v20120104-1859,"",1383698374457
executed,command,org.eclipse.ui,3.7.0.v20110928-1505,"org.eclipse.ui.edit.undo",1383698425596
executed,command,org.eclipse.ui,3.7.0.v20110928-1505,"org.eclipse.ui.edit.undo",1383698426268
deactivated,workbench,org.eclipse.ui.workbench,3.7.1.v20120104-1859,"",1383698443107
