what,kind,bundleId,bundleVersion,description,time
activated,view,org.eclipse.jdt.ui,3.7.2.v20120109-1427,"org.eclipse.jdt.ui.PackageExplorer",1380513347057
activated,editor,org.eclipse.jdt.ui,3.7.2.v20120109-1427,"org.eclipse.jdt.ui.CompilationUnitEditor",1380513350205
activated,editor,org.eclipse.jdt.ui,3.7.2.v20120109-1427,"org.eclipse.jdt.ui.CompilationUnitEditor",1380513365925
activated,editor,org.eclipse.jdt.ui,3.7.2.v20120109-1427,"org.eclipse.jdt.ui.CompilationUnitEditor",1380513370963
opened,editor,org.eclipse.jdt.ui,3.7.2.v20120109-1427,"org.eclipse.jdt.ui.CompilationUnitEditor",1380513387262
activated,editor,org.eclipse.jdt.ui,3.7.2.v20120109-1427,"org.eclipse.jdt.ui.CompilationUnitEditor",1380513387276
started,bundle,org.eclipse.cdt.debug.core,7.1.0.201202111925,"org.eclipse.cdt.debug.core",1380513387593
started,bundle,org.eclipse.cdt.debug.ui,7.1.2.201202111925,"org.eclipse.cdt.debug.ui",1380513387599
started,bundle,org.eclipse.tm.tcf,0.4.0.201106081058,"org.eclipse.tm.tcf",1380513388049
started,bundle,org.eclipse.tm.tcf.core,0.4.0.201106081058,"org.eclipse.tm.tcf.core",1380513388049
started,bundle,org.eclipse.tm.tcf.debug.ui,0.4.0.201106081058,"org.eclipse.tm.tcf.debug.ui",1380513388049
started,bundle,org.eclipse.tm.tcf.cdt.ui,0.4.0.201106081058,"org.eclipse.tm.tcf.cdt.ui",1380513388061
deactivated,workbench,org.eclipse.ui.workbench,3.7.1.v20120104-1859,"",1380513388281
started,bundle,org.eclipse.tm.tcf.debug,0.4.0.201106081058,"org.eclipse.tm.tcf.debug",1380513388379
activated,workbench,org.eclipse.ui.workbench,3.7.1.v20120104-1859,"",1380513389146
started,bundle,org.eclipse.core.variables,3.2.500.v20110928-1503,"org.eclipse.core.variables",1380513389363
started,bundle,org.eclipse.m2e.launching,1.0.200.20111228-1245,"org.eclipse.m2e.launching",1380513389560
started,bundle,org.eclipse.cdt.debug.mi.ui,6.1.1.201202111925,"org.eclipse.cdt.debug.mi.ui",1380513389675
started,bundle,org.eclipse.cdt.debug.mi.core,7.1.1.201202111925,"org.eclipse.cdt.debug.mi.core",1380513389774
deactivated,workbench,org.eclipse.ui.workbench,3.7.1.v20120104-1859,"",1380513390820
activated,workbench,org.eclipse.ui.workbench,3.7.1.v20120104-1859,"",1380513391261
activated,view,org.eclipse.ui.console,3.5.100.v20111007_r372,"org.eclipse.ui.console.ConsoleView",1380513392506
deactivated,workbench,org.eclipse.ui.workbench,3.7.1.v20120104-1859,"",1380513398781
activated,workbench,org.eclipse.ui.workbench,3.7.1.v20120104-1859,"",1380513403824
activated,editor,org.eclipse.jdt.ui,3.7.2.v20120109-1427,"org.eclipse.jdt.ui.CompilationUnitEditor",1380513410332
activated,editor,org.eclipse.jdt.ui,3.7.2.v20120109-1427,"org.eclipse.jdt.ui.CompilationUnitEditor",1380513417031
deactivated,workbench,org.eclipse.ui.workbench,3.7.1.v20120104-1859,"",1380513417711
activated,workbench,org.eclipse.ui.workbench,3.7.1.v20120104-1859,"",1380513418501
deactivated,workbench,org.eclipse.ui.workbench,3.7.1.v20120104-1859,"",1380513418869
activated,workbench,org.eclipse.ui.workbench,3.7.1.v20120104-1859,"",1380513472255
deactivated,workbench,org.eclipse.ui.workbench,3.7.1.v20120104-1859,"",1380513479783
activated,workbench,org.eclipse.ui.workbench,3.7.1.v20120104-1859,"",1380514268314
activated,editor,org.eclipse.jdt.ui,3.7.2.v20120109-1427,"org.eclipse.jdt.ui.CompilationUnitEditor",1380514271298
activated,editor,org.eclipse.jdt.ui,3.7.2.v20120109-1427,"org.eclipse.jdt.ui.CompilationUnitEditor",1380514272882
deactivated,workbench,org.eclipse.ui.workbench,3.7.1.v20120104-1859,"",1380514275786
activated,workbench,org.eclipse.ui.workbench,3.7.1.v20120104-1859,"",1380514319181
executed,command,org.eclipse.jdt.ui,3.7.2.v20120109-1427,"org.eclipse.jdt.ui.edit.text.java.organize.imports",1380514329223
deactivated,workbench,org.eclipse.ui.workbench,3.7.1.v20120104-1859,"",1380514338795
activated,workbench,org.eclipse.ui.workbench,3.7.1.v20120104-1859,"",1380514353961
deactivated,workbench,org.eclipse.ui.workbench,3.7.1.v20120104-1859,"",1380514357212
activated,workbench,org.eclipse.ui.workbench,3.7.1.v20120104-1859,"",1380514391794
deactivated,workbench,org.eclipse.ui.workbench,3.7.1.v20120104-1859,"",1380514396261
activated,workbench,org.eclipse.ui.workbench,3.7.1.v20120104-1859,"",1380514410434
activated,editor,org.eclipse.jdt.ui,3.7.2.v20120109-1427,"org.eclipse.jdt.ui.CompilationUnitEditor",1380514432114
deactivated,workbench,org.eclipse.ui.workbench,3.7.1.v20120104-1859,"",1380514432801
activated,workbench,org.eclipse.ui.workbench,3.7.1.v20120104-1859,"",1380514433598
deactivated,workbench,org.eclipse.ui.workbench,3.7.1.v20120104-1859,"",1380514433993
activated,workbench,org.eclipse.ui.workbench,3.7.1.v20120104-1859,"",1380514598281
activated,editor,org.eclipse.jdt.ui,3.7.2.v20120109-1427,"org.eclipse.jdt.ui.CompilationUnitEditor",1380514598354
deactivated,workbench,org.eclipse.ui.workbench,3.7.1.v20120104-1859,"",1380514602316
activated,workbench,org.eclipse.ui.workbench,3.7.1.v20120104-1859,"",1380514624529
activated,editor,org.eclipse.jdt.ui,3.7.2.v20120109-1427,"org.eclipse.jdt.ui.CompilationUnitEditor",1380514633583
deactivated,workbench,org.eclipse.ui.workbench,3.7.1.v20120104-1859,"",1380514634148
activated,workbench,org.eclipse.ui.workbench,3.7.1.v20120104-1859,"",1380514634955
deactivated,workbench,org.eclipse.ui.workbench,3.7.1.v20120104-1859,"",1380514635313
activated,workbench,org.eclipse.ui.workbench,3.7.1.v20120104-1859,"",1380514641289
opened,editor,org.eclipse.jdt.ui,3.7.2.v20120109-1427,"org.eclipse.jdt.ui.CompilationUnitEditor",1380514642770
activated,editor,org.eclipse.jdt.ui,3.7.2.v20120109-1427,"org.eclipse.jdt.ui.CompilationUnitEditor",1380514642790
activated,editor,org.eclipse.jdt.ui,3.7.2.v20120109-1427,"org.eclipse.jdt.ui.CompilationUnitEditor",1380514643781
deactivated,workbench,org.eclipse.ui.workbench,3.7.1.v20120104-1859,"",1380514651941
activated,workbench,org.eclipse.ui.workbench,3.7.1.v20120104-1859,"",1380514652646
deactivated,workbench,org.eclipse.ui.workbench,3.7.1.v20120104-1859,"",1380514652936
activated,workbench,org.eclipse.ui.workbench,3.7.1.v20120104-1859,"",1380514674215
activated,editor,org.eclipse.jdt.ui,3.7.2.v20120109-1427,"org.eclipse.jdt.ui.CompilationUnitEditor",1380514681678
deactivated,workbench,org.eclipse.ui.workbench,3.7.1.v20120104-1859,"",1380514682456
activated,workbench,org.eclipse.ui.workbench,3.7.1.v20120104-1859,"",1380514683313
deactivated,workbench,org.eclipse.ui.workbench,3.7.1.v20120104-1859,"",1380514683651
activated,workbench,org.eclipse.ui.workbench,3.7.1.v20120104-1859,"",1380514712524
activated,editor,org.eclipse.jdt.ui,3.7.2.v20120109-1427,"org.eclipse.jdt.ui.CompilationUnitEditor",1380514714318
activated,editor,org.eclipse.jdt.ui,3.7.2.v20120109-1427,"org.eclipse.jdt.ui.CompilationUnitEditor",1380514715813
started,bundle,org.eclipse.cdt.launch,7.0.0.201202111925,"org.eclipse.cdt.launch",1380514734878
activated,editor,org.eclipse.jdt.ui,3.7.2.v20120109-1427,"org.eclipse.jdt.ui.CompilationUnitEditor",1380514735798
deactivated,workbench,org.eclipse.ui.workbench,3.7.1.v20120104-1859,"",1380514737594
activated,workbench,org.eclipse.ui.workbench,3.7.1.v20120104-1859,"",1380514738606
deactivated,workbench,org.eclipse.ui.workbench,3.7.1.v20120104-1859,"",1380514738976
activated,workbench,org.eclipse.ui.workbench,3.7.1.v20120104-1859,"",1380514752221
activated,editor,org.eclipse.jdt.ui,3.7.2.v20120109-1427,"org.eclipse.jdt.ui.CompilationUnitEditor",1380514758666
activated,editor,org.eclipse.jdt.ui,3.7.2.v20120109-1427,"org.eclipse.jdt.ui.CompilationUnitEditor",1380514766829
activated,view,org.eclipse.jdt.ui,3.7.2.v20120109-1427,"org.eclipse.jdt.ui.PackageExplorer",1380514771757
opened,editor,org.eclipse.jdt.ui,3.7.2.v20120109-1427,"org.eclipse.jdt.ui.CompilationUnitEditor",1380514779610
activated,editor,org.eclipse.jdt.ui,3.7.2.v20120109-1427,"org.eclipse.jdt.ui.CompilationUnitEditor",1380514779637
deactivated,workbench,org.eclipse.ui.workbench,3.7.1.v20120104-1859,"",1380514823009
activated,workbench,org.eclipse.ui.workbench,3.7.1.v20120104-1859,"",1380514872296
activated,editor,org.eclipse.jdt.ui,3.7.2.v20120109-1427,"org.eclipse.jdt.ui.CompilationUnitEditor",1380514920399
closed,editor,org.eclipse.jdt.ui,3.7.2.v20120109-1427,"org.eclipse.jdt.ui.CompilationUnitEditor",1380514920399
executed,command,org.eclipse.jdt.ui,3.7.2.v20120109-1427,"org.eclipse.jdt.ui.edit.text.java.organize.imports",1380514942956
activated,view,org.eclipse.jdt.ui,3.7.2.v20120109-1427,"org.eclipse.jdt.ui.PackageExplorer",1380514949420
opened,editor,org.eclipse.jdt.ui,3.7.2.v20120109-1427,"org.eclipse.jdt.ui.CompilationUnitEditor",1380514949558
activated,editor,org.eclipse.jdt.ui,3.7.2.v20120109-1427,"org.eclipse.jdt.ui.CompilationUnitEditor",1380514949587
activated,view,org.eclipse.jdt.ui,3.7.2.v20120109-1427,"org.eclipse.jdt.ui.PackageExplorer",1380514950283
activated,editor,org.eclipse.jdt.ui,3.7.2.v20120109-1427,"org.eclipse.jdt.ui.CompilationUnitEditor",1380514951051
activated,editor,org.eclipse.jdt.ui,3.7.2.v20120109-1427,"org.eclipse.jdt.ui.CompilationUnitEditor",1380514952294
closed,editor,org.eclipse.jdt.ui,3.7.2.v20120109-1427,"org.eclipse.jdt.ui.CompilationUnitEditor",1380514952294
activated,editor,org.eclipse.jdt.ui,3.7.2.v20120109-1427,"org.eclipse.jdt.ui.CompilationUnitEditor",1380514960586
activated,editor,org.eclipse.jdt.ui,3.7.2.v20120109-1427,"org.eclipse.jdt.ui.CompilationUnitEditor",1380514967252
deactivated,workbench,org.eclipse.ui.workbench,3.7.1.v20120104-1859,"",1380514969437
activated,workbench,org.eclipse.ui.workbench,3.7.1.v20120104-1859,"",1380514992407
activated,editor,org.eclipse.jdt.ui,3.7.2.v20120109-1427,"org.eclipse.jdt.ui.CompilationUnitEditor",1380515051041
executed,command,org.eclipse.jdt.ui,3.7.2.v20120109-1427,"org.eclipse.jdt.ui.edit.text.java.organize.imports",1380515065595
activated,editor,org.eclipse.jdt.ui,3.7.2.v20120109-1427,"org.eclipse.jdt.ui.CompilationUnitEditor",1380515086896
activated,editor,org.eclipse.jdt.ui,3.7.2.v20120109-1427,"org.eclipse.jdt.ui.CompilationUnitEditor",1380515093415
activated,editor,org.eclipse.jdt.ui,3.7.2.v20120109-1427,"org.eclipse.jdt.ui.CompilationUnitEditor",1380515094757
activated,editor,org.eclipse.jdt.ui,3.7.2.v20120109-1427,"org.eclipse.jdt.ui.CompilationUnitEditor",1380515102092
activated,editor,org.eclipse.jdt.ui,3.7.2.v20120109-1427,"org.eclipse.jdt.ui.CompilationUnitEditor",1380515104920
deactivated,workbench,org.eclipse.ui.workbench,3.7.1.v20120104-1859,"",1380515105596
activated,workbench,org.eclipse.ui.workbench,3.7.1.v20120104-1859,"",1380515106541
deactivated,workbench,org.eclipse.ui.workbench,3.7.1.v20120104-1859,"",1380515106904
activated,workbench,org.eclipse.ui.workbench,3.7.1.v20120104-1859,"",1380515115678
activated,editor,org.eclipse.jdt.ui,3.7.2.v20120109-1427,"org.eclipse.jdt.ui.CompilationUnitEditor",1380515119979
executed,command,org.eclipse.jdt.ui,3.7.2.v20120109-1427,"org.eclipse.jdt.ui.edit.text.java.organize.imports",1380515135459
activated,editor,org.eclipse.jdt.ui,3.7.2.v20120109-1427,"org.eclipse.jdt.ui.CompilationUnitEditor",1380515143032
activated,editor,org.eclipse.jdt.ui,3.7.2.v20120109-1427,"org.eclipse.jdt.ui.CompilationUnitEditor",1380515154841
deactivated,workbench,org.eclipse.ui.workbench,3.7.1.v20120104-1859,"",1380515166969
activated,workbench,org.eclipse.ui.workbench,3.7.1.v20120104-1859,"",1380515184949
activated,editor,org.eclipse.jdt.ui,3.7.2.v20120109-1427,"org.eclipse.jdt.ui.CompilationUnitEditor",1380515187126
activated,editor,org.eclipse.jdt.ui,3.7.2.v20120109-1427,"org.eclipse.jdt.ui.CompilationUnitEditor",1380515194073
activated,editor,org.eclipse.jdt.ui,3.7.2.v20120109-1427,"org.eclipse.jdt.ui.CompilationUnitEditor",1380515194656
activated,editor,org.eclipse.jdt.ui,3.7.2.v20120109-1427,"org.eclipse.jdt.ui.CompilationUnitEditor",1380515207693
activated,editor,org.eclipse.jdt.ui,3.7.2.v20120109-1427,"org.eclipse.jdt.ui.CompilationUnitEditor",1380515227672
activated,editor,org.eclipse.jdt.ui,3.7.2.v20120109-1427,"org.eclipse.jdt.ui.CompilationUnitEditor",1380515248367
deactivated,workbench,org.eclipse.ui.workbench,3.7.1.v20120104-1859,"",1380515253237
activated,workbench,org.eclipse.ui.workbench,3.7.1.v20120104-1859,"",1380515295367
activated,editor,org.eclipse.jdt.ui,3.7.2.v20120109-1427,"org.eclipse.jdt.ui.CompilationUnitEditor",1380515296753
deactivated,workbench,org.eclipse.ui.workbench,3.7.1.v20120104-1859,"",1380515309288
activated,workbench,org.eclipse.ui.workbench,3.7.1.v20120104-1859,"",1380515344014
deactivated,workbench,org.eclipse.ui.workbench,3.7.1.v20120104-1859,"",1380515344887
activated,workbench,org.eclipse.ui.workbench,3.7.1.v20120104-1859,"",1380515345553
activated,editor,org.eclipse.jdt.ui,3.7.2.v20120109-1427,"org.eclipse.jdt.ui.CompilationUnitEditor",1380515347776
deactivated,workbench,org.eclipse.ui.workbench,3.7.1.v20120104-1859,"",1380515360364
activated,workbench,org.eclipse.ui.workbench,3.7.1.v20120104-1859,"",1380515363046
executed,command,org.eclipse.jdt.ui,3.7.2.v20120109-1427,"org.eclipse.jdt.ui.edit.text.java.organize.imports",1380515363072
deactivated,workbench,org.eclipse.ui.workbench,3.7.1.v20120104-1859,"",1380515389408
activated,workbench,org.eclipse.ui.workbench,3.7.1.v20120104-1859,"",1380515389542
deactivated,workbench,org.eclipse.ui.workbench,3.7.1.v20120104-1859,"",1380515416720
activated,workbench,org.eclipse.ui.workbench,3.7.1.v20120104-1859,"",1380515460926
activated,editor,org.eclipse.jdt.ui,3.7.2.v20120109-1427,"org.eclipse.jdt.ui.CompilationUnitEditor",1380515478093
activated,editor,org.eclipse.jdt.ui,3.7.2.v20120109-1427,"org.eclipse.jdt.ui.CompilationUnitEditor",1380515482762
executed,command,org.eclipse.jdt.ui,3.7.2.v20120109-1427,"org.eclipse.jdt.ui.edit.text.java.organize.imports",1380515490504
executed,command,org.eclipse.jdt.ui,3.7.2.v20120109-1427,"org.eclipse.jdt.ui.edit.text.java.organize.imports",1380515508763
executed,command,org.eclipse.jdt.ui,3.7.2.v20120109-1427,"org.eclipse.jdt.ui.edit.text.java.organize.imports",1380515509850
started,bundle,org.eclipse.compare,3.5.202.R37x_v20111109-0800,"org.eclipse.compare",1380515511394
deactivated,workbench,org.eclipse.ui.workbench,3.7.1.v20120104-1859,"",1380515515192
activated,workbench,org.eclipse.ui.workbench,3.7.1.v20120104-1859,"",1380515515276
executed,command,org.eclipse.jdt.ui,3.7.2.v20120109-1427,"org.eclipse.jdt.ui.edit.text.java.organize.imports",1380515522990
activated,editor,org.eclipse.jdt.ui,3.7.2.v20120109-1427,"org.eclipse.jdt.ui.CompilationUnitEditor",1380515551958
activated,editor,org.eclipse.jdt.ui,3.7.2.v20120109-1427,"org.eclipse.jdt.ui.CompilationUnitEditor",1380515552510
closed,editor,org.eclipse.jdt.ui,3.7.2.v20120109-1427,"org.eclipse.jdt.ui.CompilationUnitEditor",1380515552510
activated,editor,org.eclipse.jdt.ui,3.7.2.v20120109-1427,"org.eclipse.jdt.ui.CompilationUnitEditor",1380515553189
started,bundle,org.eclipse.mylyn.java.tasks,3.8.3.v20130107-0100,"org.eclipse.mylyn.java.tasks",1380515581347
executed,command,org.eclipse.ui,3.7.0.v20110928-1505,"org.eclipse.ui.edit.copy",1380515581624
activated,editor,org.eclipse.jdt.ui,3.7.2.v20120109-1427,"org.eclipse.jdt.ui.CompilationUnitEditor",1380515589169
executed,command,org.eclipse.ui,3.7.0.v20110928-1505,"org.eclipse.ui.edit.paste",1380515592700
deactivated,workbench,org.eclipse.ui.workbench,3.7.1.v20120104-1859,"",1380515600760
activated,workbench,org.eclipse.ui.workbench,3.7.1.v20120104-1859,"",1380515602167
activated,editor,org.eclipse.jdt.ui,3.7.2.v20120109-1427,"org.eclipse.jdt.ui.CompilationUnitEditor",1380515602954
activated,editor,org.eclipse.jdt.ui,3.7.2.v20120109-1427,"org.eclipse.jdt.ui.CompilationUnitEditor",1380515607162
activated,editor,org.eclipse.jdt.ui,3.7.2.v20120109-1427,"org.eclipse.jdt.ui.CompilationUnitEditor",1380515639491
activated,editor,org.eclipse.jdt.ui,3.7.2.v20120109-1427,"org.eclipse.jdt.ui.CompilationUnitEditor",1380515645794
activated,editor,org.eclipse.jdt.ui,3.7.2.v20120109-1427,"org.eclipse.jdt.ui.CompilationUnitEditor",1380515648627
activated,editor,org.eclipse.jdt.ui,3.7.2.v20120109-1427,"org.eclipse.jdt.ui.CompilationUnitEditor",1380515650872
deactivated,workbench,org.eclipse.ui.workbench,3.7.1.v20120104-1859,"",1380515658247
activated,workbench,org.eclipse.ui.workbench,3.7.1.v20120104-1859,"",1380515906399
activated,editor,org.eclipse.jdt.ui,3.7.2.v20120109-1427,"org.eclipse.jdt.ui.CompilationUnitEditor",1380515908157
activated,editor,org.eclipse.jdt.ui,3.7.2.v20120109-1427,"org.eclipse.jdt.ui.CompilationUnitEditor",1380515913586
activated,editor,org.eclipse.jdt.ui,3.7.2.v20120109-1427,"org.eclipse.jdt.ui.CompilationUnitEditor",1380515924397
activated,editor,org.eclipse.jdt.ui,3.7.2.v20120109-1427,"org.eclipse.jdt.ui.CompilationUnitEditor",1380515953531
activated,editor,org.eclipse.jdt.ui,3.7.2.v20120109-1427,"org.eclipse.jdt.ui.CompilationUnitEditor",1380515955809
activated,editor,org.eclipse.jdt.ui,3.7.2.v20120109-1427,"org.eclipse.jdt.ui.CompilationUnitEditor",1380515960587
activated,editor,org.eclipse.jdt.ui,3.7.2.v20120109-1427,"org.eclipse.jdt.ui.CompilationUnitEditor",1380515987301
activated,editor,org.eclipse.jdt.ui,3.7.2.v20120109-1427,"org.eclipse.jdt.ui.CompilationUnitEditor",1380515989172
activated,editor,org.eclipse.jdt.ui,3.7.2.v20120109-1427,"org.eclipse.jdt.ui.CompilationUnitEditor",1380516000515
activated,editor,org.eclipse.jdt.ui,3.7.2.v20120109-1427,"org.eclipse.jdt.ui.CompilationUnitEditor",1380516002616
deactivated,workbench,org.eclipse.ui.workbench,3.7.1.v20120104-1859,"",1380516007430
activated,workbench,org.eclipse.ui.workbench,3.7.1.v20120104-1859,"",1380516202571
activated,editor,org.eclipse.jdt.ui,3.7.2.v20120109-1427,"org.eclipse.jdt.ui.CompilationUnitEditor",1380516231679
activated,editor,org.eclipse.jdt.ui,3.7.2.v20120109-1427,"org.eclipse.jdt.ui.CompilationUnitEditor",1380516234817
activated,editor,org.eclipse.jdt.ui,3.7.2.v20120109-1427,"org.eclipse.jdt.ui.CompilationUnitEditor",1380516246243
activated,editor,org.eclipse.jdt.ui,3.7.2.v20120109-1427,"org.eclipse.jdt.ui.CompilationUnitEditor",1380516247494
activated,editor,org.eclipse.jdt.ui,3.7.2.v20120109-1427,"org.eclipse.jdt.ui.CompilationUnitEditor",1380516268556
deactivated,workbench,org.eclipse.ui.workbench,3.7.1.v20120104-1859,"",1380516269205
activated,workbench,org.eclipse.ui.workbench,3.7.1.v20120104-1859,"",1380516269965
deactivated,workbench,org.eclipse.ui.workbench,3.7.1.v20120104-1859,"",1380516270333
activated,workbench,org.eclipse.ui.workbench,3.7.1.v20120104-1859,"",1380516276393
activated,editor,org.eclipse.jdt.ui,3.7.2.v20120109-1427,"org.eclipse.jdt.ui.CompilationUnitEditor",1380516278305
activated,editor,org.eclipse.jdt.ui,3.7.2.v20120109-1427,"org.eclipse.jdt.ui.CompilationUnitEditor",1380516285120
deactivated,workbench,org.eclipse.ui.workbench,3.7.1.v20120104-1859,"",1380516285673
activated,workbench,org.eclipse.ui.workbench,3.7.1.v20120104-1859,"",1380516286631
deactivated,workbench,org.eclipse.ui.workbench,3.7.1.v20120104-1859,"",1380516286965
activated,workbench,org.eclipse.ui.workbench,3.7.1.v20120104-1859,"",1380516289374
activated,editor,org.eclipse.jdt.ui,3.7.2.v20120109-1427,"org.eclipse.jdt.ui.CompilationUnitEditor",1380516291070
activated,editor,org.eclipse.jdt.ui,3.7.2.v20120109-1427,"org.eclipse.jdt.ui.CompilationUnitEditor",1380516297924
deactivated,workbench,org.eclipse.ui.workbench,3.7.1.v20120104-1859,"",1380516298599
activated,workbench,org.eclipse.ui.workbench,3.7.1.v20120104-1859,"",1380516299528
deactivated,workbench,org.eclipse.ui.workbench,3.7.1.v20120104-1859,"",1380516299867
activated,workbench,org.eclipse.ui.workbench,3.7.1.v20120104-1859,"",1380516301906
activated,editor,org.eclipse.jdt.ui,3.7.2.v20120109-1427,"org.eclipse.jdt.ui.CompilationUnitEditor",1380516302854
deactivated,workbench,org.eclipse.ui.workbench,3.7.1.v20120104-1859,"",1380516314919
activated,workbench,org.eclipse.ui.workbench,3.7.1.v20120104-1859,"",1380516316563
activated,editor,org.eclipse.jdt.ui,3.7.2.v20120109-1427,"org.eclipse.jdt.ui.CompilationUnitEditor",1380516317230
deactivated,workbench,org.eclipse.ui.workbench,3.7.1.v20120104-1859,"",1380516317718
activated,workbench,org.eclipse.ui.workbench,3.7.1.v20120104-1859,"",1380516318751
deactivated,workbench,org.eclipse.ui.workbench,3.7.1.v20120104-1859,"",1380516319107
activated,workbench,org.eclipse.ui.workbench,3.7.1.v20120104-1859,"",1380516322295
activated,editor,org.eclipse.jdt.ui,3.7.2.v20120109-1427,"org.eclipse.jdt.ui.CompilationUnitEditor",1380516323756
activated,editor,org.eclipse.jdt.ui,3.7.2.v20120109-1427,"org.eclipse.jdt.ui.CompilationUnitEditor",1380516329342
deactivated,workbench,org.eclipse.ui.workbench,3.7.1.v20120104-1859,"",1380516329943
activated,workbench,org.eclipse.ui.workbench,3.7.1.v20120104-1859,"",1380516330947
deactivated,workbench,org.eclipse.ui.workbench,3.7.1.v20120104-1859,"",1380516331300
activated,workbench,org.eclipse.ui.workbench,3.7.1.v20120104-1859,"",1380516338348
activated,editor,org.eclipse.jdt.ui,3.7.2.v20120109-1427,"org.eclipse.jdt.ui.CompilationUnitEditor",1380516340016
activated,editor,org.eclipse.jdt.ui,3.7.2.v20120109-1427,"org.eclipse.jdt.ui.CompilationUnitEditor",1380516340545
activated,editor,org.eclipse.jdt.ui,3.7.2.v20120109-1427,"org.eclipse.jdt.ui.CompilationUnitEditor",1380516341265
activated,editor,org.eclipse.jdt.ui,3.7.2.v20120109-1427,"org.eclipse.jdt.ui.CompilationUnitEditor",1380516343130
activated,editor,org.eclipse.jdt.ui,3.7.2.v20120109-1427,"org.eclipse.jdt.ui.CompilationUnitEditor",1380516355143
activated,editor,org.eclipse.jdt.ui,3.7.2.v20120109-1427,"org.eclipse.jdt.ui.CompilationUnitEditor",1380516360795
deactivated,workbench,org.eclipse.ui.workbench,3.7.1.v20120104-1859,"",1380516361474
activated,workbench,org.eclipse.ui.workbench,3.7.1.v20120104-1859,"",1380516362528
deactivated,workbench,org.eclipse.ui.workbench,3.7.1.v20120104-1859,"",1380516362862
activated,workbench,org.eclipse.ui.workbench,3.7.1.v20120104-1859,"",1380516365417
activated,editor,org.eclipse.jdt.ui,3.7.2.v20120109-1427,"org.eclipse.jdt.ui.CompilationUnitEditor",1380516366974
activated,editor,org.eclipse.jdt.ui,3.7.2.v20120109-1427,"org.eclipse.jdt.ui.CompilationUnitEditor",1380516372580
deactivated,workbench,org.eclipse.ui.workbench,3.7.1.v20120104-1859,"",1380516373083
activated,workbench,org.eclipse.ui.workbench,3.7.1.v20120104-1859,"",1380516374120
deactivated,workbench,org.eclipse.ui.workbench,3.7.1.v20120104-1859,"",1380516374450
activated,workbench,org.eclipse.ui.workbench,3.7.1.v20120104-1859,"",1380516379735
activated,editor,org.eclipse.jdt.ui,3.7.2.v20120109-1427,"org.eclipse.jdt.ui.CompilationUnitEditor",1380516381406
activated,editor,org.eclipse.jdt.ui,3.7.2.v20120109-1427,"org.eclipse.jdt.ui.CompilationUnitEditor",1380516385415
deactivated,workbench,org.eclipse.ui.workbench,3.7.1.v20120104-1859,"",1380516386623
activated,workbench,org.eclipse.ui.workbench,3.7.1.v20120104-1859,"",1380516387512
deactivated,workbench,org.eclipse.ui.workbench,3.7.1.v20120104-1859,"",1380516387854
activated,workbench,org.eclipse.ui.workbench,3.7.1.v20120104-1859,"",1380516419037
activated,editor,org.eclipse.jdt.ui,3.7.2.v20120109-1427,"org.eclipse.jdt.ui.CompilationUnitEditor",1380516420591
executed,command,org.eclipse.ui,3.7.0.v20110928-1505,"org.eclipse.ui.edit.copy",1380516425427
executed,command,org.eclipse.ui,3.7.0.v20110928-1505,"org.eclipse.ui.edit.paste",1380516427751
executed,command,org.eclipse.ui,3.7.0.v20110928-1505,"org.eclipse.ui.edit.paste",1380516429558
executed,command,org.eclipse.ui,3.7.0.v20110928-1505,"org.eclipse.ui.edit.paste",1380516431110
activated,editor,org.eclipse.jdt.ui,3.7.2.v20120109-1427,"org.eclipse.jdt.ui.CompilationUnitEditor",1380516441497
deactivated,workbench,org.eclipse.ui.workbench,3.7.1.v20120104-1859,"",1380516442496
activated,workbench,org.eclipse.ui.workbench,3.7.1.v20120104-1859,"",1380516443325
deactivated,workbench,org.eclipse.ui.workbench,3.7.1.v20120104-1859,"",1380516443685
activated,workbench,org.eclipse.ui.workbench,3.7.1.v20120104-1859,"",1380516447072
activated,editor,org.eclipse.jdt.ui,3.7.2.v20120109-1427,"org.eclipse.jdt.ui.CompilationUnitEditor",1380516448290
activated,editor,org.eclipse.jdt.ui,3.7.2.v20120109-1427,"org.eclipse.jdt.ui.CompilationUnitEditor",1380516462305
deactivated,workbench,org.eclipse.ui.workbench,3.7.1.v20120104-1859,"",1380516463099
activated,workbench,org.eclipse.ui.workbench,3.7.1.v20120104-1859,"",1380516463779
deactivated,workbench,org.eclipse.ui.workbench,3.7.1.v20120104-1859,"",1380516464118
activated,workbench,org.eclipse.ui.workbench,3.7.1.v20120104-1859,"",1380516466320
activated,editor,org.eclipse.jdt.ui,3.7.2.v20120109-1427,"org.eclipse.jdt.ui.CompilationUnitEditor",1380516467339
activated,editor,org.eclipse.jdt.ui,3.7.2.v20120109-1427,"org.eclipse.jdt.ui.CompilationUnitEditor",1380516472362
deactivated,workbench,org.eclipse.ui.workbench,3.7.1.v20120104-1859,"",1380516472997
activated,workbench,org.eclipse.ui.workbench,3.7.1.v20120104-1859,"",1380516474105
deactivated,workbench,org.eclipse.ui.workbench,3.7.1.v20120104-1859,"",1380516474495
activated,workbench,org.eclipse.ui.workbench,3.7.1.v20120104-1859,"",1380516486087
activated,editor,org.eclipse.jdt.ui,3.7.2.v20120109-1427,"org.eclipse.jdt.ui.CompilationUnitEditor",1380516487674
deactivated,workbench,org.eclipse.ui.workbench,3.7.1.v20120104-1859,"",1380516490783
activated,workbench,org.eclipse.ui.workbench,3.7.1.v20120104-1859,"",1380516504165
activated,editor,org.eclipse.jdt.ui,3.7.2.v20120109-1427,"org.eclipse.jdt.ui.CompilationUnitEditor",1380516513690
deactivated,workbench,org.eclipse.ui.workbench,3.7.1.v20120104-1859,"",1380516514538
activated,workbench,org.eclipse.ui.workbench,3.7.1.v20120104-1859,"",1380516515517
deactivated,workbench,org.eclipse.ui.workbench,3.7.1.v20120104-1859,"",1380516515864
activated,workbench,org.eclipse.ui.workbench,3.7.1.v20120104-1859,"",1380516520060
deactivated,workbench,org.eclipse.ui.workbench,3.7.1.v20120104-1859,"",1380516522749
activated,workbench,org.eclipse.ui.workbench,3.7.1.v20120104-1859,"",1380516524289
activated,editor,org.eclipse.jdt.ui,3.7.2.v20120109-1427,"org.eclipse.jdt.ui.CompilationUnitEditor",1380516524364
deactivated,workbench,org.eclipse.ui.workbench,3.7.1.v20120104-1859,"",1380516528769
activated,workbench,org.eclipse.ui.workbench,3.7.1.v20120104-1859,"",1380516539695
deactivated,workbench,org.eclipse.ui.workbench,3.7.1.v20120104-1859,"",1380516545672
activated,workbench,org.eclipse.ui.workbench,3.7.1.v20120104-1859,"",1380516546444
deactivated,workbench,org.eclipse.ui.workbench,3.7.1.v20120104-1859,"",1380516546865
activated,workbench,org.eclipse.ui.workbench,3.7.1.v20120104-1859,"",1380516547846
activated,editor,org.eclipse.jdt.ui,3.7.2.v20120109-1427,"org.eclipse.jdt.ui.CompilationUnitEditor",1380516552717
deactivated,workbench,org.eclipse.ui.workbench,3.7.1.v20120104-1859,"",1380516553383
activated,workbench,org.eclipse.ui.workbench,3.7.1.v20120104-1859,"",1380516554151
deactivated,workbench,org.eclipse.ui.workbench,3.7.1.v20120104-1859,"",1380516554485
activated,workbench,org.eclipse.ui.workbench,3.7.1.v20120104-1859,"",1380516578978
