what,kind,bundleId,bundleVersion,description,time
activated,editor,org.eclipse.jdt.ui,3.7.2.v20120109-1427,"org.eclipse.jdt.ui.CompilationUnitEditor",1382658176882
activated,editor,org.eclipse.jdt.ui,3.7.2.v20120109-1427,"org.eclipse.jdt.ui.CompilationUnitEditor",1382658184044
deactivated,workbench,org.eclipse.ui.workbench,3.7.1.v20120104-1859,"",1382658202509
activated,workbench,org.eclipse.ui.workbench,3.7.1.v20120104-1859,"",1382658203484
activated,editor,org.eclipse.jdt.ui,3.7.2.v20120109-1427,"org.eclipse.jdt.ui.CompilationUnitEditor",1382658203518
closed,editor,org.eclipse.jdt.ui,3.7.2.v20120109-1427,"org.eclipse.jdt.ui.CompilationUnitEditor",1382658203518
deactivated,workbench,org.eclipse.ui.workbench,3.7.1.v20120104-1859,"",1382658205110
activated,workbench,org.eclipse.ui.workbench,3.7.1.v20120104-1859,"",1382658218168
activated,view,org.eclipse.jdt.ui,3.7.2.v20120109-1427,"org.eclipse.jdt.ui.PackageExplorer",1382658309302
opened,editor,org.eclipse.jdt.ui,3.7.2.v20120109-1427,"org.eclipse.jdt.ui.CompilationUnitEditor",1382658311007
activated,editor,org.eclipse.jdt.ui,3.7.2.v20120109-1427,"org.eclipse.jdt.ui.CompilationUnitEditor",1382658311032
deactivated,workbench,org.eclipse.ui.workbench,3.7.1.v20120104-1859,"",1382658340053
activated,workbench,org.eclipse.ui.workbench,3.7.1.v20120104-1859,"",1382658340150
deactivated,workbench,org.eclipse.ui.workbench,3.7.1.v20120104-1859,"",1382658351583
activated,workbench,org.eclipse.ui.workbench,3.7.1.v20120104-1859,"",1382658352339
activated,editor,org.eclipse.jdt.ui,3.7.2.v20120109-1427,"org.eclipse.jdt.ui.CompilationUnitEditor",1382658352367
closed,editor,org.eclipse.jdt.ui,3.7.2.v20120109-1427,"org.eclipse.jdt.ui.CompilationUnitEditor",1382658352367
activated,view,org.eclipse.jdt.ui,3.7.2.v20120109-1427,"org.eclipse.jdt.ui.PackageExplorer",1382658431959
opened,editor,org.eclipse.jdt.ui,3.7.2.v20120109-1427,"org.eclipse.jdt.ui.CompilationUnitEditor",1382658432122
activated,editor,org.eclipse.jdt.ui,3.7.2.v20120109-1427,"org.eclipse.jdt.ui.CompilationUnitEditor",1382658432147
activated,editor,org.eclipse.jdt.ui,3.7.2.v20120109-1427,"org.eclipse.jdt.ui.CompilationUnitEditor",1382658444366
activated,editor,org.eclipse.jdt.ui,3.7.2.v20120109-1427,"org.eclipse.jdt.ui.CompilationUnitEditor",1382658444897
deactivated,workbench,org.eclipse.ui.workbench,3.7.1.v20120104-1859,"",1382658465714
activated,workbench,org.eclipse.ui.workbench,3.7.1.v20120104-1859,"",1382658467315
deactivated,workbench,org.eclipse.ui.workbench,3.7.1.v20120104-1859,"",1382658469095
activated,workbench,org.eclipse.ui.workbench,3.7.1.v20120104-1859,"",1382658472476
activated,editor,org.eclipse.jdt.ui,3.7.2.v20120109-1427,"org.eclipse.jdt.ui.CompilationUnitEditor",1382658476251
deactivated,workbench,org.eclipse.ui.workbench,3.7.1.v20120104-1859,"",1382658620068
activated,workbench,org.eclipse.ui.workbench,3.7.1.v20120104-1859,"",1382658620141
deactivated,workbench,org.eclipse.ui.workbench,3.7.1.v20120104-1859,"",1382658663700
activated,workbench,org.eclipse.ui.workbench,3.7.1.v20120104-1859,"",1382658663779
executed,command,org.eclipse.ui,3.7.0.v20110928-1505,"org.eclipse.ui.edit.copy",1382658762958
executed,command,org.eclipse.ui,3.7.0.v20110928-1505,"org.eclipse.ui.edit.paste",1382658772385
activated,view,org.eclipse.jdt.ui,3.7.2.v20120109-1427,"org.eclipse.jdt.ui.PackageExplorer",1382658899945
deactivated,workbench,org.eclipse.ui.workbench,3.7.1.v20120104-1859,"",1382658901259
activated,workbench,org.eclipse.ui.workbench,3.7.1.v20120104-1859,"",1382658902088
deactivated,workbench,org.eclipse.ui.workbench,3.7.1.v20120104-1859,"",1382658902500
activated,workbench,org.eclipse.ui.workbench,3.7.1.v20120104-1859,"",1382658904112
deactivated,workbench,org.eclipse.ui.workbench,3.7.1.v20120104-1859,"",1382658905234
activated,workbench,org.eclipse.ui.workbench,3.7.1.v20120104-1859,"",1382658907134
executed,command,org.eclipse.ui,3.7.0.v20110928-1505,"org.eclipse.ui.file.refresh",1382658909974
deactivated,workbench,org.eclipse.ui.workbench,3.7.1.v20120104-1859,"",1382658912219
activated,workbench,org.eclipse.ui.workbench,3.7.1.v20120104-1859,"",1382658935913
activated,editor,org.eclipse.jdt.ui,3.7.2.v20120109-1427,"org.eclipse.jdt.ui.CompilationUnitEditor",1382658938221
activated,view,org.eclipse.jdt.ui,3.7.2.v20120109-1427,"org.eclipse.jdt.ui.PackageExplorer",1382659009203
deactivated,workbench,org.eclipse.ui.workbench,3.7.1.v20120104-1859,"",1382659010494
activated,workbench,org.eclipse.ui.workbench,3.7.1.v20120104-1859,"",1382659011157
deactivated,workbench,org.eclipse.ui.workbench,3.7.1.v20120104-1859,"",1382659011576
activated,workbench,org.eclipse.ui.workbench,3.7.1.v20120104-1859,"",1382659028111
activated,view,org.eclipse.ui.console,3.5.100.v20111007_r372,"org.eclipse.ui.console.ConsoleView",1382659028119
deactivated,workbench,org.eclipse.ui.workbench,3.7.1.v20120104-1859,"",1382659048502
activated,workbench,org.eclipse.ui.workbench,3.7.1.v20120104-1859,"",1382659055809
deactivated,workbench,org.eclipse.ui.workbench,3.7.1.v20120104-1859,"",1382659056870
activated,workbench,org.eclipse.ui.workbench,3.7.1.v20120104-1859,"",1382659073048
activated,view,org.eclipse.jdt.ui,3.7.2.v20120109-1427,"org.eclipse.jdt.ui.PackageExplorer",1382659075999
deactivated,workbench,org.eclipse.ui.workbench,3.7.1.v20120104-1859,"",1382659077660
activated,workbench,org.eclipse.ui.workbench,3.7.1.v20120104-1859,"",1382659084844
deactivated,workbench,org.eclipse.ui.workbench,3.7.1.v20120104-1859,"",1382659086389
activated,workbench,org.eclipse.ui.workbench,3.7.1.v20120104-1859,"",1382659094707
deactivated,workbench,org.eclipse.ui.workbench,3.7.1.v20120104-1859,"",1382659097692
activated,workbench,org.eclipse.ui.workbench,3.7.1.v20120104-1859,"",1382659105042
executed,command,org.eclipse.ui,3.7.0.v20110928-1505,"org.eclipse.ui.file.refresh",1382659111100
activated,editor,org.eclipse.jdt.ui,3.7.2.v20120109-1427,"org.eclipse.jdt.ui.CompilationUnitEditor",1382659111884
activated,view,org.eclipse.jdt.ui,3.7.2.v20120109-1427,"org.eclipse.jdt.ui.PackageExplorer",1382659114467
executed,command,org.eclipse.ui,3.7.0.v20110928-1505,"org.eclipse.ui.file.refresh",1382659116883
deactivated,workbench,org.eclipse.ui.workbench,3.7.1.v20120104-1859,"",1382659119367
activated,workbench,org.eclipse.ui.workbench,3.7.1.v20120104-1859,"",1382659129981
deactivated,workbench,org.eclipse.ui.workbench,3.7.1.v20120104-1859,"",1382659131165
activated,workbench,org.eclipse.ui.workbench,3.7.1.v20120104-1859,"",1382659136707
opened,editor,org.eclipse.jdt.ui,3.7.2.v20120109-1427,"org.eclipse.jdt.ui.CompilationUnitEditor",1382659161180
activated,editor,org.eclipse.jdt.ui,3.7.2.v20120109-1427,"org.eclipse.jdt.ui.CompilationUnitEditor",1382659161203
activated,editor,org.eclipse.jdt.ui,3.7.2.v20120109-1427,"org.eclipse.jdt.ui.CompilationUnitEditor",1382659166544
closed,editor,org.eclipse.jdt.ui,3.7.2.v20120109-1427,"org.eclipse.jdt.ui.CompilationUnitEditor",1382659166544
activated,view,org.eclipse.jdt.ui,3.7.2.v20120109-1427,"org.eclipse.jdt.ui.PackageExplorer",1382659170775
opened,editor,org.eclipse.jdt.ui,3.7.2.v20120109-1427,"org.eclipse.jdt.ui.CompilationUnitEditor",1382659170962
activated,editor,org.eclipse.jdt.ui,3.7.2.v20120109-1427,"org.eclipse.jdt.ui.CompilationUnitEditor",1382659170989
activated,editor,org.eclipse.jdt.ui,3.7.2.v20120109-1427,"org.eclipse.jdt.ui.CompilationUnitEditor",1382659196383
closed,editor,org.eclipse.jdt.ui,3.7.2.v20120109-1427,"org.eclipse.jdt.ui.CompilationUnitEditor",1382659196384
activated,view,org.eclipse.jdt.ui,3.7.2.v20120109-1427,"org.eclipse.jdt.ui.PackageExplorer",1382659223867
opened,editor,org.eclipse.jdt.ui,3.7.2.v20120109-1427,"org.eclipse.jdt.ui.CompilationUnitEditor",1382659224041
activated,editor,org.eclipse.jdt.ui,3.7.2.v20120109-1427,"org.eclipse.jdt.ui.CompilationUnitEditor",1382659224066
activated,editor,org.eclipse.jdt.ui,3.7.2.v20120109-1427,"org.eclipse.jdt.ui.CompilationUnitEditor",1382659237657
closed,editor,org.eclipse.jdt.ui,3.7.2.v20120109-1427,"org.eclipse.jdt.ui.CompilationUnitEditor",1382659237657
deactivated,workbench,org.eclipse.ui.workbench,3.7.1.v20120104-1859,"",1382659243049
activated,workbench,org.eclipse.ui.workbench,3.7.1.v20120104-1859,"",1382659250585
activated,view,org.eclipse.jdt.ui,3.7.2.v20120109-1427,"org.eclipse.jdt.ui.PackageExplorer",1382659254432
opened,editor,org.eclipse.jdt.ui,3.7.2.v20120109-1427,"org.eclipse.jdt.ui.CompilationUnitEditor",1382659254607
activated,editor,org.eclipse.jdt.ui,3.7.2.v20120109-1427,"org.eclipse.jdt.ui.CompilationUnitEditor",1382659254632
activated,editor,org.eclipse.jdt.ui,3.7.2.v20120109-1427,"org.eclipse.jdt.ui.CompilationUnitEditor",1382659256254
closed,editor,org.eclipse.jdt.ui,3.7.2.v20120109-1427,"org.eclipse.jdt.ui.CompilationUnitEditor",1382659256254
activated,view,org.eclipse.jdt.ui,3.7.2.v20120109-1427,"org.eclipse.jdt.ui.PackageExplorer",1382659261372
opened,editor,org.eclipse.jdt.ui,3.7.2.v20120109-1427,"org.eclipse.jdt.ui.CompilationUnitEditor",1382659261497
activated,editor,org.eclipse.jdt.ui,3.7.2.v20120109-1427,"org.eclipse.jdt.ui.CompilationUnitEditor",1382659261522
activated,editor,org.eclipse.jdt.ui,3.7.2.v20120109-1427,"org.eclipse.jdt.ui.CompilationUnitEditor",1382659265628
activated,editor,org.eclipse.jdt.ui,3.7.2.v20120109-1427,"org.eclipse.jdt.ui.CompilationUnitEditor",1382659274195
activated,view,org.eclipse.jdt.ui,3.7.2.v20120109-1427,"org.eclipse.jdt.ui.PackageExplorer",1382659308468
deactivated,workbench,org.eclipse.ui.workbench,3.7.1.v20120104-1859,"",1382659309689
activated,workbench,org.eclipse.ui.workbench,3.7.1.v20120104-1859,"",1382659310480
deactivated,workbench,org.eclipse.ui.workbench,3.7.1.v20120104-1859,"",1382659310884
activated,workbench,org.eclipse.ui.workbench,3.7.1.v20120104-1859,"",1382659312193
activated,view,org.eclipse.ui.console,3.5.100.v20111007_r372,"org.eclipse.ui.console.ConsoleView",1382659312940
deactivated,workbench,org.eclipse.ui.workbench,3.7.1.v20120104-1859,"",1382659314217
activated,workbench,org.eclipse.ui.workbench,3.7.1.v20120104-1859,"",1382659327961
activated,editor,org.eclipse.jdt.ui,3.7.2.v20120109-1427,"org.eclipse.jdt.ui.CompilationUnitEditor",1382659329062
activated,editor,org.eclipse.jdt.ui,3.7.2.v20120109-1427,"org.eclipse.jdt.ui.CompilationUnitEditor",1382659344610
activated,editor,org.eclipse.jdt.ui,3.7.2.v20120109-1427,"org.eclipse.jdt.ui.CompilationUnitEditor",1382659347642
deactivated,workbench,org.eclipse.ui.workbench,3.7.1.v20120104-1859,"",1382659381322
activated,workbench,org.eclipse.ui.workbench,3.7.1.v20120104-1859,"",1382659385961
activated,view,org.eclipse.jdt.ui,3.7.2.v20120109-1427,"org.eclipse.jdt.ui.PackageExplorer",1382659388233
deactivated,workbench,org.eclipse.ui.workbench,3.7.1.v20120104-1859,"",1382659389252
activated,workbench,org.eclipse.ui.workbench,3.7.1.v20120104-1859,"",1382659390228
deactivated,workbench,org.eclipse.ui.workbench,3.7.1.v20120104-1859,"",1382659390611
activated,workbench,org.eclipse.ui.workbench,3.7.1.v20120104-1859,"",1382659404956
activated,editor,org.eclipse.jdt.ui,3.7.2.v20120109-1427,"org.eclipse.jdt.ui.CompilationUnitEditor",1382659404971
activated,editor,org.eclipse.jdt.ui,3.7.2.v20120109-1427,"org.eclipse.jdt.ui.CompilationUnitEditor",1382659417615
executed,command,org.eclipse.ui,3.7.0.v20110928-1505,"org.eclipse.ui.edit.cut",1382659498284
executed,command,org.eclipse.jdt.ui,3.7.2.v20120109-1427,"org.eclipse.jdt.ui.edit.text.java.format",1382659502526
executed,command,org.eclipse.jdt.ui,3.7.2.v20120109-1427,"org.eclipse.jdt.ui.edit.text.java.format",1382659503308
executed,command,org.eclipse.ui,3.7.0.v20110928-1505,"org.eclipse.ui.edit.paste",1382659504645
executed,command,org.eclipse.jdt.ui,3.7.2.v20120109-1427,"org.eclipse.jdt.ui.edit.text.java.format",1382659506654
activated,view,org.eclipse.jdt.ui,3.7.2.v20120109-1427,"org.eclipse.jdt.ui.PackageExplorer",1382659554163
deactivated,workbench,org.eclipse.ui.workbench,3.7.1.v20120104-1859,"",1382659555329
activated,workbench,org.eclipse.ui.workbench,3.7.1.v20120104-1859,"",1382659556184
deactivated,workbench,org.eclipse.ui.workbench,3.7.1.v20120104-1859,"",1382659556572
activated,workbench,org.eclipse.ui.workbench,3.7.1.v20120104-1859,"",1382659566733
activated,editor,org.eclipse.jdt.ui,3.7.2.v20120109-1427,"org.eclipse.jdt.ui.CompilationUnitEditor",1382659575731
activated,editor,org.eclipse.jdt.ui,3.7.2.v20120109-1427,"org.eclipse.jdt.ui.CompilationUnitEditor",1382659577748
activated,editor,org.eclipse.jdt.ui,3.7.2.v20120109-1427,"org.eclipse.jdt.ui.CompilationUnitEditor",1382659594691
activated,view,org.eclipse.jdt.ui,3.7.2.v20120109-1427,"org.eclipse.jdt.ui.PackageExplorer",1382659618344
deactivated,workbench,org.eclipse.ui.workbench,3.7.1.v20120104-1859,"",1382659619379
activated,workbench,org.eclipse.ui.workbench,3.7.1.v20120104-1859,"",1382659620280
deactivated,workbench,org.eclipse.ui.workbench,3.7.1.v20120104-1859,"",1382659620655
activated,workbench,org.eclipse.ui.workbench,3.7.1.v20120104-1859,"",1382659650199
activated,editor,org.eclipse.jdt.ui,3.7.2.v20120109-1427,"org.eclipse.jdt.ui.CompilationUnitEditor",1382659652792
activated,view,org.eclipse.jdt.ui,3.7.2.v20120109-1427,"org.eclipse.jdt.ui.PackageExplorer",1382659666805
deactivated,workbench,org.eclipse.ui.workbench,3.7.1.v20120104-1859,"",1382659667875
activated,workbench,org.eclipse.ui.workbench,3.7.1.v20120104-1859,"",1382659668802
deactivated,workbench,org.eclipse.ui.workbench,3.7.1.v20120104-1859,"",1382659669154
activated,workbench,org.eclipse.ui.workbench,3.7.1.v20120104-1859,"",1382659692800
activated,editor,org.eclipse.jdt.ui,3.7.2.v20120109-1427,"org.eclipse.jdt.ui.CompilationUnitEditor",1382659694536
deactivated,workbench,org.eclipse.ui.workbench,3.7.1.v20120104-1859,"",1382659701750
activated,workbench,org.eclipse.ui.workbench,3.7.1.v20120104-1859,"",1382659702608
activated,editor,org.eclipse.jdt.ui,3.7.2.v20120109-1427,"org.eclipse.jdt.ui.CompilationUnitEditor",1382659702638
closed,editor,org.eclipse.jdt.ui,3.7.2.v20120109-1427,"org.eclipse.jdt.ui.CompilationUnitEditor",1382659702639
activated,view,org.eclipse.jdt.ui,3.7.2.v20120109-1427,"org.eclipse.jdt.ui.PackageExplorer",1382659710468
opened,editor,org.eclipse.jdt.ui,3.7.2.v20120109-1427,"org.eclipse.jdt.ui.CompilationUnitEditor",1382659710629
activated,editor,org.eclipse.jdt.ui,3.7.2.v20120109-1427,"org.eclipse.jdt.ui.CompilationUnitEditor",1382659710653
activated,view,org.eclipse.jdt.ui,3.7.2.v20120109-1427,"org.eclipse.jdt.ui.PackageExplorer",1382659726715
deactivated,workbench,org.eclipse.ui.workbench,3.7.1.v20120104-1859,"",1382659728182
activated,workbench,org.eclipse.ui.workbench,3.7.1.v20120104-1859,"",1382659728969
deactivated,workbench,org.eclipse.ui.workbench,3.7.1.v20120104-1859,"",1382659729338
activated,workbench,org.eclipse.ui.workbench,3.7.1.v20120104-1859,"",1382659758122
activated,editor,org.eclipse.jdt.ui,3.7.2.v20120109-1427,"org.eclipse.jdt.ui.CompilationUnitEditor",1382659764290
executed,command,org.eclipse.ui,3.7.0.v20110928-1505,"org.eclipse.ui.edit.cut",1382659766036
activated,editor,org.eclipse.jdt.ui,3.7.2.v20120109-1427,"org.eclipse.jdt.ui.CompilationUnitEditor",1382659767945
executed,command,org.eclipse.ui,3.7.0.v20110928-1505,"org.eclipse.ui.edit.paste",1382659780396
activated,view,org.eclipse.jdt.ui,3.7.2.v20120109-1427,"org.eclipse.jdt.ui.PackageExplorer",1382659787217
deactivated,workbench,org.eclipse.ui.workbench,3.7.1.v20120104-1859,"",1382659788348
activated,workbench,org.eclipse.ui.workbench,3.7.1.v20120104-1859,"",1382659789452
deactivated,workbench,org.eclipse.ui.workbench,3.7.1.v20120104-1859,"",1382659789827
activated,workbench,org.eclipse.ui.workbench,3.7.1.v20120104-1859,"",1382659817337
activated,editor,org.eclipse.jdt.ui,3.7.2.v20120109-1427,"org.eclipse.jdt.ui.CompilationUnitEditor",1382659819469
deactivated,workbench,org.eclipse.ui.workbench,3.7.1.v20120104-1859,"",1382659823744
activated,workbench,org.eclipse.ui.workbench,3.7.1.v20120104-1859,"",1382659826191
activated,view,org.eclipse.jdt.ui,3.7.2.v20120109-1427,"org.eclipse.jdt.ui.PackageExplorer",1382659828115
executed,command,org.eclipse.ui,3.7.0.v20110928-1505,"org.eclipse.ui.file.refresh",1382659829584
deactivated,workbench,org.eclipse.ui.workbench,3.7.1.v20120104-1859,"",1382659832307
activated,workbench,org.eclipse.ui.workbench,3.7.1.v20120104-1859,"",1382659833099
deactivated,workbench,org.eclipse.ui.workbench,3.7.1.v20120104-1859,"",1382659833478
activated,workbench,org.eclipse.ui.workbench,3.7.1.v20120104-1859,"",1382659848950
activated,editor,org.eclipse.jdt.ui,3.7.2.v20120109-1427,"org.eclipse.jdt.ui.CompilationUnitEditor",1382659852397
activated,view,org.eclipse.jdt.ui,3.7.2.v20120109-1427,"org.eclipse.jdt.ui.PackageExplorer",1382659861807
opened,editor,org.eclipse.jdt.ui,3.7.2.v20120109-1427,"org.eclipse.jdt.ui.CompilationUnitEditor",1382659861958
activated,editor,org.eclipse.jdt.ui,3.7.2.v20120109-1427,"org.eclipse.jdt.ui.CompilationUnitEditor",1382659861985
deactivated,workbench,org.eclipse.ui.workbench,3.7.1.v20120104-1859,"",1382659872312
activated,workbench,org.eclipse.ui.workbench,3.7.1.v20120104-1859,"",1382659876954
deactivated,workbench,org.eclipse.ui.workbench,3.7.1.v20120104-1859,"",1382659880764
activated,workbench,org.eclipse.ui.workbench,3.7.1.v20120104-1859,"",1382659883213
activated,editor,org.eclipse.jdt.ui,3.7.2.v20120109-1427,"org.eclipse.jdt.ui.CompilationUnitEditor",1382659883266
closed,editor,org.eclipse.jdt.ui,3.7.2.v20120109-1427,"org.eclipse.jdt.ui.CompilationUnitEditor",1382659883266
activated,editor,org.eclipse.jdt.ui,3.7.2.v20120109-1427,"org.eclipse.jdt.ui.CompilationUnitEditor",1382659975309
activated,editor,org.eclipse.jdt.ui,3.7.2.v20120109-1427,"org.eclipse.jdt.ui.CompilationUnitEditor",1382659999190
executed,command,org.eclipse.ui,3.7.0.v20110928-1505,"org.eclipse.ui.file.saveAll",1382660025656
activated,editor,org.eclipse.jdt.ui,3.7.2.v20120109-1427,"org.eclipse.jdt.ui.CompilationUnitEditor",1382660031256
closed,editor,org.eclipse.jdt.ui,3.7.2.v20120109-1427,"org.eclipse.jdt.ui.CompilationUnitEditor",1382660031256
activated,view,org.eclipse.jdt.ui,3.7.2.v20120109-1427,"org.eclipse.jdt.ui.PackageExplorer",1382660038518
opened,editor,org.eclipse.jdt.ui,3.7.2.v20120109-1427,"org.eclipse.jdt.ui.CompilationUnitEditor",1382660038676
activated,editor,org.eclipse.jdt.ui,3.7.2.v20120109-1427,"org.eclipse.jdt.ui.CompilationUnitEditor",1382660038699
deactivated,workbench,org.eclipse.ui.workbench,3.7.1.v20120104-1859,"",1382660055876
activated,workbench,org.eclipse.ui.workbench,3.7.1.v20120104-1859,"",1382660059840
activated,view,org.eclipse.jdt.ui,3.7.2.v20120109-1427,"org.eclipse.jdt.ui.PackageExplorer",1382660062519
deactivated,workbench,org.eclipse.ui.workbench,3.7.1.v20120104-1859,"",1382660063614
activated,workbench,org.eclipse.ui.workbench,3.7.1.v20120104-1859,"",1382660064401
deactivated,workbench,org.eclipse.ui.workbench,3.7.1.v20120104-1859,"",1382660064771
activated,workbench,org.eclipse.ui.workbench,3.7.1.v20120104-1859,"",1382660084217
activated,view,org.eclipse.ui.console,3.5.100.v20111007_r372,"org.eclipse.ui.console.ConsoleView",1382660084783
activated,editor,org.eclipse.jdt.ui,3.7.2.v20120109-1427,"org.eclipse.jdt.ui.CompilationUnitEditor",1382660107546
activated,editor,org.eclipse.jdt.ui,3.7.2.v20120109-1427,"org.eclipse.jdt.ui.CompilationUnitEditor",1382660114390
activated,editor,org.eclipse.jdt.ui,3.7.2.v20120109-1427,"org.eclipse.jdt.ui.CompilationUnitEditor",1382660137968
activated,editor,org.eclipse.jdt.ui,3.7.2.v20120109-1427,"org.eclipse.jdt.ui.CompilationUnitEditor",1382660143819
activated,view,org.eclipse.jdt.ui,3.7.2.v20120109-1427,"org.eclipse.jdt.ui.PackageExplorer",1382660152617
deactivated,workbench,org.eclipse.ui.workbench,3.7.1.v20120104-1859,"",1382660153679
activated,workbench,org.eclipse.ui.workbench,3.7.1.v20120104-1859,"",1382660154385
deactivated,workbench,org.eclipse.ui.workbench,3.7.1.v20120104-1859,"",1382660154753
activated,workbench,org.eclipse.ui.workbench,3.7.1.v20120104-1859,"",1382660178371
activated,editor,org.eclipse.jdt.ui,3.7.2.v20120109-1427,"org.eclipse.jdt.ui.CompilationUnitEditor",1382660179946
executed,command,org.eclipse.ui,3.7.0.v20110928-1505,"org.eclipse.ui.edit.undo",1382660181995
activated,editor,org.eclipse.jdt.ui,3.7.2.v20120109-1427,"org.eclipse.jdt.ui.CompilationUnitEditor",1382660185203
activated,editor,org.eclipse.jdt.ui,3.7.2.v20120109-1427,"org.eclipse.jdt.ui.CompilationUnitEditor",1382660190859
executed,command,org.eclipse.ui,3.7.0.v20110928-1505,"org.eclipse.ui.file.saveAll",1382660193662
activated,view,org.eclipse.jdt.ui,3.7.2.v20120109-1427,"org.eclipse.jdt.ui.PackageExplorer",1382660228420
deactivated,workbench,org.eclipse.ui.workbench,3.7.1.v20120104-1859,"",1382660229478
activated,workbench,org.eclipse.ui.workbench,3.7.1.v20120104-1859,"",1382660230216
deactivated,workbench,org.eclipse.ui.workbench,3.7.1.v20120104-1859,"",1382660230588
activated,workbench,org.eclipse.ui.workbench,3.7.1.v20120104-1859,"",1382660256554
activated,view,org.eclipse.ui.console,3.5.100.v20111007_r372,"org.eclipse.ui.console.ConsoleView",1382660257809
activated,editor,org.eclipse.jdt.ui,3.7.2.v20120109-1427,"org.eclipse.jdt.ui.CompilationUnitEditor",1382660268334
deactivated,workbench,org.eclipse.ui.workbench,3.7.1.v20120104-1859,"",1382660276317
activated,workbench,org.eclipse.ui.workbench,3.7.1.v20120104-1859,"",1382660307869
executed,command,org.eclipse.ui,3.7.0.v20110928-1505,"org.eclipse.ui.file.saveAll",1382660309916
activated,editor,org.eclipse.jdt.ui,3.7.2.v20120109-1427,"org.eclipse.jdt.ui.CompilationUnitEditor",1382660352988
activated,view,org.eclipse.jdt.ui,3.7.2.v20120109-1427,"org.eclipse.jdt.ui.PackageExplorer",1382660384019
deactivated,workbench,org.eclipse.ui.workbench,3.7.1.v20120104-1859,"",1382660385174
activated,workbench,org.eclipse.ui.workbench,3.7.1.v20120104-1859,"",1382660385973
deactivated,workbench,org.eclipse.ui.workbench,3.7.1.v20120104-1859,"",1382660386384
activated,workbench,org.eclipse.ui.workbench,3.7.1.v20120104-1859,"",1382660406485
activated,view,org.eclipse.ui.console,3.5.100.v20111007_r372,"org.eclipse.ui.console.ConsoleView",1382660414588
activated,editor,org.eclipse.jdt.ui,3.7.2.v20120109-1427,"org.eclipse.jdt.ui.CompilationUnitEditor",1382660418362
deactivated,workbench,org.eclipse.ui.workbench,3.7.1.v20120104-1859,"",1382660483642
activated,workbench,org.eclipse.ui.workbench,3.7.1.v20120104-1859,"",1382660501620
executed,command,org.eclipse.ui,3.7.0.v20110928-1505,"org.eclipse.ui.edit.copy",1382660534001
executed,command,org.eclipse.ui,3.7.0.v20110928-1505,"org.eclipse.ui.edit.paste",1382660534842
activated,view,org.eclipse.jdt.ui,3.7.2.v20120109-1427,"org.eclipse.jdt.ui.PackageExplorer",1382660580153
deactivated,workbench,org.eclipse.ui.workbench,3.7.1.v20120104-1859,"",1382660581259
activated,workbench,org.eclipse.ui.workbench,3.7.1.v20120104-1859,"",1382660582095
deactivated,workbench,org.eclipse.ui.workbench,3.7.1.v20120104-1859,"",1382660582470
activated,workbench,org.eclipse.ui.workbench,3.7.1.v20120104-1859,"",1382660610120
deactivated,workbench,org.eclipse.ui.workbench,3.7.1.v20120104-1859,"",1382660647655
activated,workbench,org.eclipse.ui.workbench,3.7.1.v20120104-1859,"",1382660648397
deactivated,workbench,org.eclipse.ui.workbench,3.7.1.v20120104-1859,"",1382660648859
activated,workbench,org.eclipse.ui.workbench,3.7.1.v20120104-1859,"",1382660651401
activated,editor,org.eclipse.jdt.ui,3.7.2.v20120109-1427,"org.eclipse.jdt.ui.CompilationUnitEditor",1382660809983
activated,editor,org.eclipse.jdt.ui,3.7.2.v20120109-1427,"org.eclipse.jdt.ui.CompilationUnitEditor",1382660813567
closed,editor,org.eclipse.jdt.ui,3.7.2.v20120109-1427,"org.eclipse.jdt.ui.CompilationUnitEditor",1382660813568
activated,view,org.eclipse.jdt.ui,3.7.2.v20120109-1427,"org.eclipse.jdt.ui.PackageExplorer",1382660817362
opened,editor,org.eclipse.jdt.ui,3.7.2.v20120109-1427,"org.eclipse.jdt.ui.CompilationUnitEditor",1382660817515
activated,editor,org.eclipse.jdt.ui,3.7.2.v20120109-1427,"org.eclipse.jdt.ui.CompilationUnitEditor",1382660817536
activated,editor,org.eclipse.jdt.ui,3.7.2.v20120109-1427,"org.eclipse.jdt.ui.CompilationUnitEditor",1382660819976
closed,editor,org.eclipse.jdt.ui,3.7.2.v20120109-1427,"org.eclipse.jdt.ui.CompilationUnitEditor",1382660819976
activated,view,org.eclipse.jdt.ui,3.7.2.v20120109-1427,"org.eclipse.jdt.ui.PackageExplorer",1382660824929
opened,editor,org.eclipse.jdt.ui,3.7.2.v20120109-1427,"org.eclipse.jdt.ui.CompilationUnitEditor",1382660825073
activated,editor,org.eclipse.jdt.ui,3.7.2.v20120109-1427,"org.eclipse.jdt.ui.CompilationUnitEditor",1382660825100
activated,view,org.eclipse.jdt.ui,3.7.2.v20120109-1427,"org.eclipse.jdt.ui.PackageExplorer",1382660843603
opened,editor,org.eclipse.jdt.ui,3.7.2.v20120109-1427,"org.eclipse.jdt.ui.CompilationUnitEditor",1382660843742
activated,editor,org.eclipse.jdt.ui,3.7.2.v20120109-1427,"org.eclipse.jdt.ui.CompilationUnitEditor",1382660843765
activated,editor,org.eclipse.jdt.ui,3.7.2.v20120109-1427,"org.eclipse.jdt.ui.CompilationUnitEditor",1382660846379
closed,editor,org.eclipse.jdt.ui,3.7.2.v20120109-1427,"org.eclipse.jdt.ui.CompilationUnitEditor",1382660846379
deactivated,workbench,org.eclipse.ui.workbench,3.7.1.v20120104-1859,"",1382660849896
activated,workbench,org.eclipse.ui.workbench,3.7.1.v20120104-1859,"",1382660865649
activated,view,org.eclipse.jdt.ui,3.7.2.v20120109-1427,"org.eclipse.jdt.ui.PackageExplorer",1382660869698
opened,editor,org.eclipse.jdt.ui,3.7.2.v20120109-1427,"org.eclipse.jdt.ui.CompilationUnitEditor",1382660872719
activated,editor,org.eclipse.jdt.ui,3.7.2.v20120109-1427,"org.eclipse.jdt.ui.CompilationUnitEditor",1382660872746
activated,view,org.eclipse.jdt.ui,3.7.2.v20120109-1427,"org.eclipse.jdt.ui.PackageExplorer",1382660940466
deactivated,workbench,org.eclipse.ui.workbench,3.7.1.v20120104-1859,"",1382660942885
activated,workbench,org.eclipse.ui.workbench,3.7.1.v20120104-1859,"",1382660943623
deactivated,workbench,org.eclipse.ui.workbench,3.7.1.v20120104-1859,"",1382660944041
activated,workbench,org.eclipse.ui.workbench,3.7.1.v20120104-1859,"",1382660959871
deactivated,workbench,org.eclipse.ui.workbench,3.7.1.v20120104-1859,"",1382660967018
activated,workbench,org.eclipse.ui.workbench,3.7.1.v20120104-1859,"",1382660982584
activated,editor,org.eclipse.jdt.ui,3.7.2.v20120109-1427,"org.eclipse.jdt.ui.CompilationUnitEditor",1382660987439
activated,editor,org.eclipse.jdt.ui,3.7.2.v20120109-1427,"org.eclipse.jdt.ui.CompilationUnitEditor",1382660990808
closed,editor,org.eclipse.jdt.ui,3.7.2.v20120109-1427,"org.eclipse.jdt.ui.CompilationUnitEditor",1382660990808
activated,editor,org.eclipse.jdt.ui,3.7.2.v20120109-1427,"org.eclipse.jdt.ui.CompilationUnitEditor",1382660995236
closed,editor,org.eclipse.jdt.ui,3.7.2.v20120109-1427,"org.eclipse.jdt.ui.CompilationUnitEditor",1382660995236
activated,editor,org.eclipse.jdt.ui,3.7.2.v20120109-1427,"org.eclipse.jdt.ui.CompilationUnitEditor",1382661025479
