what,kind,bundleId,bundleVersion,description,time
stopped,bundle,com.google.gdt.eclipse.mobile.android,3.3.0.v201307162142-rel-r37,"com.google.gdt.eclipse.mobile.android",1380507955947
stopped,bundle,com.google.gdt.eclipse.appengine.swarm_backend,3.3.0.v201307162142-rel-r37,"com.google.gdt.eclipse.appengine.swarm_backend",1380507955947
stopped,bundle,com.google.gdt.eclipse.suite.ext,3.3.0.v201307162142-rel-r37,"com.google.gdt.eclipse.suite.ext",1380507955947
stopped,bundle,com.google.gdt.eclipse.appengine.swarm,3.3.0.v201307162142-rel-r37,"com.google.gdt.eclipse.appengine.swarm",1380507955947
stopped,bundle,com.google.gdt.eclipse.gph.e36,3.3.0.v201307162142-rel-r37,"com.google.gdt.eclipse.gph.e36",1380507955947
stopped,bundle,com.google.gdt.eclipse.gph.hge,3.3.0.v201307162142-rel-r37,"com.google.gdt.eclipse.gph.hge",1380507955947
stopped,bundle,com.google.gdt.eclipse.gph.subclipse,3.3.0.v201307162142-rel-r37,"com.google.gdt.eclipse.gph.subclipse",1380507955947
stopped,bundle,com.google.gdt.eclipse.gph.subversive,3.3.0.v201307162142-rel-r37,"com.google.gdt.eclipse.gph.subversive",1380507955947
stopped,bundle,com.google.gdt.eclipse.suite.ext.e35,3.3.0.v201307162142-rel-r37,"com.google.gdt.eclipse.suite.ext.e35",1380507955947
stopped,bundle,com.google.gdt.eclipse.gph,3.3.0.v201307162142-rel-r37,"com.google.gdt.eclipse.gph",1380507955947
stopped,bundle,com.google.gdt.eclipse.maven.e37,3.3.0.v201307162142-rel-r37,"com.google.gdt.eclipse.maven.e37",1380507955947
stopped,bundle,com.google.gdt.eclipse.maven,3.3.0.v201307162142-rel-r37,"com.google.gdt.eclipse.maven",1380507955947
stopped,bundle,com.google.gdt.eclipse.suite,3.3.0.v201307162142-rel-r37,"com.google.gdt.eclipse.suite",1380507955947
stopped,bundle,com.google.gdt.eclipse.managedapis,3.3.0.v201307162142-rel-r37,"com.google.gdt.eclipse.managedapis",1380507955948
stopped,bundle,org.eclipse.m2e.discovery,1.0.200.20111228-1245,"org.eclipse.m2e.discovery",1380507955948
stopped,bundle,org.eclipse.m2e.refactoring,1.0.200.20111228-1245,"org.eclipse.m2e.refactoring",1380507955948
stopped,bundle,org.eclipse.m2e.editor,1.0.200.20111228-1245,"org.eclipse.m2e.editor",1380507955948
stopped,bundle,org.eclipse.m2e.editor.xml,1.0.200.20111228-1245,"org.eclipse.m2e.editor.xml",1380507955948
stopped,bundle,org.eclipse.m2e.jdt,1.0.200.20111228-1245,"org.eclipse.m2e.jdt",1380507955948
stopped,bundle,org.eclipse.m2e.launching,1.0.200.20111228-1245,"org.eclipse.m2e.launching",1380507955948
stopped,bundle,org.eclipse.m2e.usagedata,1.0.200.20111228-1245,"org.eclipse.m2e.usagedata",1380507955948
stopped,bundle,com.google.appengine.eclipse.datatools,3.3.0.v201307162142-rel-r37,"com.google.appengine.eclipse.datatools",1380507955949
stopped,bundle,com.google.appengine.eclipse.webtools,3.3.0.v201307162142-rel-r37,"com.google.appengine.eclipse.webtools",1380507955949
stopped,bundle,com.google.gdt.eclipse.appsmarketplace,3.3.0.v201307162142-rel-r37,"com.google.gdt.eclipse.appsmarketplace",1380507955949
stopped,bundle,com.google.appengine.eclipse.core,3.3.0.v201307162142-rel-r37,"com.google.appengine.eclipse.core",1380507955949
stopped,bundle,com.google.gdt.eclipse.login,3.3.0.v201307162142-rel-r37,"com.google.gdt.eclipse.login",1380507955949
stopped,bundle,com.google.gwt.eclipse.oophm,3.3.0.v201307162142-rel-r37,"com.google.gwt.eclipse.oophm",1380507955949
stopped,bundle,com.google.gwt.eclipse.core,3.3.0.v201307162142-rel-r37,"com.google.gwt.eclipse.core",1380507956022
stopped,bundle,com.google.gdt.eclipse.core,3.3.0.v201307162142-rel-r37,"com.google.gdt.eclipse.core",1380507956022
stopped,bundle,com.google.gdt.eclipse.platform,3.3.0.v201307162142-rel-r37,"com.google.gdt.eclipse.platform",1380507956022
stopped,bundle,com.google.gdt.eclipse.platform.e37,3.3.0.v201307162142-rel-r37,"com.google.gdt.eclipse.platform.e37",1380507956022
stopped,bundle,org.eclipse.cdt.debug.edc.linux.x86,1.0.0.201202112006,"org.eclipse.cdt.debug.edc.linux.x86",1380507956022
stopped,bundle,org.eclipse.cdt.debug.edc.windows.ui,1.0.0.201202112006,"org.eclipse.cdt.debug.edc.windows.ui",1380507956022
stopped,bundle,org.eclipse.cdt.debug.edc.windows,2.0.0.201202112006,"org.eclipse.cdt.debug.edc.windows",1380507956022
stopped,bundle,org.eclipse.cdt.debug.edc.ui,2.0.0.201202112006,"org.eclipse.cdt.debug.edc.ui",1380507956022
stopped,bundle,org.eclipse.cdt.debug.edc.x86,1.0.0.201202112006,"org.eclipse.cdt.debug.edc.x86",1380507956022
stopped,bundle,org.eclipse.cdt.debug.edc,2.0.0.201202112006,"org.eclipse.cdt.debug.edc",1380507956022
stopped,bundle,org.eclipse.cdt.scripting,1.0.0.201202112006,"org.eclipse.cdt.scripting",1380507956022
stopped,bundle,net.sf.fjep.fatjar,0.0.31,"net.sf.fjep.fatjar",1380507956022
stopped,bundle,org.eclipse.cdt,8.0.2.201202111925,"org.eclipse.cdt",1380507956022
stopped,bundle,org.eclipse.cdt.doc.user,5.1.1.201202111925,"org.eclipse.cdt.doc.user",1380507956022
stopped,bundle,com.android.ide.eclipse.ndk,22.0.5.v201307292155--757759,"com.android.ide.eclipse.ndk",1380507956022
stopped,bundle,overlay.com.android.ide.eclipse.adt.overlay,22.0.5.v201307292155--757759,"overlay.com.android.ide.eclipse.adt.overlay",1380507956022
stopped,bundle,com.android.ide.eclipse.adt,22.0.5.v201307292155--757759,"com.android.ide.eclipse.adt",1380507956033
stopped,bundle,org.eclipse.ui.cheatsheets,3.4.100.v20110425,"org.eclipse.ui.cheatsheets",1380507956033
stopped,bundle,org.eclipse.help.ui,3.5.101.r37_20110819,"org.eclipse.help.ui",1380507956033
stopped,bundle,org.eclipse.help.webapp,3.6.1.r37_20110929,"org.eclipse.help.webapp",1380507956033
stopped,bundle,org.eclipse.epp.mpc.ui,1.1.1.I20110907-0947,"org.eclipse.epp.mpc.ui",1380507956033
stopped,bundle,org.eclipse.epp.usagedata.ui,1.3.1.R201106061540,"org.eclipse.epp.usagedata.ui",1380507956033
stopped,bundle,org.eclipse.ui.intro.universal,3.2.500.v20110510,"org.eclipse.ui.intro.universal",1380507956033
stopped,bundle,org.eclipse.ui.intro,3.4.100.v20110425,"org.eclipse.ui.intro",1380507956033
stopped,bundle,org.eclipse.help.base,3.6.2.v201202080800,"org.eclipse.help.base",1380507956033
stopped,bundle,org.eclipse.equinox.http.jetty,2.0.100.v20110502,"org.eclipse.equinox.http.jetty",1380507956033
stopped,bundle,org.eclipse.m2e.core.ui,1.0.200.20111228-1245,"org.eclipse.m2e.core.ui",1380507956033
stopped,bundle,org.eclipse.m2e.core,1.0.200.20111228-1245,"org.eclipse.m2e.core",1380507956033
stopped,bundle,com.android.ide.eclipse.gldebugger,22.0.5.v201307292155--757759,"com.android.ide.eclipse.gldebugger",1380507956033
stopped,bundle,com.android.ide.eclipse.hierarchyviewer,22.0.5.v201307292155--757759,"com.android.ide.eclipse.hierarchyviewer",1380507956033
stopped,bundle,com.android.ide.eclipse.traceview,22.0.5.v201307292155--757759,"com.android.ide.eclipse.traceview",1380507956033
stopped,bundle,com.android.ide.eclipse.ddms,22.0.5.v201307292155--757759,"com.android.ide.eclipse.ddms",1380507956033
stopped,bundle,com.android.ide.eclipse.base,22.0.5.v201307292155--757759,"com.android.ide.eclipse.base",1380507956033
stopped,bundle,com.google.appengine.eclipse.sdkbundle,1.8.3,"com.google.appengine.eclipse.sdkbundle",1380507956033
stopped,bundle,com.google.gdt.eclipse.apiclientlib,3.3.0.v201307162142-rel-r37,"com.google.gdt.eclipse.apiclientlib",1380507956033
stopped,bundle,com.google.gdt.eclipse.designer.UiBinder,3.1.2.r37x201303061530,"com.google.gdt.eclipse.designer.UiBinder",1380507956033
stopped,bundle,com.google.gdt.eclipse.designer.gpe,3.1.2.r37x201303061641,"com.google.gdt.eclipse.designer.gpe",1380507956033
stopped,bundle,com.google.gdt.eclipse.designer,3.1.2.r37x201303061530,"com.google.gdt.eclipse.designer",1380507956033
stopped,bundle,com.google.gdt.eclipse.designer.hosted.2_0.ie,3.1.2.r37x201303061525,"com.google.gdt.eclipse.designer.hosted.2_0.ie",1380507956033
stopped,bundle,com.google.gdt.eclipse.designer.hosted.2_0.webkit,3.1.2.r37x201303061525,"com.google.gdt.eclipse.designer.hosted.2_0.webkit",1380507956033
stopped,bundle,com.google.gdt.eclipse.designer.hosted.2_0,3.1.2.r37x201303061525,"com.google.gdt.eclipse.designer.hosted.2_0",1380507956033
stopped,bundle,com.google.gdt.eclipse.designer.hosted.2_2.ie,3.1.2.r37x201303061525,"com.google.gdt.eclipse.designer.hosted.2_2.ie",1380507956033
stopped,bundle,com.google.gdt.eclipse.designer.hosted.2_2.webkit,3.1.2.r37x201303061525,"com.google.gdt.eclipse.designer.hosted.2_2.webkit",1380507956033
stopped,bundle,com.google.gdt.eclipse.designer.hosted.2_2,3.1.2.r37x201303061525,"com.google.gdt.eclipse.designer.hosted.2_2",1380507956034
stopped,bundle,com.google.gdt.eclipse.designer.hosted,3.1.2.r37x201303061525,"com.google.gdt.eclipse.designer.hosted",1380507956034
stopped,bundle,com.google.gdt.eclipse.designer.hosted.2_0.super,3.1.2.r37x201303061525,"com.google.gdt.eclipse.designer.hosted.2_0.super",1380507956034
stopped,bundle,com.google.gdt.eclipse.designer.hosted.lib,3.1.2.r37x201303061525,"com.google.gdt.eclipse.designer.hosted.lib",1380507956034
stopped,bundle,com.google.gdt.eclipse.platform.shared,3.3.0.v201307162142-rel-r37,"com.google.gdt.eclipse.platform.shared",1380507956034
stopped,bundle,com.google.gwt.eclipse.sdkbundle,2.5.1,"com.google.gwt.eclipse.sdkbundle",1380507956034
stopped,bundle,org.eclipse.mylyn.ide.ant,3.8.3.v20130107-0100,"org.eclipse.mylyn.ide.ant",1380507956034
stopped,bundle,org.eclipse.ant.ui,3.5.101.v20120110-1739,"org.eclipse.ant.ui",1380507956034
stopped,bundle,org.eclipse.ant.launching,1.0.101.v20120110-1739,"org.eclipse.ant.launching",1380507956034
stopped,bundle,org.eclipse.cdt.build.crossgcc,1.0.2.201202111925,"org.eclipse.cdt.build.crossgcc",1380507956034
stopped,bundle,org.eclipse.cdt.codan.checkers.ui,1.0.0.201202111925,"org.eclipse.cdt.codan.checkers.ui",1380507956034
stopped,bundle,org.eclipse.cdt.codan.checkers,1.0.1.201202111925,"org.eclipse.cdt.codan.checkers",1380507956034
stopped,bundle,org.eclipse.cdt.codan.ui.cxx,2.0.0.201202111925,"org.eclipse.cdt.codan.ui.cxx",1380507956034
stopped,bundle,org.eclipse.cdt.codan.core.cxx,1.0.0.201202111925,"org.eclipse.cdt.codan.core.cxx",1380507956034
stopped,bundle,org.eclipse.cdt.core.lrparser.xlc,5.1.0.201202111925,"org.eclipse.cdt.core.lrparser.xlc",1380507956034
stopped,bundle,org.eclipse.cdt.managedbuilder.bupc.ui,1.0.3.201202111925,"org.eclipse.cdt.managedbuilder.bupc.ui",1380507956034
stopped,bundle,org.eclipse.cdt.managedbuilder.xlupc.ui,1.1.0.201202111925,"org.eclipse.cdt.managedbuilder.xlupc.ui",1380507956034
stopped,bundle,org.eclipse.cdt.core.lrparser,5.2.0.201202111925,"org.eclipse.cdt.core.lrparser",1380507956034
stopped,bundle,org.eclipse.cdt.debug.gdbjtag.ui,7.0.0.201202111925,"org.eclipse.cdt.debug.gdbjtag.ui",1380507956034
stopped,bundle,org.eclipse.cdt.debug.gdbjtag.core,8.0.1.201202111925,"org.eclipse.cdt.debug.gdbjtag.core",1380507956034
stopped,bundle,org.eclipse.cdt.launch.remote,2.3.0.201202111925,"org.eclipse.cdt.launch.remote",1380507956034
stopped,bundle,org.eclipse.cdt.debug.mi.ui,6.1.1.201202111925,"org.eclipse.cdt.debug.mi.ui",1380507956034
stopped,bundle,org.eclipse.cdt.debug.mi.core,7.1.1.201202111925,"org.eclipse.cdt.debug.mi.core",1380507956034
stopped,bundle,org.eclipse.cdt.debug.ui.memory.memorybrowser,1.2.100.201202111925,"org.eclipse.cdt.debug.ui.memory.memorybrowser",1380507956034
stopped,bundle,org.eclipse.cdt.debug.ui.memory.search,1.2.1.201202111925,"org.eclipse.cdt.debug.ui.memory.search",1380507956034
stopped,bundle,org.eclipse.cdt.dsf.gdb.ui,2.2.1.201202111925,"org.eclipse.cdt.dsf.gdb.ui",1380507956058
stopped,bundle,org.eclipse.cdt.examples.dsf,2.1.0.201202111925,"org.eclipse.cdt.examples.dsf",1380507956058
stopped,bundle,org.eclipse.cdt.examples.dsf.pda.ui,2.1.0.201202111925,"org.eclipse.cdt.examples.dsf.pda.ui",1380507956058
stopped,bundle,org.eclipse.cdt.dsf.ui,2.2.1.201202111925,"org.eclipse.cdt.dsf.ui",1380507956058
stopped,bundle,org.eclipse.cdt.gdb.ui,7.0.0.201202111925,"org.eclipse.cdt.gdb.ui",1380507956058
stopped,bundle,org.eclipse.cdt.dsf.gdb,4.0.2.201202111925,"org.eclipse.cdt.dsf.gdb",1380507956058
stopped,bundle,org.eclipse.tm.tcf.cdt.ui,0.4.0.201106081058,"org.eclipse.tm.tcf.cdt.ui",1380507956059
stopped,bundle,org.eclipse.cdt.launch,7.0.0.201202111925,"org.eclipse.cdt.launch",1380507956059
stopped,bundle,org.eclipse.cdt.debug.ui,7.1.2.201202111925,"org.eclipse.cdt.debug.ui",1380507956059
stopped,bundle,org.eclipse.cdt.debug.ui.memory.traditional,1.2.1.201202111925,"org.eclipse.cdt.debug.ui.memory.traditional",1380507956059
stopped,bundle,org.eclipse.cdt.examples.dsf.pda,2.1.0.201202111925,"org.eclipse.cdt.examples.dsf.pda",1380507956060
stopped,bundle,org.eclipse.cdt.dsf,2.2.0.201202111925,"org.eclipse.cdt.dsf",1380507956060
stopped,bundle,org.eclipse.cdt.debug.core,7.1.0.201202111925,"org.eclipse.cdt.debug.core",1380507956060
stopped,bundle,org.eclipse.cdt.errorparsers.xlc,5.0.100.201202111925,"org.eclipse.cdt.errorparsers.xlc",1380507956060
stopped,bundle,org.eclipse.cdt.managedbuilder.xlc.ui,6.3.1.201202111925,"org.eclipse.cdt.managedbuilder.xlc.ui",1380507956060
stopped,bundle,org.eclipse.cdt.managedbuilder.ui,8.0.2.201202111925,"org.eclipse.cdt.managedbuilder.ui",1380507956060
stopped,bundle,org.eclipse.cdt.make.ui,7.1.2.201202111925,"org.eclipse.cdt.make.ui",1380507956060
stopped,bundle,org.eclipse.cdt.managedbuilder.xlc.core,5.0.1.201202111925,"org.eclipse.cdt.managedbuilder.xlc.core",1380507956060
stopped,bundle,org.eclipse.cdt.make.xlc.core,5.1.1.201202111925,"org.eclipse.cdt.make.xlc.core",1380507956060
stopped,bundle,org.eclipse.cdt.managedbuilder.gnu.ui,8.0.2.201202111925,"org.eclipse.cdt.managedbuilder.gnu.ui",1380507956060
stopped,bundle,org.eclipse.cdt.msw.build,1.0.0.201202111925,"org.eclipse.cdt.msw.build",1380507956060
stopped,bundle,org.eclipse.cdt.managedbuilder.core,8.0.2.201202111925,"org.eclipse.cdt.managedbuilder.core",1380507956130
stopped,bundle,org.eclipse.cdt.make.core,7.1.2.201202111925,"org.eclipse.cdt.make.core",1380507956130
stopped,bundle,org.eclipse.cdt.codan.ui,2.0.1.201202111925,"org.eclipse.cdt.codan.ui",1380507956130
stopped,bundle,org.eclipse.cdt.ui,5.3.2.201202111925,"org.eclipse.cdt.ui",1380507956157
stopped,bundle,org.eclipse.cdt.core,5.3.2.201202111925,"org.eclipse.cdt.core",1380507956172
stopped,bundle,org.eclipse.compare.win32,1.0.200.I20110510-0800,"org.eclipse.compare.win32",1380507956172
stopped,bundle,org.eclipse.egit.mylyn.ui,1.3.0.201202151440-r,"org.eclipse.egit.mylyn.ui",1380507956172
stopped,bundle,org.eclipse.egit.ui,1.3.0.201202151440-r,"org.eclipse.egit.ui",1380507956172
stopped,bundle,org.eclipse.egit.core,1.3.0.201202151440-r,"org.eclipse.egit.core",1380507956173
stopped,bundle,org.eclipse.equinox.p2.ui.sdk,1.0.200.v20110815-1419,"org.eclipse.equinox.p2.ui.sdk",1380507956173
stopped,bundle,org.eclipse.mylyn.java.tasks,3.8.3.v20130107-0100,"org.eclipse.mylyn.java.tasks",1380507956173
stopped,bundle,org.eclipse.mylyn.java.ui,3.8.3.v20130107-0100,"org.eclipse.mylyn.java.ui",1380507956173
stopped,bundle,org.eclipse.jdt.junit,3.7.0.v20110928-1453,"org.eclipse.jdt.junit",1380507956173
stopped,bundle,com.python.pydev.codecompletion,2.7.3.2013031601,"com.python.pydev.codecompletion",1380507956173
stopped,bundle,com.python.pydev.refactoring,2.7.3.2013031601,"com.python.pydev.refactoring",1380507956173
stopped,bundle,org.eclipse.jpt.jpa.db,2.0.0.v201105030000,"org.eclipse.jpt.jpa.db",1380507956173
stopped,bundle,org.eclipse.datatools.enablement.jdt.classpath,1.0.1.v201107221501,"org.eclipse.datatools.enablement.jdt.classpath",1380507956173
stopped,bundle,org.eclipse.jdt.apt.ui,3.3.300.v20110305-1450,"org.eclipse.jdt.apt.ui",1380507956173
stopped,bundle,org.eclipse.jdt.debug.ui,3.6.1.v20111006_r372,"org.eclipse.jdt.debug.ui",1380507956173
stopped,bundle,org.eclipse.wb.core.databinding.xml,1.5.2.r37x201303061518,"org.eclipse.wb.core.databinding.xml",1380507956173
stopped,bundle,org.eclipse.wb.swing.databinding,1.3.0.r37x201202021417,"org.eclipse.wb.swing.databinding",1380507956173
stopped,bundle,org.eclipse.wb.core.databinding,1.5.2.r37x201303061505,"org.eclipse.wb.core.databinding",1380507956173
stopped,bundle,org.eclipse.wb.swing.FormLayout,1.3.0.r37x201202021417,"org.eclipse.wb.swing.FormLayout",1380507956173
stopped,bundle,org.eclipse.wb.swing.MigLayout,1.3.0.r37x201202021417,"org.eclipse.wb.swing.MigLayout",1380507956174
stopped,bundle,org.eclipse.wb.swing.java6,1.3.0.r37x201202021417,"org.eclipse.wb.swing.java6",1380507956174
stopped,bundle,org.eclipse.wb.swing.jsr296,1.3.0.r37x201202021417,"org.eclipse.wb.swing.jsr296",1380507956174
stopped,bundle,org.eclipse.wb.swing,1.3.0.r37x201202021417,"org.eclipse.wb.swing",1380507956174
stopped,bundle,org.eclipse.wb.core.ui,1.5.2.r37x201303061516,"org.eclipse.wb.core.ui",1380507956174
stopped,bundle,org.eclipse.wb.core.xml,1.5.2.r37x201303061518,"org.eclipse.wb.core.xml",1380507956174
stopped,bundle,org.eclipse.wb.core.java,1.5.2.r37x201303061505,"org.eclipse.wb.core.java",1380507956174
stopped,bundle,com.python.pydev.analysis,2.7.3.2013031601,"com.python.pydev.analysis",1380507956174
stopped,bundle,com.python.pydev.debug,2.7.3.2013031601,"com.python.pydev.debug",1380507956174
stopped,bundle,com.python.pydev.fastparser,2.7.3.2013031601,"com.python.pydev.fastparser",1380507956174
stopped,bundle,com.python.pydev,2.7.3.2013031601,"com.python.pydev",1380507956174
stopped,bundle,org.python.pydev.django,2.7.3.2013031601,"org.python.pydev.django",1380507956174
stopped,bundle,org.python.pydev.customizations,2.7.3.2013031601,"org.python.pydev.customizations",1380507956174
stopped,bundle,org.python.pydev.debug,2.7.3.2013031601,"org.python.pydev.debug",1380507956175
stopped,bundle,org.python.pydev.refactoring,2.7.3.2013031601,"org.python.pydev.refactoring",1380507956175
stopped,bundle,org.python.pydev,2.7.3.2013031601,"org.python.pydev",1380507956196
stopped,bundle,org.eclipse.jdt.ui,3.7.2.v20120109-1427,"org.eclipse.jdt.ui",1380507956239
stopped,bundle,org.eclipse.rse.importexport,1.2.200.v201105021534,"org.eclipse.rse.importexport",1380507956239
stopped,bundle,org.eclipse.rse.subsystems.shells.telnet,1.2.200.v201101042155,"org.eclipse.rse.subsystems.shells.telnet",1380507956239
stopped,bundle,org.eclipse.rse.shells.ui,3.0.301.R33x_v201107181530,"org.eclipse.rse.shells.ui",1380507956239
stopped,bundle,org.eclipse.rse.files.ui,3.2.1.R33x_v201109141647,"org.eclipse.rse.files.ui",1380507956239
stopped,bundle,org.eclipse.tm.tcf.rse,0.4.0.201106081058,"org.eclipse.tm.tcf.rse",1380507956239
stopped,bundle,org.eclipse.rse.processes.ui,3.0.300.v201101042155,"org.eclipse.rse.processes.ui",1380507956239
stopped,bundle,org.eclipse.wst.dtd.ui,1.0.600.v201103171359,"org.eclipse.wst.dtd.ui",1380507956239
stopped,bundle,org.eclipse.wst.css.ui,1.0.601.v201201101544,"org.eclipse.wst.css.ui",1380507956239
stopped,bundle,org.eclipse.wst.xsd.ui,1.2.404.v201105050216,"org.eclipse.wst.xsd.ui",1380507956239
stopped,bundle,org.eclipse.wst.xml.ui,1.1.202.v201112071516,"org.eclipse.wst.xml.ui",1380507956239
stopped,bundle,org.eclipse.wst.common.ui,1.1.500.v200911190730,"org.eclipse.wst.common.ui",1380507956239
stopped,bundle,org.eclipse.wst.jsdt.ui,1.1.102.v201201131900,"org.eclipse.wst.jsdt.ui",1380507956239
stopped,bundle,org.eclipse.wst.sse.ui,1.3.2.v201201041522,"org.eclipse.wst.sse.ui",1380507956239
stopped,bundle,org.eclipse.search,3.7.0.v20110928-1504,"org.eclipse.search",1380507956239
stopped,bundle,org.eclipse.mylyn.commons.team,0.9.1.v20120412-0100,"org.eclipse.mylyn.commons.team",1380507956239
stopped,bundle,org.eclipse.mylyn.team.ui,3.8.3.v20130107-0100,"org.eclipse.mylyn.team.ui",1380507956239
stopped,bundle,org.eclipse.ui.navigator.resources,3.4.300.v20110928-1505,"org.eclipse.ui.navigator.resources",1380507956239
stopped,bundle,org.eclipse.ltk.ui.refactoring,3.6.0.v20110928-1453,"org.eclipse.ltk.ui.refactoring",1380507956239
stopped,bundle,org.eclipse.mylyn.bugzilla.ui,3.8.3.v20130107-0100,"org.eclipse.mylyn.bugzilla.ui",1380507956239
stopped,bundle,org.eclipse.mylyn.ide.ui,3.8.3.v20130107-0100,"org.eclipse.mylyn.ide.ui",1380507956239
stopped,bundle,org.eclipse.mylyn.resources.ui,3.8.3.v20130107-0100,"org.eclipse.mylyn.resources.ui",1380507956239
stopped,bundle,org.eclipse.mylyn.context.tasks.ui,3.8.3.v20130107-0100,"org.eclipse.mylyn.context.tasks.ui",1380507956239
stopped,bundle,org.eclipse.mylyn.help.ui,3.8.3.v20130107-0100,"org.eclipse.mylyn.help.ui",1380507956239
stopped,bundle,org.eclipse.mylyn.tasks.bugs,3.8.3.v20130107-0100,"org.eclipse.mylyn.tasks.bugs",1380507956239
stopped,bundle,org.eclipse.mylyn.wikitext.tasks.ui,1.7.3.v20130107-0100,"org.eclipse.mylyn.wikitext.tasks.ui",1380507956239
stopped,bundle,org.eclipse.mylyn.tasks.ui,3.8.3.v20130107-0100,"org.eclipse.mylyn.tasks.ui",1380507956239
stopped,bundle,org.eclipse.team.cvs.ui,3.3.401.v20120126-1227,"org.eclipse.team.cvs.ui",1380507956240
stopped,bundle,org.eclipse.team.ui,3.6.101.R37x_v20111109-0800,"org.eclipse.team.ui",1380507956240
stopped,bundle,org.eclipse.compare,3.5.202.R37x_v20111109-0800,"org.eclipse.compare",1380507956240
stopped,bundle,org.eclipse.cdt.debug.ui.memory.transport,2.1.0.201202111925,"org.eclipse.cdt.debug.ui.memory.transport",1380507956240
stopped,bundle,org.eclipse.tm.tcf.debug.ui,0.4.0.201106081058,"org.eclipse.tm.tcf.debug.ui",1380507956241
stopped,bundle,org.eclipse.ui.externaltools,3.2.0.v20111007_r372,"org.eclipse.ui.externaltools",1380507956241
stopped,bundle,org.python.pydev.shared_interactive_console,2.7.3.2013031601,"org.python.pydev.shared_interactive_console",1380507956241
stopped,bundle,org.eclipse.debug.ui,3.7.102.v20111129-1423_r372,"org.eclipse.debug.ui",1380507956255
stopped,bundle,org.eclipse.mylyn.commons.notifications.ui,1.0.3.v20130107-0100,"org.eclipse.mylyn.commons.notifications.ui",1380507956255
stopped,bundle,org.eclipse.mylyn.commons.repositories.ui,1.0.3.v20130107-0100,"org.eclipse.mylyn.commons.repositories.ui",1380507956255
stopped,bundle,org.eclipse.mylyn.context.ui,3.8.3.v20130107-0100,"org.eclipse.mylyn.context.ui",1380507956255
stopped,bundle,org.eclipse.mylyn.commons.workbench,3.8.4.v20130429-0100,"org.eclipse.mylyn.commons.workbench",1380507956255
stopped,bundle,org.eclipse.mylyn.wikitext.ui,1.7.3.v20130107-0100,"org.eclipse.mylyn.wikitext.ui",1380507956255
stopped,bundle,org.eclipse.rse.subsystems.files.dstore,2.1.201.R33x_v201109141647,"org.eclipse.rse.subsystems.files.dstore",1380507956255
stopped,bundle,org.eclipse.rse.subsystems.processes.dstore,2.1.300.v201101042155,"org.eclipse.rse.subsystems.processes.dstore",1380507956255
stopped,bundle,org.eclipse.rse.subsystems.shells.dstore,2.1.300.v201101042155,"org.eclipse.rse.subsystems.shells.dstore",1380507956255
stopped,bundle,org.eclipse.rse.connectorservice.dstore,3.1.200.v201103141607,"org.eclipse.rse.connectorservice.dstore",1380507956255
stopped,bundle,org.eclipse.rse.subsystems.files.local,2.1.200.v201101042155,"org.eclipse.rse.subsystems.files.local",1380507956255
stopped,bundle,org.eclipse.rse.subsystems.processes.local,2.1.300.v201101042155,"org.eclipse.rse.subsystems.processes.local",1380507956255
stopped,bundle,org.eclipse.rse.subsystems.shells.local,2.1.300.v201101042155,"org.eclipse.rse.subsystems.shells.local",1380507956255
stopped,bundle,org.eclipse.rse.connectorservice.local,2.1.300.v201101042155,"org.eclipse.rse.connectorservice.local",1380507956255
stopped,bundle,org.eclipse.rse.subsystems.files.ssh,2.1.200.v201101042155,"org.eclipse.rse.subsystems.files.ssh",1380507956255
stopped,bundle,org.eclipse.rse.subsystems.shells.ssh,2.1.300.v201101042155,"org.eclipse.rse.subsystems.shells.ssh",1380507956255
stopped,bundle,org.eclipse.rse.subsystems.terminals.ssh,1.0.100.v201101042155,"org.eclipse.rse.subsystems.terminals.ssh",1380507956255
stopped,bundle,org.eclipse.rse.connectorservice.ssh,2.1.200.v201101042155,"org.eclipse.rse.connectorservice.ssh",1380507956255
stopped,bundle,org.eclipse.rse.connectorservice.telnet,1.2.200.v201101042155,"org.eclipse.rse.connectorservice.telnet",1380507956255
stopped,bundle,org.eclipse.rse.dstore.security,3.0.300.v201103141607,"org.eclipse.rse.dstore.security",1380507956256
stopped,bundle,org.eclipse.rse.efs,2.1.300.v201101042155,"org.eclipse.rse.efs",1380507956256
stopped,bundle,org.eclipse.rse.subsystems.files.ftp,2.1.301.R33x_v201107212114,"org.eclipse.rse.subsystems.files.ftp",1380507956256
stopped,bundle,org.eclipse.rse.subsystems.shells.core,3.1.201.R33x_v201106281309,"org.eclipse.rse.subsystems.shells.core",1380507956256
stopped,bundle,org.eclipse.rse.subsystems.files.core,3.2.101.R33x_v201107181530,"org.eclipse.rse.subsystems.files.core",1380507956256
stopped,bundle,org.eclipse.rse.subsystems.processes.shell.linux,1.1.300.v201101042155,"org.eclipse.rse.subsystems.processes.shell.linux",1380507956256
stopped,bundle,org.eclipse.rse.subsystems.processes.core,3.1.200.v201101042155,"org.eclipse.rse.subsystems.processes.core",1380507956256
stopped,bundle,org.eclipse.rse.terminals.ui,1.1.0.v201101042155,"org.eclipse.rse.terminals.ui",1380507956256
stopped,bundle,org.eclipse.rse.ui,3.2.1.R33x_v201109141647,"org.eclipse.rse.ui",1380507956256
stopped,bundle,org.python.pydev.jython,2.7.3.2013031601,"org.python.pydev.jython",1380507956256
stopped,bundle,org.python.pydev.parser,2.7.3.2013031601,"org.python.pydev.parser",1380507956256
stopped,bundle,org.python.pydev.core,2.7.3.2013031601,"org.python.pydev.core",1380507956256
stopped,bundle,org.eclipse.ui.console,3.5.100.v20111007_r372,"org.eclipse.ui.console",1380507956256
stopped,bundle,org.eclipse.wb.css,1.5.2.r37x201303061510,"org.eclipse.wb.css",1380507956256
stopped,bundle,org.eclipse.wb.layout.group,1.3.0.r37x201202060028,"org.eclipse.wb.layout.group",1380507956256
stopped,bundle,org.eclipse.wb.os.win32,1.5.2.r37x201303061457,"org.eclipse.wb.os.win32",1380507956256
stopped,bundle,org.eclipse.wb.core,1.5.2.r37x201303061457,"org.eclipse.wb.core",1380507956256
