what,kind,bundleId,bundleVersion,description,time
started,bundle,org.eclipse.epp.usagedata.gathering,1.3.1.R201106061540,"org.eclipse.epp.usagedata.gathering",1380046017856
started,bundle,org.eclipse.epp.usagedata.recording,1.3.1.R201106061540,"org.eclipse.epp.usagedata.recording",1380046017856
started,bundle,org.eclipse.equinox.app,1.3.100.v20110321,"org.eclipse.equinox.app",1380046017856
started,bundle,org.eclipse.equinox.common,3.6.0.v20110523,"org.eclipse.equinox.common",1380046017856
started,bundle,org.eclipse.equinox.ds,1.3.1.R37x_v20110701,"org.eclipse.equinox.ds",1380046017856
started,bundle,org.eclipse.equinox.event,1.2.100.v20110502,"org.eclipse.equinox.event",1380046017856
started,bundle,org.eclipse.equinox.p2.artifact.repository,1.1.101.v20110815-1419,"org.eclipse.equinox.p2.artifact.repository",1380046017856
started,bundle,org.eclipse.equinox.p2.core,2.1.1.v20120113-1346,"org.eclipse.equinox.p2.core",1380046017857
started,bundle,org.eclipse.equinox.p2.director,2.1.1.v20111126-0211,"org.eclipse.equinox.p2.director",1380046017857
started,bundle,org.eclipse.equinox.p2.directorywatcher,1.0.300.v20110815-1419,"org.eclipse.equinox.p2.directorywatcher",1380046017857
started,bundle,org.eclipse.equinox.p2.engine,2.1.1.R37x_v20111003,"org.eclipse.equinox.p2.engine",1380046017857
started,bundle,org.eclipse.equinox.p2.extensionlocation,1.2.100.v20110815-1419,"org.eclipse.equinox.p2.extensionlocation",1380046017857
started,bundle,org.eclipse.equinox.p2.garbagecollector,1.0.200.v20110815-1419,"org.eclipse.equinox.p2.garbagecollector",1380046017857
started,bundle,org.eclipse.equinox.p2.metadata,2.1.0.v20110815-1419,"org.eclipse.equinox.p2.metadata",1380046017857
started,bundle,org.eclipse.equinox.p2.metadata.repository,1.2.0.v20110815-1419,"org.eclipse.equinox.p2.metadata.repository",1380046017857
started,bundle,org.eclipse.equinox.p2.operations,2.1.1.R37x_v20111111,"org.eclipse.equinox.p2.operations",1380046017876
started,bundle,org.eclipse.equinox.p2.publisher,1.2.0.v20110815-1419,"org.eclipse.equinox.p2.publisher",1380046017895
started,bundle,org.eclipse.equinox.p2.publisher.eclipse,1.0.0.v20110815-1438,"org.eclipse.equinox.p2.publisher.eclipse",1380046017895
started,bundle,org.eclipse.equinox.p2.reconciler.dropins,1.1.100.v20110815-1419,"org.eclipse.equinox.p2.reconciler.dropins",1380046017895
started,bundle,org.eclipse.equinox.p2.repository,2.1.1.v20120113-1346,"org.eclipse.equinox.p2.repository",1380046017924
started,bundle,org.eclipse.equinox.p2.touchpoint.eclipse,2.1.1.v20110815-1419,"org.eclipse.equinox.p2.touchpoint.eclipse",1380046017924
started,bundle,org.eclipse.equinox.p2.transport.ecf,1.0.0.v20111128-0624,"org.eclipse.equinox.p2.transport.ecf",1380046017925
started,bundle,org.eclipse.equinox.p2.ui.sdk.scheduler,1.0.100.v20110815-1419,"org.eclipse.equinox.p2.ui.sdk.scheduler",1380046017925
started,bundle,org.eclipse.equinox.p2.updatechecker,1.1.200.v20110815-1419,"org.eclipse.equinox.p2.updatechecker",1380046017925
started,bundle,org.eclipse.equinox.p2.updatesite,1.0.300.v20110815-1419,"org.eclipse.equinox.p2.updatesite",1380046017925
started,bundle,org.eclipse.equinox.preferences,3.4.2.v20120111-2020,"org.eclipse.equinox.preferences",1380046017925
started,bundle,org.eclipse.equinox.registry,3.5.101.R37x_v20110810-1611,"org.eclipse.equinox.registry",1380046017925
started,bundle,org.eclipse.equinox.security,1.1.1.R37x_v20110822-1018,"org.eclipse.equinox.security",1380046017925
started,bundle,org.eclipse.equinox.util,1.0.300.v20110502,"org.eclipse.equinox.util",1380046017925
started,bundle,org.eclipse.help,3.5.100.v20110426,"org.eclipse.help",1380046017925
started,bundle,org.eclipse.jdt.apt.core,3.3.500.v20110420-1015,"org.eclipse.jdt.apt.core",1380046017925
started,bundle,org.eclipse.jdt.apt.pluggable.core,1.0.400.v20110305-1450,"org.eclipse.jdt.apt.pluggable.core",1380046017925
started,bundle,org.eclipse.jdt.core,3.7.3.v20120119-1537,"org.eclipse.jdt.core",1380046017925
started,bundle,org.eclipse.jdt.core.manipulation,1.4.0.v20110928-1453,"org.eclipse.jdt.core.manipulation",1380046017925
started,bundle,org.eclipse.jdt.debug,3.7.1.v20111006_r372,"org.eclipse.jdt.debug",1380046017925
started,bundle,org.eclipse.jdt.debug.ui,3.6.1.v20111006_r372,"org.eclipse.jdt.debug.ui",1380046017925
started,bundle,org.eclipse.jdt.launching,3.6.1.v20111006_r372,"org.eclipse.jdt.launching",1380046017925
started,bundle,org.eclipse.jdt.ui,3.7.2.v20120109-1427,"org.eclipse.jdt.ui",1380046017925
started,bundle,org.eclipse.jface,3.7.0.v20110928-1505,"org.eclipse.jface",1380046017925
started,bundle,org.eclipse.jgit,1.3.0.201202151440-r,"org.eclipse.jgit",1380046017925
started,bundle,org.eclipse.jsch.core,1.1.300.I20110514-0800,"org.eclipse.jsch.core",1380046017925
started,bundle,org.eclipse.ltk.core.refactoring,3.5.201.r372_v20111101-0700,"org.eclipse.ltk.core.refactoring",1380046017925
started,bundle,org.eclipse.ltk.ui.refactoring,3.6.0.v20110928-1453,"org.eclipse.ltk.ui.refactoring",1380046017925
started,bundle,org.eclipse.m2e.logback.configuration,1.0.200.20111228-1245,"org.eclipse.m2e.logback.configuration",1380046017925
started,bundle,org.eclipse.mylyn.bugzilla.core,3.8.3.v20130107-0100,"org.eclipse.mylyn.bugzilla.core",1380046017925
started,bundle,org.eclipse.mylyn.bugzilla.ui,3.8.3.v20130107-0100,"org.eclipse.mylyn.bugzilla.ui",1380046017925
started,bundle,org.eclipse.mylyn.commons.core,3.8.4.v20130429-0100,"org.eclipse.mylyn.commons.core",1380046017925
started,bundle,org.eclipse.mylyn.commons.net,3.8.3.v20130107-0100,"org.eclipse.mylyn.commons.net",1380046017925
started,bundle,org.eclipse.mylyn.commons.notifications.core,1.0.3.v20130107-0100,"org.eclipse.mylyn.commons.notifications.core",1380046017926
started,bundle,org.eclipse.mylyn.commons.notifications.feed,1.0.3.v20130107-0100,"org.eclipse.mylyn.commons.notifications.feed",1380046017926
started,bundle,org.eclipse.mylyn.commons.ui,3.8.4.v20130429-0100,"org.eclipse.mylyn.commons.ui",1380046017926
started,bundle,org.eclipse.mylyn.commons.workbench,3.8.4.v20130429-0100,"org.eclipse.mylyn.commons.workbench",1380046017926
started,bundle,org.eclipse.mylyn.context.core,3.8.3.v20130107-0100,"org.eclipse.mylyn.context.core",1380046017926
started,bundle,org.eclipse.mylyn.context.tasks.ui,3.8.3.v20130107-0100,"org.eclipse.mylyn.context.tasks.ui",1380046017926
started,bundle,org.eclipse.mylyn.monitor.ui,3.8.3.v20130107-0100,"org.eclipse.mylyn.monitor.ui",1380046017926
started,bundle,org.eclipse.mylyn.tasks.ui,3.8.3.v20130107-0100,"org.eclipse.mylyn.tasks.ui",1380046017926
started,bundle,org.eclipse.mylyn.team.ui,3.8.3.v20130107-0100,"org.eclipse.mylyn.team.ui",1380046017926
started,bundle,org.eclipse.team.core,3.6.0.I20110525-0800,"org.eclipse.team.core",1380046017926
started,bundle,org.eclipse.team.cvs.core,3.3.400.I20110510-0800,"org.eclipse.team.cvs.core",1380046017926
started,bundle,org.eclipse.team.cvs.ui,3.3.401.v20120126-1227,"org.eclipse.team.cvs.ui",1380046017926
started,bundle,org.eclipse.team.ui,3.6.101.R37x_v20111109-0800,"org.eclipse.team.ui",1380046017926
started,bundle,org.eclipse.ui,3.7.0.v20110928-1505,"org.eclipse.ui",1380046017926
started,bundle,org.eclipse.ui.console,3.5.100.v20111007_r372,"org.eclipse.ui.console",1380046017926
started,bundle,org.eclipse.ui.editors,3.7.0.v20110928-1504,"org.eclipse.ui.editors",1380046017926
started,bundle,org.eclipse.ui.forms,3.5.101.v20111011-1919,"org.eclipse.ui.forms",1380046017932
started,bundle,org.eclipse.ui.ide,3.7.0.v20110928-1505,"org.eclipse.ui.ide",1380046017932
started,bundle,org.eclipse.ui.navigator,3.5.101.v20120106-1355,"org.eclipse.ui.navigator",1380046017932
started,bundle,org.eclipse.ui.net,1.2.100.v20111208-1155,"org.eclipse.ui.net",1380046017932
started,bundle,org.eclipse.ui.views,3.6.0.v20110928-1505,"org.eclipse.ui.views",1380046017932
started,bundle,org.eclipse.ui.workbench,3.7.1.v20120104-1859,"org.eclipse.ui.workbench",1380046017932
started,bundle,org.eclipse.ui.workbench.texteditor,3.7.0.v20110928-1504,"org.eclipse.ui.workbench.texteditor",1380046017932
started,bundle,org.eclipse.update.configurator,3.3.100.v20100512,"org.eclipse.update.configurator",1380046017933
started,bundle,org.eclipse.update.core,3.2.500.v20110330,"org.eclipse.update.core",1380046017933
started,bundle,org.eclipse.update.scheduler,3.2.300.v20100512,"org.eclipse.update.scheduler",1380046017933
started,bundle,org.eclipse.wb.core,1.5.2.r37x201303061457,"org.eclipse.wb.core",1380046017933
started,bundle,org.eclipse.wb.core.java,1.5.2.r37x201303061505,"org.eclipse.wb.core.java",1380046017933
started,bundle,org.eclipse.wb.core.lib,1.5.2.r37x201303061457,"org.eclipse.wb.core.lib",1380046017933
started,bundle,org.eclipse.wb.discovery.core,1.5.2.r37x201303061516,"org.eclipse.wb.discovery.core",1380046017933
started,bundle,org.eclipse.wb.discovery.ui,1.5.2.r37x201303061516,"org.eclipse.wb.discovery.ui",1380046017933
started,bundle,org.python.pydev,2.7.3.2013031601,"org.python.pydev",1380046017933
started,bundle,org.python.pydev.core,2.7.3.2013031601,"org.python.pydev.core",1380046017933
started,bundle,org.python.pydev.debug,2.7.3.2013031601,"org.python.pydev.debug",1380046017933
started,bundle,org.python.pydev.shared_core,2.7.3.2013031601,"org.python.pydev.shared_core",1380046017933
started,bundle,org.python.pydev.shared_interactive_console,2.7.3.2013031601,"org.python.pydev.shared_interactive_console",1380046017933
started,bundle,org.python.pydev.shared_ui,2.7.3.2013031601,"org.python.pydev.shared_ui",1380046017933
os,sysinfo,,,"win32",1380046017935
arch,sysinfo,,,"x86",1380046017935
ws,sysinfo,,,"win32",1380046017935
locale,sysinfo,,,"en_CA",1380046017935
processors,sysinfo,,,"4",1380046017935
java.runtime.name,sysinfo,,,"Java(TM) SE Runtime Environment",1380046017935
java.runtime.version,sysinfo,,,"1.7.0_25-b17",1380046017935
java.specification.name,sysinfo,,,"Java Platform API Specification",1380046017935
java.specification.vendor,sysinfo,,,"Oracle Corporation",1380046017935
java.specification.version,sysinfo,,,"1.7",1380046017935
java.vendor,sysinfo,,,"Oracle Corporation",1380046017935
java.version,sysinfo,,,"1.7.0_25",1380046017935
java.vm.info,sysinfo,,,"mixed mode, sharing",1380046017935
java.vm.name,sysinfo,,,"Java HotSpot(TM) Client VM",1380046017935
java.vm.specification.name,sysinfo,,,"Java Virtual Machine Specification",1380046017935
java.vm.specification.vendor,sysinfo,,,"Oracle Corporation",1380046017935
java.vm.specification.version,sysinfo,,,"1.7",1380046017935
java.vm.vendor,sysinfo,,,"Oracle Corporation",1380046017935
java.vm.version,sysinfo,,,"23.25-b01",1380046017935
started,bundle,org.eclipse.m2e.usagedata,1.0.200.20111228-1245,"org.eclipse.m2e.usagedata",1380046017937
deactivated,workbench,org.eclipse.ui.workbench,3.7.1.v20120104-1859,"",1380046394657
activated,workbench,org.eclipse.ui.workbench,3.7.1.v20120104-1859,"",1380047252383
deactivated,workbench,org.eclipse.ui.workbench,3.7.1.v20120104-1859,"",1380047253039
activated,workbench,org.eclipse.ui.workbench,3.7.1.v20120104-1859,"",1380049545871
deactivated,workbench,org.eclipse.ui.workbench,3.7.1.v20120104-1859,"",1380049546684
activated,workbench,org.eclipse.ui.workbench,3.7.1.v20120104-1859,"",1380050314966
started,bundle,org.eclipse.jdt.junit,3.7.0.v20110928-1453,"org.eclipse.jdt.junit",1380050323288
started,bundle,org.eclipse.mylyn.java.ui,3.8.3.v20130107-0100,"org.eclipse.mylyn.java.ui",1380050324345
opened,editor,org.eclipse.jdt.ui,3.7.2.v20120109-1427,"org.eclipse.jdt.ui.CompilationUnitEditor",1380050366322
activated,editor,org.eclipse.jdt.ui,3.7.2.v20120109-1427,"org.eclipse.jdt.ui.CompilationUnitEditor",1380050366344
started,bundle,org.eclipse.cdt.debug.core,7.1.0.201202111925,"org.eclipse.cdt.debug.core",1380050366748
started,bundle,org.eclipse.cdt.debug.ui,7.1.2.201202111925,"org.eclipse.cdt.debug.ui",1380050366754
started,bundle,org.eclipse.tm.tcf,0.4.0.201106081058,"org.eclipse.tm.tcf",1380050366857
started,bundle,org.eclipse.tm.tcf.core,0.4.0.201106081058,"org.eclipse.tm.tcf.core",1380050366858
started,bundle,org.eclipse.tm.tcf.debug.ui,0.4.0.201106081058,"org.eclipse.tm.tcf.debug.ui",1380050366858
started,bundle,org.eclipse.tm.tcf.cdt.ui,0.4.0.201106081058,"org.eclipse.tm.tcf.cdt.ui",1380050366877
started,bundle,org.eclipse.tm.tcf.debug,0.4.0.201106081058,"org.eclipse.tm.tcf.debug",1380050367231
started,bundle,com.google.gdt.eclipse.maven,3.3.0.v201307162142-rel-r37,"com.google.gdt.eclipse.maven",1380050367786
started,bundle,com.google.gdt.eclipse.suite,3.3.0.v201307162142-rel-r37,"com.google.gdt.eclipse.suite",1380050367789
deactivated,workbench,org.eclipse.ui.workbench,3.7.1.v20120104-1859,"",1380050367881
activated,workbench,org.eclipse.ui.workbench,3.7.1.v20120104-1859,"",1380050370331
deactivated,workbench,org.eclipse.ui.workbench,3.7.1.v20120104-1859,"",1380050370491
started,bundle,org.eclipse.core.variables,3.2.500.v20110928-1503,"org.eclipse.core.variables",1380050370898
started,bundle,org.eclipse.m2e.launching,1.0.200.20111228-1245,"org.eclipse.m2e.launching",1380050371149
started,bundle,org.eclipse.cdt.debug.mi.ui,6.1.1.201202111925,"org.eclipse.cdt.debug.mi.ui",1380050371287
started,bundle,org.eclipse.cdt.debug.mi.core,7.1.1.201202111925,"org.eclipse.cdt.debug.mi.core",1380050371427
activated,workbench,org.eclipse.ui.workbench,3.7.1.v20120104-1859,"",1380050371544
deactivated,workbench,org.eclipse.ui.workbench,3.7.1.v20120104-1859,"",1380050373066
activated,workbench,org.eclipse.ui.workbench,3.7.1.v20120104-1859,"",1380050389179
activated,editor,org.eclipse.jdt.ui,3.7.2.v20120109-1427,"org.eclipse.jdt.ui.CompilationUnitEditor",1380050391092
deactivated,workbench,org.eclipse.ui.workbench,3.7.1.v20120104-1859,"",1380050398307
activated,workbench,org.eclipse.ui.workbench,3.7.1.v20120104-1859,"",1380051254593
deactivated,workbench,org.eclipse.ui.workbench,3.7.1.v20120104-1859,"",1380051399124
activated,workbench,org.eclipse.ui.workbench,3.7.1.v20120104-1859,"",1380051997201
activated,view,org.eclipse.jdt.ui,3.7.2.v20120109-1427,"org.eclipse.jdt.ui.PackageExplorer",1380051998719
started,bundle,org.eclipse.wst.common.project.facet.core,1.4.201.v201201101553,"org.eclipse.wst.common.project.facet.core",1380052000123
started,bundle,org.eclipse.jst.common.project.facet.core,1.4.200.v201103170302,"org.eclipse.jst.common.project.facet.core",1380052000154
started,bundle,org.eclipse.jpt.common.core,1.0.2.v201111103010,"org.eclipse.jpt.common.core",1380052000165
stopped,bundle,org.eclipse.jpt.jpa.core,3.0.2.v201201243020,"org.eclipse.jpt.jpa.core",1380052000180
error,log,,,"An error occurred while automatically activating bundle org.eclipse.jpt.jpa.core (321).",1380052000226
error,log,,,"Could not create content describer for org.eclipse.jpt.jpa.core.content.baseJpaContent. Content type has been disabled.",1380052000228
started,bundle,org.eclipse.wst.sse.core,1.1.602.v201112071516,"org.eclipse.wst.sse.core",1380052000272
started,bundle,org.eclipse.mylyn.context.ui,3.8.3.v20130107-0100,"org.eclipse.mylyn.context.ui",1380052005849
deactivated,workbench,org.eclipse.ui.workbench,3.7.1.v20120104-1859,"",1380052006688
started,bundle,org.eclipse.emf.common,2.7.0.v20120127-1122,"org.eclipse.emf.common",1380052008224
started,bundle,org.eclipse.wst.common.frameworks,1.2.102.v201201190400,"org.eclipse.wst.common.frameworks",1380052008232
started,bundle,org.eclipse.wst.common.emf,1.2.100.v201101101900,"org.eclipse.wst.common.emf",1380052008326
started,bundle,org.eclipse.emf.ecore,2.7.0.v20120127-1122,"org.eclipse.emf.ecore",1380052008355
started,bundle,org.eclipse.jem.util,2.1.100.v201103021400,"org.eclipse.jem.util",1380052008377
started,bundle,org.eclipse.emf.ecore.xmi,2.7.0.v20120127-1122,"org.eclipse.emf.ecore.xmi",1380052008393
started,bundle,org.eclipse.wst.common.emfworkbench.integration,1.2.101.v201107140600,"org.eclipse.wst.common.emfworkbench.integration",1380052008394
started,bundle,org.eclipse.wst.common.core,1.2.0.v200908252030,"org.eclipse.wst.common.core",1380052008447
started,bundle,org.eclipse.wst.common.modulecore,1.2.103.v201201190400,"org.eclipse.wst.common.modulecore",1380052008449
started,bundle,org.eclipse.jst.j2ee.core,1.2.102.v201202090300,"org.eclipse.jst.j2ee.core",1380052008468
started,bundle,org.eclipse.jem,2.0.501.v201111030500,"org.eclipse.jem",1380052008511
started,bundle,org.eclipse.wst.common.frameworks.ui,1.2.100.v201105122000,"org.eclipse.wst.common.frameworks.ui",1380052008550
started,bundle,org.eclipse.wst.xml.core,1.1.602.v201201091944,"org.eclipse.wst.xml.core",1380052008561
started,bundle,org.eclipse.wst.validation,1.2.303.v201202090300,"org.eclipse.wst.validation",1380052008579
started,bundle,org.eclipse.jst.j2ee,1.1.503.v201202090300,"org.eclipse.jst.j2ee",1380052008600
error,log,,,"Participant 'org.eclipse.jpt.jpa.core.refactoring.jpaDeleteTypeParticipant' removed due to the following exception",1380052008647
started,bundle,org.eclipse.compare,3.5.202.R37x_v20111109-0800,"org.eclipse.compare",1380052008714
started,bundle,org.eclipse.wst.jsdt.manipulation,1.0.300.v201104272153,"org.eclipse.wst.jsdt.manipulation",1380052010585
started,bundle,org.eclipse.wst.jsdt.core,1.1.102.v201111090634,"org.eclipse.wst.jsdt.core",1380052010757
started,bundle,org.eclipse.wst.jsdt.ui,1.1.102.v201201131900,"org.eclipse.wst.jsdt.ui",1380052010851
activated,workbench,org.eclipse.ui.workbench,3.7.1.v20120104-1859,"",1380052011227
executed,command,org.eclipse.ui,3.7.0.v20110928-1505,"org.eclipse.ui.edit.delete",1380052011255
deactivated,workbench,org.eclipse.ui.workbench,3.7.1.v20120104-1859,"",1380052012240
error,log,,,"Participant 'org.eclipse.jpt.jpa.core.refactoring.jpaDeletePackageOrFolderParticipant' removed due to the following exception",1380052013207
activated,workbench,org.eclipse.ui.workbench,3.7.1.v20120104-1859,"",1380052014191
executed,command,org.eclipse.ui,3.7.0.v20110928-1505,"org.eclipse.ui.edit.delete",1380052014200
deactivated,workbench,org.eclipse.ui.workbench,3.7.1.v20120104-1859,"",1380052015278
activated,workbench,org.eclipse.ui.workbench,3.7.1.v20120104-1859,"",1380052016167
executed,command,org.eclipse.ui,3.7.0.v20110928-1505,"org.eclipse.ui.edit.delete",1380052016176
deactivated,workbench,org.eclipse.ui.workbench,3.7.1.v20120104-1859,"",1380052017374
activated,workbench,org.eclipse.ui.workbench,3.7.1.v20120104-1859,"",1380052018180
executed,command,org.eclipse.ui,3.7.0.v20110928-1505,"org.eclipse.ui.edit.delete",1380052018187
deactivated,workbench,org.eclipse.ui.workbench,3.7.1.v20120104-1859,"",1380052020863
activated,workbench,org.eclipse.ui.workbench,3.7.1.v20120104-1859,"",1380052021646
executed,command,org.eclipse.ui,3.7.0.v20110928-1505,"org.eclipse.ui.edit.delete",1380052021656
opened,editor,org.eclipse.jdt.ui,3.7.2.v20120109-1427,"org.eclipse.jdt.ui.CompilationUnitEditor",1380052025131
activated,editor,org.eclipse.jdt.ui,3.7.2.v20120109-1427,"org.eclipse.jdt.ui.CompilationUnitEditor",1380052025165
activated,editor,org.eclipse.jdt.ui,3.7.2.v20120109-1427,"org.eclipse.jdt.ui.CompilationUnitEditor",1380052025875
closed,editor,org.eclipse.jdt.ui,3.7.2.v20120109-1427,"org.eclipse.jdt.ui.CompilationUnitEditor",1380052025885
opened,editor,org.eclipse.jdt.ui,3.7.2.v20120109-1427,"org.eclipse.jdt.ui.CompilationUnitEditor",1380052026580
activated,editor,org.eclipse.jdt.ui,3.7.2.v20120109-1427,"org.eclipse.jdt.ui.CompilationUnitEditor",1380052026604
activated,editor,org.eclipse.jdt.ui,3.7.2.v20120109-1427,"org.eclipse.jdt.ui.CompilationUnitEditor",1380052027223
closed,editor,org.eclipse.jdt.ui,3.7.2.v20120109-1427,"org.eclipse.jdt.ui.CompilationUnitEditor",1380052027223
deactivated,workbench,org.eclipse.ui.workbench,3.7.1.v20120104-1859,"",1380052064380
activated,workbench,org.eclipse.ui.workbench,3.7.1.v20120104-1859,"",1380052093842
deactivated,workbench,org.eclipse.ui.workbench,3.7.1.v20120104-1859,"",1380052121746
activated,workbench,org.eclipse.ui.workbench,3.7.1.v20120104-1859,"",1380052347131
deactivated,workbench,org.eclipse.ui.workbench,3.7.1.v20120104-1859,"",1380052384445
activated,workbench,org.eclipse.ui.workbench,3.7.1.v20120104-1859,"",1380052783512
activated,view,org.eclipse.jdt.ui,3.7.2.v20120109-1427,"org.eclipse.jdt.ui.PackageExplorer",1380052786612
deactivated,workbench,org.eclipse.ui.workbench,3.7.1.v20120104-1859,"",1380052793790
error,log,,,"Participant 'org.eclipse.jpt.jpa.core.ltk.jpaRenameTypeParticipant' removed due to the following exception",1380052799591
started,bundle,org.eclipse.ant.ui,3.5.101.v20120110-1739,"org.eclipse.ant.ui",1380052799607
activated,workbench,org.eclipse.ui.workbench,3.7.1.v20120104-1859,"",1380052802051
executed,command,org.eclipse.jdt.ui,3.7.2.v20120109-1427,"org.eclipse.jdt.ui.edit.text.java.rename.element",1380052802061
activated,editor,org.eclipse.jdt.ui,3.7.2.v20120109-1427,"org.eclipse.jdt.ui.CompilationUnitEditor",1380052814340
executed,command,org.eclipse.ui,3.7.0.v20110928-1505,"org.eclipse.ui.edit.cut",1380052847393
executed,command,org.eclipse.ui,3.7.0.v20110928-1505,"org.eclipse.ui.edit.paste",1380052849719
started,bundle,org.eclipse.mylyn.java.tasks,3.8.3.v20130107-0100,"org.eclipse.mylyn.java.tasks",1380052849819
started,bundle,org.eclipse.cdt.launch,7.0.0.201202111925,"org.eclipse.cdt.launch",1380052993653
activated,editor,org.eclipse.jdt.ui,3.7.2.v20120109-1427,"org.eclipse.jdt.ui.CompilationUnitEditor",1380052994578
deactivated,workbench,org.eclipse.ui.workbench,3.7.1.v20120104-1859,"",1380052995413
activated,workbench,org.eclipse.ui.workbench,3.7.1.v20120104-1859,"",1380052996584
deactivated,workbench,org.eclipse.ui.workbench,3.7.1.v20120104-1859,"",1380052996955
activated,workbench,org.eclipse.ui.workbench,3.7.1.v20120104-1859,"",1380053000309
activated,editor,org.eclipse.jdt.ui,3.7.2.v20120109-1427,"org.eclipse.jdt.ui.CompilationUnitEditor",1380053011140
deactivated,workbench,org.eclipse.ui.workbench,3.7.1.v20120104-1859,"",1380053051988
activated,workbench,org.eclipse.ui.workbench,3.7.1.v20120104-1859,"",1380053060927
deactivated,workbench,org.eclipse.ui.workbench,3.7.1.v20120104-1859,"",1380053070769
activated,workbench,org.eclipse.ui.workbench,3.7.1.v20120104-1859,"",1380053082121
activated,view,org.eclipse.jdt.ui,3.7.2.v20120109-1427,"org.eclipse.jdt.ui.PackageExplorer",1380053100227
opened,editor,org.eclipse.jdt.ui,3.7.2.v20120109-1427,"org.eclipse.jdt.ui.CompilationUnitEditor",1380053114920
activated,editor,org.eclipse.jdt.ui,3.7.2.v20120109-1427,"org.eclipse.jdt.ui.CompilationUnitEditor",1380053114942
activated,editor,org.eclipse.jdt.ui,3.7.2.v20120109-1427,"org.eclipse.jdt.ui.CompilationUnitEditor",1380053116104
closed,editor,org.eclipse.jdt.ui,3.7.2.v20120109-1427,"org.eclipse.jdt.ui.CompilationUnitEditor",1380053116105
activated,view,org.eclipse.jdt.ui,3.7.2.v20120109-1427,"org.eclipse.jdt.ui.PackageExplorer",1380053119339
activated,editor,org.eclipse.jdt.ui,3.7.2.v20120109-1427,"org.eclipse.jdt.ui.CompilationUnitEditor",1380053127121
deactivated,workbench,org.eclipse.ui.workbench,3.7.1.v20120104-1859,"",1380053274606
activated,workbench,org.eclipse.ui.workbench,3.7.1.v20120104-1859,"",1380053498391
deactivated,workbench,org.eclipse.ui.workbench,3.7.1.v20120104-1859,"",1380053498962
activated,workbench,org.eclipse.ui.workbench,3.7.1.v20120104-1859,"",1380057029087
started,bundle,org.eclipse.epp.usagedata.ui,1.3.1.R201106061540,"org.eclipse.epp.usagedata.ui",1380057029107
deactivated,workbench,org.eclipse.ui.workbench,3.7.1.v20120104-1859,"",1380057029347
activated,workbench,org.eclipse.ui.workbench,3.7.1.v20120104-1859,"",1380057030962
activated,view,org.eclipse.jdt.ui,3.7.2.v20120109-1427,"org.eclipse.jdt.ui.PackageExplorer",1380057140868
deactivated,workbench,org.eclipse.ui.workbench,3.7.1.v20120104-1859,"",1380057143083
activated,workbench,org.eclipse.ui.workbench,3.7.1.v20120104-1859,"",1380057146880
opened,editor,org.eclipse.jdt.ui,3.7.2.v20120109-1427,"org.eclipse.jdt.ui.CompilationUnitEditor",1380057146956
activated,editor,org.eclipse.jdt.ui,3.7.2.v20120109-1427,"org.eclipse.jdt.ui.CompilationUnitEditor",1380057146990
activated,view,org.eclipse.jdt.ui,3.7.2.v20120109-1427,"org.eclipse.jdt.ui.PackageExplorer",1380057148297
deactivated,workbench,org.eclipse.ui.workbench,3.7.1.v20120104-1859,"",1380057151584
activated,workbench,org.eclipse.ui.workbench,3.7.1.v20120104-1859,"",1380057153794
opened,editor,org.eclipse.jdt.ui,3.7.2.v20120109-1427,"org.eclipse.jdt.ui.CompilationUnitEditor",1380057153897
activated,editor,org.eclipse.jdt.ui,3.7.2.v20120109-1427,"org.eclipse.jdt.ui.CompilationUnitEditor",1380057153930
activated,view,org.eclipse.jdt.ui,3.7.2.v20120109-1427,"org.eclipse.jdt.ui.PackageExplorer",1380057155781
activated,editor,org.eclipse.jdt.ui,3.7.2.v20120109-1427,"org.eclipse.jdt.ui.CompilationUnitEditor",1380057156081
executed,command,org.eclipse.ui,3.7.0.v20110928-1505,"org.eclipse.ui.file.saveAll",1380057158191
activated,view,org.eclipse.jdt.ui,3.7.2.v20120109-1427,"org.eclipse.jdt.ui.PackageExplorer",1380057163669
deactivated,workbench,org.eclipse.ui.workbench,3.7.1.v20120104-1859,"",1380057170428
activated,workbench,org.eclipse.ui.workbench,3.7.1.v20120104-1859,"",1380057177980
executed,command,org.eclipse.jdt.ui,3.7.2.v20120109-1427,"org.eclipse.jdt.ui.edit.text.java.rename.element",1380057177986
