what,kind,bundleId,bundleVersion,description,time
activated,editor,org.eclipse.jdt.ui,3.7.2.v20120109-1427,"org.eclipse.jdt.ui.CompilationUnitEditor",1376691095577
closed,editor,org.eclipse.jdt.ui,3.7.2.v20120109-1427,"org.eclipse.jdt.ui.CompilationUnitEditor",1376691095577
deactivated,workbench,org.eclipse.ui.workbench,3.7.1.v20120104-1859,"",1376691103634
activated,workbench,org.eclipse.ui.workbench,3.7.1.v20120104-1859,"",1376691128391
deactivated,workbench,org.eclipse.ui.workbench,3.7.1.v20120104-1859,"",1376691175589
activated,workbench,org.eclipse.ui.workbench,3.7.1.v20120104-1859,"",1376691198399
activated,editor,org.eclipse.jdt.ui,3.7.2.v20120109-1427,"org.eclipse.jdt.ui.CompilationUnitEditor",1376691206520
deactivated,workbench,org.eclipse.ui.workbench,3.7.1.v20120104-1859,"",1376691207381
activated,workbench,org.eclipse.ui.workbench,3.7.1.v20120104-1859,"",1376691208430
deactivated,workbench,org.eclipse.ui.workbench,3.7.1.v20120104-1859,"",1376691208781
activated,workbench,org.eclipse.ui.workbench,3.7.1.v20120104-1859,"",1376691236731
activated,editor,org.eclipse.jdt.ui,3.7.2.v20120109-1427,"org.eclipse.jdt.ui.CompilationUnitEditor",1376691242770
activated,editor,org.eclipse.jdt.ui,3.7.2.v20120109-1427,"org.eclipse.jdt.ui.CompilationUnitEditor",1376691243302
deactivated,workbench,org.eclipse.ui.workbench,3.7.1.v20120104-1859,"",1376691271236
activated,workbench,org.eclipse.ui.workbench,3.7.1.v20120104-1859,"",1376691296120
deactivated,workbench,org.eclipse.ui.workbench,3.7.1.v20120104-1859,"",1376691307121
activated,workbench,org.eclipse.ui.workbench,3.7.1.v20120104-1859,"",1376691471854
executed,command,org.eclipse.ui,3.7.0.v20110928-1505,"org.eclipse.ui.edit.cut",1376691496274
executed,command,org.eclipse.ui,3.7.0.v20110928-1505,"org.eclipse.ui.edit.paste",1376691498879
activated,editor,org.eclipse.jdt.ui,3.7.2.v20120109-1427,"org.eclipse.jdt.ui.CompilationUnitEditor",1376691501248
deactivated,workbench,org.eclipse.ui.workbench,3.7.1.v20120104-1859,"",1376691501830
activated,workbench,org.eclipse.ui.workbench,3.7.1.v20120104-1859,"",1376691502846
deactivated,workbench,org.eclipse.ui.workbench,3.7.1.v20120104-1859,"",1376691503220
activated,workbench,org.eclipse.ui.workbench,3.7.1.v20120104-1859,"",1376691530388
activated,editor,org.eclipse.jdt.ui,3.7.2.v20120109-1427,"org.eclipse.jdt.ui.CompilationUnitEditor",1376691533189
deactivated,workbench,org.eclipse.ui.workbench,3.7.1.v20120104-1859,"",1376691552567
activated,workbench,org.eclipse.ui.workbench,3.7.1.v20120104-1859,"",1376691555316
activated,editor,org.eclipse.jdt.ui,3.7.2.v20120109-1427,"org.eclipse.jdt.ui.CompilationUnitEditor",1376691560343
deactivated,workbench,org.eclipse.ui.workbench,3.7.1.v20120104-1859,"",1376691560892
activated,workbench,org.eclipse.ui.workbench,3.7.1.v20120104-1859,"",1376691561997
deactivated,workbench,org.eclipse.ui.workbench,3.7.1.v20120104-1859,"",1376691562352
activated,workbench,org.eclipse.ui.workbench,3.7.1.v20120104-1859,"",1376691573616
activated,editor,org.eclipse.jdt.ui,3.7.2.v20120109-1427,"org.eclipse.jdt.ui.CompilationUnitEditor",1376691576380
deactivated,workbench,org.eclipse.ui.workbench,3.7.1.v20120104-1859,"",1376691596593
activated,workbench,org.eclipse.ui.workbench,3.7.1.v20120104-1859,"",1376691655006
deactivated,workbench,org.eclipse.ui.workbench,3.7.1.v20120104-1859,"",1376691664352
activated,workbench,org.eclipse.ui.workbench,3.7.1.v20120104-1859,"",1376691762660
deactivated,workbench,org.eclipse.ui.workbench,3.7.1.v20120104-1859,"",1376691773348
activated,workbench,org.eclipse.ui.workbench,3.7.1.v20120104-1859,"",1376691810320
activated,view,org.eclipse.jdt.ui,3.7.2.v20120109-1427,"org.eclipse.jdt.ui.PackageExplorer",1376691838657
activated,editor,org.eclipse.jdt.ui,3.7.2.v20120109-1427,"org.eclipse.jdt.ui.CompilationUnitEditor",1376691841448
deactivated,workbench,org.eclipse.ui.workbench,3.7.1.v20120104-1859,"",1376691853613
activated,workbench,org.eclipse.ui.workbench,3.7.1.v20120104-1859,"",1376691872103
deactivated,workbench,org.eclipse.ui.workbench,3.7.1.v20120104-1859,"",1376691897949
activated,workbench,org.eclipse.ui.workbench,3.7.1.v20120104-1859,"",1376691902859
activated,editor,org.eclipse.jdt.ui,3.7.2.v20120109-1427,"org.eclipse.jdt.ui.CompilationUnitEditor",1376691904966
deactivated,workbench,org.eclipse.ui.workbench,3.7.1.v20120104-1859,"",1376691905546
activated,workbench,org.eclipse.ui.workbench,3.7.1.v20120104-1859,"",1376691906419
deactivated,workbench,org.eclipse.ui.workbench,3.7.1.v20120104-1859,"",1376691906787
activated,workbench,org.eclipse.ui.workbench,3.7.1.v20120104-1859,"",1376691917206
activated,editor,org.eclipse.jdt.ui,3.7.2.v20120109-1427,"org.eclipse.jdt.ui.CompilationUnitEditor",1376691919990
activated,editor,org.eclipse.jdt.ui,3.7.2.v20120109-1427,"org.eclipse.jdt.ui.CompilationUnitEditor",1376691921105
deactivated,workbench,org.eclipse.ui.workbench,3.7.1.v20120104-1859,"",1376691977689
activated,workbench,org.eclipse.ui.workbench,3.7.1.v20120104-1859,"",1376692022234
deactivated,workbench,org.eclipse.ui.workbench,3.7.1.v20120104-1859,"",1376692041427
activated,workbench,org.eclipse.ui.workbench,3.7.1.v20120104-1859,"",1376692359632
deactivated,workbench,org.eclipse.ui.workbench,3.7.1.v20120104-1859,"",1376692527935
activated,workbench,org.eclipse.ui.workbench,3.7.1.v20120104-1859,"",1376692571591
deactivated,workbench,org.eclipse.ui.workbench,3.7.1.v20120104-1859,"",1376692578053
activated,workbench,org.eclipse.ui.workbench,3.7.1.v20120104-1859,"",1376693666200
deactivated,workbench,org.eclipse.ui.workbench,3.7.1.v20120104-1859,"",1376693714107
activated,workbench,org.eclipse.ui.workbench,3.7.1.v20120104-1859,"",1376694392994
deactivated,workbench,org.eclipse.ui.workbench,3.7.1.v20120104-1859,"",1376694654388
activated,workbench,org.eclipse.ui.workbench,3.7.1.v20120104-1859,"",1376708366485
deactivated,workbench,org.eclipse.ui.workbench,3.7.1.v20120104-1859,"",1376708426156
activated,workbench,org.eclipse.ui.workbench,3.7.1.v20120104-1859,"",1376708532972
deactivated,workbench,org.eclipse.ui.workbench,3.7.1.v20120104-1859,"",1376708534983
activated,workbench,org.eclipse.ui.workbench,3.7.1.v20120104-1859,"",1376708896976
deactivated,workbench,org.eclipse.ui.workbench,3.7.1.v20120104-1859,"",1376708899096
activated,workbench,org.eclipse.ui.workbench,3.7.1.v20120104-1859,"",1376708956656
activated,editor,org.eclipse.jdt.ui,3.7.2.v20120109-1427,"org.eclipse.jdt.ui.CompilationUnitEditor",1376708959245
deactivated,workbench,org.eclipse.ui.workbench,3.7.1.v20120104-1859,"",1376708968322
activated,workbench,org.eclipse.ui.workbench,3.7.1.v20120104-1859,"",1376708969848
deactivated,workbench,org.eclipse.ui.workbench,3.7.1.v20120104-1859,"",1376708970253
activated,workbench,org.eclipse.ui.workbench,3.7.1.v20120104-1859,"",1376709001599
activated,editor,org.eclipse.jdt.ui,3.7.2.v20120109-1427,"org.eclipse.jdt.ui.CompilationUnitEditor",1376709003901
deactivated,workbench,org.eclipse.ui.workbench,3.7.1.v20120104-1859,"",1376709009036
activated,workbench,org.eclipse.ui.workbench,3.7.1.v20120104-1859,"",1376709188419
activated,editor,org.eclipse.jdt.ui,3.7.2.v20120109-1427,"org.eclipse.jdt.ui.CompilationUnitEditor",1376709188545
activated,editor,org.eclipse.jdt.ui,3.7.2.v20120109-1427,"org.eclipse.jdt.ui.CompilationUnitEditor",1376709189306
activated,editor,org.eclipse.jdt.ui,3.7.2.v20120109-1427,"org.eclipse.jdt.ui.CompilationUnitEditor",1376709189925
activated,editor,org.eclipse.jdt.ui,3.7.2.v20120109-1427,"org.eclipse.jdt.ui.CompilationUnitEditor",1376709190946
activated,editor,org.eclipse.jdt.ui,3.7.2.v20120109-1427,"org.eclipse.jdt.ui.CompilationUnitEditor",1376709199539
deactivated,workbench,org.eclipse.ui.workbench,3.7.1.v20120104-1859,"",1376709201225
activated,workbench,org.eclipse.ui.workbench,3.7.1.v20120104-1859,"",1376709214526
activated,editor,org.eclipse.jdt.ui,3.7.2.v20120109-1427,"org.eclipse.jdt.ui.CompilationUnitEditor",1376709222015
activated,editor,org.eclipse.jdt.ui,3.7.2.v20120109-1427,"org.eclipse.jdt.ui.CompilationUnitEditor",1376709243632
activated,editor,org.eclipse.jdt.ui,3.7.2.v20120109-1427,"org.eclipse.jdt.ui.CompilationUnitEditor",1376709246036
activated,view,org.eclipse.jdt.ui,3.7.2.v20120109-1427,"org.eclipse.jdt.ui.PackageExplorer",1376709253410
opened,editor,org.eclipse.jdt.ui,3.7.2.v20120109-1427,"org.eclipse.jdt.ui.CompilationUnitEditor",1376709264309
activated,editor,org.eclipse.jdt.ui,3.7.2.v20120109-1427,"org.eclipse.jdt.ui.CompilationUnitEditor",1376709264364
activated,editor,org.eclipse.jdt.ui,3.7.2.v20120109-1427,"org.eclipse.jdt.ui.CompilationUnitEditor",1376709276382
activated,editor,org.eclipse.jdt.ui,3.7.2.v20120109-1427,"org.eclipse.jdt.ui.CompilationUnitEditor",1376709277963
activated,editor,org.eclipse.jdt.ui,3.7.2.v20120109-1427,"org.eclipse.jdt.ui.CompilationUnitEditor",1376709279262
activated,editor,org.eclipse.jdt.ui,3.7.2.v20120109-1427,"org.eclipse.jdt.ui.CompilationUnitEditor",1376709285520
activated,editor,org.eclipse.jdt.ui,3.7.2.v20120109-1427,"org.eclipse.jdt.ui.CompilationUnitEditor",1376709290757
activated,editor,org.eclipse.jdt.ui,3.7.2.v20120109-1427,"org.eclipse.jdt.ui.CompilationUnitEditor",1376709292025
activated,editor,org.eclipse.jdt.ui,3.7.2.v20120109-1427,"org.eclipse.jdt.ui.CompilationUnitEditor",1376709295334
activated,editor,org.eclipse.jdt.ui,3.7.2.v20120109-1427,"org.eclipse.jdt.ui.CompilationUnitEditor",1376709299859
activated,editor,org.eclipse.jdt.ui,3.7.2.v20120109-1427,"org.eclipse.jdt.ui.CompilationUnitEditor",1376709302490
activated,editor,org.eclipse.jdt.ui,3.7.2.v20120109-1427,"org.eclipse.jdt.ui.CompilationUnitEditor",1376709304210
activated,view,org.eclipse.jdt.ui,3.7.2.v20120109-1427,"org.eclipse.jdt.ui.PackageExplorer",1376709317316
opened,editor,org.eclipse.jdt.ui,3.7.2.v20120109-1427,"org.eclipse.jdt.ui.CompilationUnitEditor",1376709317484
activated,editor,org.eclipse.jdt.ui,3.7.2.v20120109-1427,"org.eclipse.jdt.ui.CompilationUnitEditor",1376709317536
executed,command,org.eclipse.ui,3.7.0.v20110928-1505,"org.eclipse.ui.edit.copy",1376709387790
executed,command,org.eclipse.ui,3.7.0.v20110928-1505,"org.eclipse.ui.edit.paste",1376709390624
executed,command,org.eclipse.ui,3.7.0.v20110928-1505,"org.eclipse.ui.edit.cut",1376709406278
activated,editor,org.eclipse.jdt.ui,3.7.2.v20120109-1427,"org.eclipse.jdt.ui.CompilationUnitEditor",1376709411933
executed,command,org.eclipse.ui,3.7.0.v20110928-1505,"org.eclipse.ui.edit.paste",1376709429492
activated,editor,org.eclipse.jdt.ui,3.7.2.v20120109-1427,"org.eclipse.jdt.ui.CompilationUnitEditor",1376709448103
deactivated,workbench,org.eclipse.ui.workbench,3.7.1.v20120104-1859,"",1376709448948
activated,workbench,org.eclipse.ui.workbench,3.7.1.v20120104-1859,"",1376709450158
deactivated,workbench,org.eclipse.ui.workbench,3.7.1.v20120104-1859,"",1376709450574
activated,workbench,org.eclipse.ui.workbench,3.7.1.v20120104-1859,"",1376709598013
deactivated,workbench,org.eclipse.ui.workbench,3.7.1.v20120104-1859,"",1376709599134
activated,workbench,org.eclipse.ui.workbench,3.7.1.v20120104-1859,"",1376709797125
activated,editor,org.eclipse.jdt.ui,3.7.2.v20120109-1427,"org.eclipse.jdt.ui.CompilationUnitEditor",1376709798644
deactivated,workbench,org.eclipse.ui.workbench,3.7.1.v20120104-1859,"",1376709829445
activated,workbench,org.eclipse.ui.workbench,3.7.1.v20120104-1859,"",1376710106385
executed,command,org.eclipse.ui,3.7.0.v20110928-1505,"org.eclipse.ui.edit.copy",1376710117986
deactivated,workbench,org.eclipse.ui.workbench,3.7.1.v20120104-1859,"",1376710131344
activated,workbench,org.eclipse.ui.workbench,3.7.1.v20120104-1859,"",1376710132328
deactivated,workbench,org.eclipse.ui.workbench,3.7.1.v20120104-1859,"",1376710132888
activated,workbench,org.eclipse.ui.workbench,3.7.1.v20120104-1859,"",1376710133581
activated,editor,org.eclipse.jdt.ui,3.7.2.v20120109-1427,"org.eclipse.jdt.ui.CompilationUnitEditor",1376710145732
deactivated,workbench,org.eclipse.ui.workbench,3.7.1.v20120104-1859,"",1376710146666
activated,workbench,org.eclipse.ui.workbench,3.7.1.v20120104-1859,"",1376710171525
deactivated,workbench,org.eclipse.ui.workbench,3.7.1.v20120104-1859,"",1376710188165
activated,workbench,org.eclipse.ui.workbench,3.7.1.v20120104-1859,"",1376710189432
deactivated,workbench,org.eclipse.ui.workbench,3.7.1.v20120104-1859,"",1376710190135
activated,workbench,org.eclipse.ui.workbench,3.7.1.v20120104-1859,"",1376710297414
activated,editor,org.eclipse.jdt.ui,3.7.2.v20120109-1427,"org.eclipse.jdt.ui.CompilationUnitEditor",1376710297541
activated,editor,org.eclipse.jdt.ui,3.7.2.v20120109-1427,"org.eclipse.jdt.ui.CompilationUnitEditor",1376710300015
deactivated,workbench,org.eclipse.ui.workbench,3.7.1.v20120104-1859,"",1376710301035
activated,workbench,org.eclipse.ui.workbench,3.7.1.v20120104-1859,"",1376710323337
deactivated,workbench,org.eclipse.ui.workbench,3.7.1.v20120104-1859,"",1376710340713
activated,workbench,org.eclipse.ui.workbench,3.7.1.v20120104-1859,"",1376710345688
activated,editor,org.eclipse.jdt.ui,3.7.2.v20120109-1427,"org.eclipse.jdt.ui.CompilationUnitEditor",1376710347007
activated,editor,org.eclipse.jdt.ui,3.7.2.v20120109-1427,"org.eclipse.jdt.ui.CompilationUnitEditor",1376710348779
activated,editor,org.eclipse.jdt.ui,3.7.2.v20120109-1427,"org.eclipse.jdt.ui.CompilationUnitEditor",1376710351804
deactivated,workbench,org.eclipse.ui.workbench,3.7.1.v20120104-1859,"",1376710352521
activated,workbench,org.eclipse.ui.workbench,3.7.1.v20120104-1859,"",1376710353658
deactivated,workbench,org.eclipse.ui.workbench,3.7.1.v20120104-1859,"",1376710354009
activated,workbench,org.eclipse.ui.workbench,3.7.1.v20120104-1859,"",1376710420089
activated,editor,org.eclipse.jdt.ui,3.7.2.v20120109-1427,"org.eclipse.jdt.ui.CompilationUnitEditor",1376710422431
activated,editor,org.eclipse.jdt.ui,3.7.2.v20120109-1427,"org.eclipse.jdt.ui.CompilationUnitEditor",1376710437429
deactivated,workbench,org.eclipse.ui.workbench,3.7.1.v20120104-1859,"",1376710437970
activated,workbench,org.eclipse.ui.workbench,3.7.1.v20120104-1859,"",1376710439051
deactivated,workbench,org.eclipse.ui.workbench,3.7.1.v20120104-1859,"",1376710439419
activated,workbench,org.eclipse.ui.workbench,3.7.1.v20120104-1859,"",1376710553569
activated,editor,org.eclipse.jdt.ui,3.7.2.v20120109-1427,"org.eclipse.jdt.ui.CompilationUnitEditor",1376710555016
activated,editor,org.eclipse.jdt.ui,3.7.2.v20120109-1427,"org.eclipse.jdt.ui.CompilationUnitEditor",1376710556252
deactivated,workbench,org.eclipse.ui.workbench,3.7.1.v20120104-1859,"",1376710568313
activated,workbench,org.eclipse.ui.workbench,3.7.1.v20120104-1859,"",1376710606240
deactivated,workbench,org.eclipse.ui.workbench,3.7.1.v20120104-1859,"",1376710610046
activated,workbench,org.eclipse.ui.workbench,3.7.1.v20120104-1859,"",1376710610948
deactivated,workbench,org.eclipse.ui.workbench,3.7.1.v20120104-1859,"",1376710611318
activated,workbench,org.eclipse.ui.workbench,3.7.1.v20120104-1859,"",1376710616909
deactivated,workbench,org.eclipse.ui.workbench,3.7.1.v20120104-1859,"",1376710620486
activated,workbench,org.eclipse.ui.workbench,3.7.1.v20120104-1859,"",1376710632155
activated,editor,org.eclipse.jdt.ui,3.7.2.v20120109-1427,"org.eclipse.jdt.ui.CompilationUnitEditor",1376710651446
deactivated,workbench,org.eclipse.ui.workbench,3.7.1.v20120104-1859,"",1376710651897
activated,workbench,org.eclipse.ui.workbench,3.7.1.v20120104-1859,"",1376710652963
deactivated,workbench,org.eclipse.ui.workbench,3.7.1.v20120104-1859,"",1376710653384
activated,workbench,org.eclipse.ui.workbench,3.7.1.v20120104-1859,"",1376710700771
deactivated,workbench,org.eclipse.ui.workbench,3.7.1.v20120104-1859,"",1376710702288
activated,workbench,org.eclipse.ui.workbench,3.7.1.v20120104-1859,"",1376710844226
activated,editor,org.eclipse.jdt.ui,3.7.2.v20120109-1427,"org.eclipse.jdt.ui.CompilationUnitEditor",1376710846091
activated,editor,org.eclipse.jdt.ui,3.7.2.v20120109-1427,"org.eclipse.jdt.ui.CompilationUnitEditor",1376710847845
deactivated,workbench,org.eclipse.ui.workbench,3.7.1.v20120104-1859,"",1376710858851
activated,workbench,org.eclipse.ui.workbench,3.7.1.v20120104-1859,"",1376710869588
executed,command,org.eclipse.ui,3.7.0.v20110928-1505,"org.eclipse.ui.edit.copy",1376710874340
executed,command,org.eclipse.ui,3.7.0.v20110928-1505,"org.eclipse.ui.edit.copy",1376710875460
executed,command,org.eclipse.ui,3.7.0.v20110928-1505,"org.eclipse.ui.edit.copy",1376710875668
executed,command,org.eclipse.ui,3.7.0.v20110928-1505,"org.eclipse.ui.edit.copy",1376710875878
deactivated,workbench,org.eclipse.ui.workbench,3.7.1.v20120104-1859,"",1376710889269
activated,workbench,org.eclipse.ui.workbench,3.7.1.v20120104-1859,"",1376710917889
activated,editor,org.eclipse.jdt.ui,3.7.2.v20120109-1427,"org.eclipse.jdt.ui.CompilationUnitEditor",1376710920706
executed,command,org.eclipse.ui,3.7.0.v20110928-1505,"org.eclipse.ui.edit.copy",1376710938667
deactivated,workbench,org.eclipse.ui.workbench,3.7.1.v20120104-1859,"",1376710939281
activated,workbench,org.eclipse.ui.workbench,3.7.1.v20120104-1859,"",1376711365012
activated,editor,org.eclipse.jdt.ui,3.7.2.v20120109-1427,"org.eclipse.jdt.ui.CompilationUnitEditor",1376711409216
activated,editor,org.eclipse.jdt.ui,3.7.2.v20120109-1427,"org.eclipse.jdt.ui.CompilationUnitEditor",1376711411937
activated,editor,org.eclipse.jdt.ui,3.7.2.v20120109-1427,"org.eclipse.jdt.ui.CompilationUnitEditor",1376711412885
deactivated,workbench,org.eclipse.ui.workbench,3.7.1.v20120104-1859,"",1376711426408
activated,workbench,org.eclipse.ui.workbench,3.7.1.v20120104-1859,"",1376715277710
deactivated,workbench,org.eclipse.ui.workbench,3.7.1.v20120104-1859,"",1376715278011
activated,workbench,org.eclipse.ui.workbench,3.7.1.v20120104-1859,"",1376715288995
deactivated,workbench,org.eclipse.ui.workbench,3.7.1.v20120104-1859,"",1376715291435
activated,workbench,org.eclipse.ui.workbench,3.7.1.v20120104-1859,"",1376723241655
started,bundle,org.eclipse.epp.usagedata.ui,1.3.1.R201106061540,"org.eclipse.epp.usagedata.ui",1376723241678
deactivated,workbench,org.eclipse.ui.workbench,3.7.1.v20120104-1859,"",1376723241888
activated,workbench,org.eclipse.ui.workbench,3.7.1.v20120104-1859,"",1376723449592
deactivated,workbench,org.eclipse.ui.workbench,3.7.1.v20120104-1859,"",1376723450652
activated,workbench,org.eclipse.ui.workbench,3.7.1.v20120104-1859,"",1376735129291
deactivated,workbench,org.eclipse.ui.workbench,3.7.1.v20120104-1859,"",1376735130793
activated,workbench,org.eclipse.ui.workbench,3.7.1.v20120104-1859,"",1376736949741
deactivated,workbench,org.eclipse.ui.workbench,3.7.1.v20120104-1859,"",1376736951106
activated,workbench,org.eclipse.ui.workbench,3.7.1.v20120104-1859,"",1376737258656
deactivated,workbench,org.eclipse.ui.workbench,3.7.1.v20120104-1859,"",1376737259853
activated,perspective,org.eclipse.jdt.ui,,"org.eclipse.jdt.ui.JavaPerspective",1376949098611
started,bundle,org.eclipse.osgi,3.7.2.v20120110-1415,"org.eclipse.osgi",1376949098612
started,bundle,org.eclipse.equinox.simpleconfigurator,1.0.200.v20110815-1438,"org.eclipse.equinox.simpleconfigurator",1376949098612
started,bundle,com.android.ide.eclipse.adt,22.0.5.v201307292155--757759,"com.android.ide.eclipse.adt",1376949098612
started,bundle,com.android.ide.eclipse.base,22.0.5.v201307292155--757759,"com.android.ide.eclipse.base",1376949098612
started,bundle,com.google.appengine.eclipse.core,3.3.0.v201307162142-rel-r37,"com.google.appengine.eclipse.core",1376949098612
started,bundle,com.google.gdt.eclipse.apiclientlib,3.3.0.v201307162142-rel-r37,"com.google.gdt.eclipse.apiclientlib",1376949098612
started,bundle,com.google.gdt.eclipse.core,3.3.0.v201307162142-rel-r37,"com.google.gdt.eclipse.core",1376949098612
started,bundle,com.google.gdt.eclipse.designer,3.1.2.r37x201303061530,"com.google.gdt.eclipse.designer",1376949098612
started,bundle,com.google.gdt.eclipse.designer.UiBinder,3.1.2.r37x201303061530,"com.google.gdt.eclipse.designer.UiBinder",1376949098612
started,bundle,com.google.gdt.eclipse.designer.hosted,3.1.2.r37x201303061525,"com.google.gdt.eclipse.designer.hosted",1376949098612
started,bundle,com.google.gdt.eclipse.designer.hosted.2_2,3.1.2.r37x201303061525,"com.google.gdt.eclipse.designer.hosted.2_2",1376949098612
started,bundle,com.google.gdt.eclipse.login,3.3.0.v201307162142-rel-r37,"com.google.gdt.eclipse.login",1376949098612
started,bundle,com.google.gdt.eclipse.managedapis,3.3.0.v201307162142-rel-r37,"com.google.gdt.eclipse.managedapis",1376949098612
started,bundle,com.google.gdt.eclipse.maven,3.3.0.v201307162142-rel-r37,"com.google.gdt.eclipse.maven",1376949098612
started,bundle,com.google.gdt.eclipse.mobile.android,3.3.0.v201307162142-rel-r37,"com.google.gdt.eclipse.mobile.android",1376949098612
started,bundle,com.google.gdt.eclipse.suite,3.3.0.v201307162142-rel-r37,"com.google.gdt.eclipse.suite",1376949098612
started,bundle,com.google.gdt.eclipse.suite.ext,3.3.0.v201307162142-rel-r37,"com.google.gdt.eclipse.suite.ext",1376949098612
started,bundle,com.google.gwt.eclipse.core,3.3.0.v201307162142-rel-r37,"com.google.gwt.eclipse.core",1376949098612
started,bundle,com.ibm.icu,4.4.2.v20110823,"com.ibm.icu",1376949098612
started,bundle,com.python.pydev.analysis,2.7.3.2013031601,"com.python.pydev.analysis",1376949098612
started,bundle,org.eclipse.cdt.codan.checkers,1.0.1.201202111925,"org.eclipse.cdt.codan.checkers",1376949098612
started,bundle,org.eclipse.cdt.codan.core,2.0.0.201202111925,"org.eclipse.cdt.codan.core",1376949098612
started,bundle,org.eclipse.cdt.codan.core.cxx,1.0.0.201202111925,"org.eclipse.cdt.codan.core.cxx",1376949098612
started,bundle,org.eclipse.cdt.codan.ui.cxx,2.0.0.201202111925,"org.eclipse.cdt.codan.ui.cxx",1376949098612
started,bundle,org.eclipse.cdt.core,5.3.2.201202111925,"org.eclipse.cdt.core",1376949098612
started,bundle,org.eclipse.cdt.dsf,2.2.0.201202111925,"org.eclipse.cdt.dsf",1376949098612
started,bundle,org.eclipse.cdt.dsf.gdb,4.0.2.201202111925,"org.eclipse.cdt.dsf.gdb",1376949098612
started,bundle,org.eclipse.cdt.dsf.gdb.ui,2.2.1.201202111925,"org.eclipse.cdt.dsf.gdb.ui",1376949098612
started,bundle,org.eclipse.cdt.make.core,7.1.2.201202111925,"org.eclipse.cdt.make.core",1376949098612
started,bundle,org.eclipse.cdt.make.ui,7.1.2.201202111925,"org.eclipse.cdt.make.ui",1376949098612
started,bundle,org.eclipse.cdt.managedbuilder.core,8.0.2.201202111925,"org.eclipse.cdt.managedbuilder.core",1376949098612
started,bundle,org.eclipse.cdt.scripting,1.0.0.201202112006,"org.eclipse.cdt.scripting",1376949098612
started,bundle,org.eclipse.cdt.ui,5.3.2.201202111925,"org.eclipse.cdt.ui",1376949098612
started,bundle,org.eclipse.compare.core,3.5.200.I20110208-0800,"org.eclipse.compare.core",1376949098612
started,bundle,org.eclipse.core.contenttype,3.4.100.v20110423-0524,"org.eclipse.core.contenttype",1376949098612
started,bundle,org.eclipse.core.databinding.observable,1.4.0.I20110222-0800,"org.eclipse.core.databinding.observable",1376949098612
started,bundle,org.eclipse.core.expressions,3.4.300.v20110228,"org.eclipse.core.expressions",1376949098612
started,bundle,org.eclipse.core.filebuffers,3.5.200.v20110928-1504,"org.eclipse.core.filebuffers",1376949098612
started,bundle,org.eclipse.core.filesystem,1.3.100.v20110423-0524,"org.eclipse.core.filesystem",1376949098612
started,bundle,org.eclipse.core.jobs,3.5.101.v20120113-1953,"org.eclipse.core.jobs",1376949098612
started,bundle,org.eclipse.core.net,1.2.100.I20110511-0800,"org.eclipse.core.net",1376949098612
started,bundle,org.eclipse.core.resources,3.7.101.v20120125-1505,"org.eclipse.core.resources",1376949098612
started,bundle,org.eclipse.core.runtime,3.7.0.v20110110,"org.eclipse.core.runtime",1376949098612
started,bundle,org.eclipse.core.runtime.compatibility,3.2.100.v20100505,"org.eclipse.core.runtime.compatibility",1376949098612
started,bundle,org.eclipse.core.runtime.compatibility.auth,3.2.200.v20110110,"org.eclipse.core.runtime.compatibility.auth",1376949098612
started,bundle,org.eclipse.core.variables,3.2.500.v20110928-1503,"org.eclipse.core.variables",1376949098612
started,bundle,org.eclipse.debug.core,3.7.1.v20111129-2031,"org.eclipse.debug.core",1376949098612
started,bundle,org.eclipse.debug.ui,3.7.102.v20111129-1423_r372,"org.eclipse.debug.ui",1376949098612
started,bundle,org.eclipse.ecf.filetransfer,5.0.0.v20110531-2218,"org.eclipse.ecf.filetransfer",1376949098612
started,bundle,org.eclipse.egit.core,1.3.0.201202151440-r,"org.eclipse.egit.core",1376949098612
started,bundle,org.eclipse.egit.ui,1.3.0.201202151440-r,"org.eclipse.egit.ui",1376949098612
started,bundle,org.eclipse.epp.mpc.ui,1.1.1.I20110907-0947,"org.eclipse.epp.mpc.ui",1376949098612
started,bundle,org.eclipse.epp.usagedata.gathering,1.3.1.R201106061540,"org.eclipse.epp.usagedata.gathering",1376949098612
started,bundle,org.eclipse.epp.usagedata.recording,1.3.1.R201106061540,"org.eclipse.epp.usagedata.recording",1376949098612
started,bundle,org.eclipse.equinox.app,1.3.100.v20110321,"org.eclipse.equinox.app",1376949098612
started,bundle,org.eclipse.equinox.common,3.6.0.v20110523,"org.eclipse.equinox.common",1376949098612
started,bundle,org.eclipse.equinox.ds,1.3.1.R37x_v20110701,"org.eclipse.equinox.ds",1376949098612
started,bundle,org.eclipse.equinox.event,1.2.100.v20110502,"org.eclipse.equinox.event",1376949098612
started,bundle,org.eclipse.equinox.p2.artifact.repository,1.1.101.v20110815-1419,"org.eclipse.equinox.p2.artifact.repository",1376949098612
started,bundle,org.eclipse.equinox.p2.core,2.1.1.v20120113-1346,"org.eclipse.equinox.p2.core",1376949098612
started,bundle,org.eclipse.equinox.p2.director,2.1.1.v20111126-0211,"org.eclipse.equinox.p2.director",1376949098612
started,bundle,org.eclipse.equinox.p2.directorywatcher,1.0.300.v20110815-1419,"org.eclipse.equinox.p2.directorywatcher",1376949098612
started,bundle,org.eclipse.equinox.p2.engine,2.1.1.R37x_v20111003,"org.eclipse.equinox.p2.engine",1376949098612
started,bundle,org.eclipse.equinox.p2.extensionlocation,1.2.100.v20110815-1419,"org.eclipse.equinox.p2.extensionlocation",1376949098612
started,bundle,org.eclipse.equinox.p2.garbagecollector,1.0.200.v20110815-1419,"org.eclipse.equinox.p2.garbagecollector",1376949098612
started,bundle,org.eclipse.equinox.p2.metadata,2.1.0.v20110815-1419,"org.eclipse.equinox.p2.metadata",1376949098612
started,bundle,org.eclipse.equinox.p2.metadata.repository,1.2.0.v20110815-1419,"org.eclipse.equinox.p2.metadata.repository",1376949098612
started,bundle,org.eclipse.equinox.p2.operations,2.1.1.R37x_v20111111,"org.eclipse.equinox.p2.operations",1376949098612
started,bundle,org.eclipse.equinox.p2.publisher,1.2.0.v20110815-1419,"org.eclipse.equinox.p2.publisher",1376949098612
started,bundle,org.eclipse.equinox.p2.publisher.eclipse,1.0.0.v20110815-1438,"org.eclipse.equinox.p2.publisher.eclipse",1376949098612
started,bundle,org.eclipse.equinox.p2.reconciler.dropins,1.1.100.v20110815-1419,"org.eclipse.equinox.p2.reconciler.dropins",1376949098612
started,bundle,org.eclipse.equinox.p2.repository,2.1.1.v20120113-1346,"org.eclipse.equinox.p2.repository",1376949098612
started,bundle,org.eclipse.equinox.p2.touchpoint.eclipse,2.1.1.v20110815-1419,"org.eclipse.equinox.p2.touchpoint.eclipse",1376949098612
started,bundle,org.eclipse.equinox.p2.transport.ecf,1.0.0.v20111128-0624,"org.eclipse.equinox.p2.transport.ecf",1376949098612
