what,kind,bundleId,bundleVersion,description,time
java.vm.specification.vendor,sysinfo,,,"Oracle Corporation",1380843015981
java.vm.specification.version,sysinfo,,,"1.7",1380843015981
java.vm.vendor,sysinfo,,,"Oracle Corporation",1380843015981
java.vm.version,sysinfo,,,"23.25-b01",1380843015981
started,bundle,org.eclipse.m2e.usagedata,1.0.200.20111228-1245,"org.eclipse.m2e.usagedata",1380843015983
activated,workbench,org.eclipse.ui.workbench,3.7.1.v20120104-1859,"",1380843354736
started,bundle,org.eclipse.cdt.debug.core,7.1.0.201202111925,"org.eclipse.cdt.debug.core",1380843356432
started,bundle,org.eclipse.cdt.debug.ui,7.1.2.201202111925,"org.eclipse.cdt.debug.ui",1380843356438
started,bundle,org.eclipse.tm.tcf,0.4.0.201106081058,"org.eclipse.tm.tcf",1380843356482
started,bundle,org.eclipse.tm.tcf.core,0.4.0.201106081058,"org.eclipse.tm.tcf.core",1380843356483
started,bundle,org.eclipse.tm.tcf.debug.ui,0.4.0.201106081058,"org.eclipse.tm.tcf.debug.ui",1380843356483
started,bundle,org.eclipse.tm.tcf.cdt.ui,0.4.0.201106081058,"org.eclipse.tm.tcf.cdt.ui",1380843356485
started,bundle,com.google.gdt.eclipse.maven,3.3.0.v201307162142-rel-r37,"com.google.gdt.eclipse.maven",1380843356669
started,bundle,com.google.gdt.eclipse.suite,3.3.0.v201307162142-rel-r37,"com.google.gdt.eclipse.suite",1380843356673
started,bundle,org.eclipse.tm.tcf.debug,0.4.0.201106081058,"org.eclipse.tm.tcf.debug",1380843356676
started,bundle,org.eclipse.core.variables,3.2.500.v20110928-1503,"org.eclipse.core.variables",1380843357823
started,bundle,org.eclipse.m2e.launching,1.0.200.20111228-1245,"org.eclipse.m2e.launching",1380843357873
started,bundle,org.eclipse.cdt.debug.mi.ui,6.1.1.201202111925,"org.eclipse.cdt.debug.mi.ui",1380843357888
started,bundle,org.eclipse.cdt.debug.mi.core,7.1.1.201202111925,"org.eclipse.cdt.debug.mi.core",1380843357895
deactivated,workbench,org.eclipse.ui.workbench,3.7.1.v20120104-1859,"",1380843358192
activated,workbench,org.eclipse.ui.workbench,3.7.1.v20120104-1859,"",1380843420371
activated,view,org.eclipse.jdt.ui,3.7.2.v20120109-1427,"org.eclipse.jdt.ui.PackageExplorer",1380843422292
started,bundle,org.eclipse.wst.common.project.facet.core,1.4.201.v201201101553,"org.eclipse.wst.common.project.facet.core",1380843423284
started,bundle,org.eclipse.jst.common.project.facet.core,1.4.200.v201103170302,"org.eclipse.jst.common.project.facet.core",1380843423302
started,bundle,org.eclipse.jpt.common.core,1.0.2.v201111103010,"org.eclipse.jpt.common.core",1380843423305
stopped,bundle,org.eclipse.jpt.jpa.core,3.0.2.v201201243020,"org.eclipse.jpt.jpa.core",1380843423307
error,log,,,"An error occurred while automatically activating bundle org.eclipse.jpt.jpa.core (321).",1380843423322
error,log,,,"Could not create content describer for org.eclipse.jpt.jpa.core.content.baseJpaContent. Content type has been disabled.",1380843423323
started,bundle,org.eclipse.wst.sse.core,1.1.602.v201112071516,"org.eclipse.wst.sse.core",1380843423334
started,bundle,org.eclipse.compare,3.5.202.R37x_v20111109-0800,"org.eclipse.compare",1380843435031
deactivated,workbench,org.eclipse.ui.workbench,3.7.1.v20120104-1859,"",1380843437260
activated,workbench,org.eclipse.ui.workbench,3.7.1.v20120104-1859,"",1380843442609
deactivated,workbench,org.eclipse.ui.workbench,3.7.1.v20120104-1859,"",1380843445313
activated,workbench,org.eclipse.ui.workbench,3.7.1.v20120104-1859,"",1380843449409
deactivated,workbench,org.eclipse.ui.workbench,3.7.1.v20120104-1859,"",1380843452779
activated,workbench,org.eclipse.ui.workbench,3.7.1.v20120104-1859,"",1380843454155
opened,editor,org.eclipse.jdt.ui,3.7.2.v20120109-1427,"org.eclipse.jdt.ui.CompilationUnitEditor",1380843454323
activated,editor,org.eclipse.jdt.ui,3.7.2.v20120109-1427,"org.eclipse.jdt.ui.CompilationUnitEditor",1380843454349
activated,view,org.eclipse.jdt.ui,3.7.2.v20120109-1427,"org.eclipse.jdt.ui.PackageExplorer",1380843455531
deactivated,workbench,org.eclipse.ui.workbench,3.7.1.v20120104-1859,"",1380843459266
error,log,,,"Participant 'org.eclipse.jpt.jpa.core.ltk.jpaRenameTypeParticipant' removed due to the following exception",1380843460978
started,bundle,org.eclipse.ant.ui,3.5.101.v20120110-1739,"org.eclipse.ant.ui",1380843460990
started,bundle,org.eclipse.wst.jsdt.manipulation,1.0.300.v201104272153,"org.eclipse.wst.jsdt.manipulation",1380843462682
started,bundle,org.eclipse.wst.jsdt.core,1.1.102.v201111090634,"org.eclipse.wst.jsdt.core",1380843463154
started,bundle,org.eclipse.wst.jsdt.ui,1.1.102.v201201131900,"org.eclipse.wst.jsdt.ui",1380843463224
activated,workbench,org.eclipse.ui.workbench,3.7.1.v20120104-1859,"",1380843463467
executed,command,org.eclipse.jdt.ui,3.7.2.v20120109-1427,"org.eclipse.jdt.ui.edit.text.java.rename.element",1380843463477
opened,editor,org.eclipse.jdt.ui,3.7.2.v20120109-1427,"org.eclipse.jdt.ui.CompilationUnitEditor",1380843464976
activated,editor,org.eclipse.jdt.ui,3.7.2.v20120109-1427,"org.eclipse.jdt.ui.CompilationUnitEditor",1380843465017
activated,editor,org.eclipse.jdt.ui,3.7.2.v20120109-1427,"org.eclipse.jdt.ui.CompilationUnitEditor",1380843467326
closed,editor,org.eclipse.jdt.ui,3.7.2.v20120109-1427,"org.eclipse.jdt.ui.CompilationUnitEditor",1380843467327
opened,editor,org.eclipse.jdt.ui,3.7.2.v20120109-1427,"org.eclipse.jdt.ui.CompilationUnitEditor",1380843468516
activated,editor,org.eclipse.jdt.ui,3.7.2.v20120109-1427,"org.eclipse.jdt.ui.CompilationUnitEditor",1380843468534
activated,editor,org.eclipse.jdt.ui,3.7.2.v20120109-1427,"org.eclipse.jdt.ui.CompilationUnitEditor",1380843471554
closed,editor,org.eclipse.jdt.ui,3.7.2.v20120109-1427,"org.eclipse.jdt.ui.CompilationUnitEditor",1380843471554
deactivated,workbench,org.eclipse.ui.workbench,3.7.1.v20120104-1859,"",1380843473203
activated,workbench,org.eclipse.ui.workbench,3.7.1.v20120104-1859,"",1380843642672
deactivated,workbench,org.eclipse.ui.workbench,3.7.1.v20120104-1859,"",1380843759908
activated,workbench,org.eclipse.ui.workbench,3.7.1.v20120104-1859,"",1380844505149
activated,editor,org.eclipse.jdt.ui,3.7.2.v20120109-1427,"org.eclipse.jdt.ui.CompilationUnitEditor",1380844506605
deactivated,workbench,org.eclipse.ui.workbench,3.7.1.v20120104-1859,"",1380844507986
activated,workbench,org.eclipse.ui.workbench,3.7.1.v20120104-1859,"",1380844514676
deactivated,workbench,org.eclipse.ui.workbench,3.7.1.v20120104-1859,"",1380844516149
activated,workbench,org.eclipse.ui.workbench,3.7.1.v20120104-1859,"",1380844578881
deactivated,workbench,org.eclipse.ui.workbench,3.7.1.v20120104-1859,"",1380844579546
activated,workbench,org.eclipse.ui.workbench,3.7.1.v20120104-1859,"",1380847006561
deactivated,workbench,org.eclipse.ui.workbench,3.7.1.v20120104-1859,"",1380847007569
activated,workbench,org.eclipse.ui.workbench,3.7.1.v20120104-1859,"",1380847053930
deactivated,workbench,org.eclipse.ui.workbench,3.7.1.v20120104-1859,"",1380847054760
activated,workbench,org.eclipse.ui.workbench,3.7.1.v20120104-1859,"",1380847167421
deactivated,workbench,org.eclipse.ui.workbench,3.7.1.v20120104-1859,"",1380847168285
activated,workbench,org.eclipse.ui.workbench,3.7.1.v20120104-1859,"",1380848852801
deactivated,workbench,org.eclipse.ui.workbench,3.7.1.v20120104-1859,"",1380848855122
activated,workbench,org.eclipse.ui.workbench,3.7.1.v20120104-1859,"",1380850350220
deactivated,workbench,org.eclipse.ui.workbench,3.7.1.v20120104-1859,"",1380850409915
activated,workbench,org.eclipse.ui.workbench,3.7.1.v20120104-1859,"",1380852613212
deactivated,workbench,org.eclipse.ui.workbench,3.7.1.v20120104-1859,"",1380852614070
activated,workbench,org.eclipse.ui.workbench,3.7.1.v20120104-1859,"",1380854614764
deactivated,workbench,org.eclipse.ui.workbench,3.7.1.v20120104-1859,"",1380854614896
activated,workbench,org.eclipse.ui.workbench,3.7.1.v20120104-1859,"",1380863362496
deactivated,workbench,org.eclipse.ui.workbench,3.7.1.v20120104-1859,"",1380863363880
activated,workbench,org.eclipse.ui.workbench,3.7.1.v20120104-1859,"",1380865378320
deactivated,workbench,org.eclipse.ui.workbench,3.7.1.v20120104-1859,"",1380865516751
activated,workbench,org.eclipse.ui.workbench,3.7.1.v20120104-1859,"",1380866061133
deactivated,workbench,org.eclipse.ui.workbench,3.7.1.v20120104-1859,"",1380866061712
activated,workbench,org.eclipse.ui.workbench,3.7.1.v20120104-1859,"",1380908515036
deactivated,workbench,org.eclipse.ui.workbench,3.7.1.v20120104-1859,"",1380908515792
activated,workbench,org.eclipse.ui.workbench,3.7.1.v20120104-1859,"",1380910944610
activated,view,org.eclipse.jdt.ui,3.7.2.v20120109-1427,"org.eclipse.jdt.ui.PackageExplorer",1380910946428
opened,editor,org.eclipse.jdt.ui,3.7.2.v20120109-1427,"org.eclipse.jdt.ui.CompilationUnitEditor",1380910950481
activated,editor,org.eclipse.jdt.ui,3.7.2.v20120109-1427,"org.eclipse.jdt.ui.CompilationUnitEditor",1380910950510
started,bundle,org.eclipse.jdt.junit,3.7.0.v20110928-1453,"org.eclipse.jdt.junit",1380910952393
started,bundle,org.eclipse.mylyn.java.tasks,3.8.3.v20130107-0100,"org.eclipse.mylyn.java.tasks",1380910976414
executed,command,org.eclipse.ui,3.7.0.v20110928-1505,"org.eclipse.ui.edit.cut",1380910976986
executed,command,org.eclipse.ui,3.7.0.v20110928-1505,"org.eclipse.ui.edit.undo",1380910978772
started,bundle,org.eclipse.cdt.launch,7.0.0.201202111925,"org.eclipse.cdt.launch",1380910989685
activated,editor,org.eclipse.jdt.ui,3.7.2.v20120109-1427,"org.eclipse.jdt.ui.CompilationUnitEditor",1380910990630
deactivated,workbench,org.eclipse.ui.workbench,3.7.1.v20120104-1859,"",1380910991354
activated,workbench,org.eclipse.ui.workbench,3.7.1.v20120104-1859,"",1380910992340
deactivated,workbench,org.eclipse.ui.workbench,3.7.1.v20120104-1859,"",1380910992966
error,log,,,"Could not parse the XML file C:\\Users\\Jesse\\AppData\\Local\\Temp\\site5254393734951936079xml",1380910994894
activated,workbench,org.eclipse.ui.workbench,3.7.1.v20120104-1859,"",1380910997736
activated,editor,org.eclipse.jdt.ui,3.7.2.v20120109-1427,"org.eclipse.jdt.ui.CompilationUnitEditor",1380910999041
executed,command,org.eclipse.ui,3.7.0.v20110928-1505,"org.eclipse.ui.edit.cut",1380911003859
executed,command,org.eclipse.ui,3.7.0.v20110928-1505,"org.eclipse.ui.edit.paste",1380911006093
deactivated,workbench,org.eclipse.ui.workbench,3.7.1.v20120104-1859,"",1380911010587
activated,workbench,org.eclipse.ui.workbench,3.7.1.v20120104-1859,"",1380911011952
activated,editor,org.eclipse.jdt.ui,3.7.2.v20120109-1427,"org.eclipse.jdt.ui.CompilationUnitEditor",1380911014335
deactivated,workbench,org.eclipse.ui.workbench,3.7.1.v20120104-1859,"",1380911015159
activated,workbench,org.eclipse.ui.workbench,3.7.1.v20120104-1859,"",1380911015965
deactivated,workbench,org.eclipse.ui.workbench,3.7.1.v20120104-1859,"",1380911016326
activated,workbench,org.eclipse.ui.workbench,3.7.1.v20120104-1859,"",1380911021537
activated,editor,org.eclipse.jdt.ui,3.7.2.v20120109-1427,"org.eclipse.jdt.ui.CompilationUnitEditor",1380911022898
started,bundle,org.eclipse.mylyn.java.ui,3.8.3.v20130107-0100,"org.eclipse.mylyn.java.ui",1380911067718
activated,editor,org.eclipse.jdt.ui,3.7.2.v20120109-1427,"org.eclipse.jdt.ui.CompilationUnitEditor",1380911085953
deactivated,workbench,org.eclipse.ui.workbench,3.7.1.v20120104-1859,"",1380911086686
activated,workbench,org.eclipse.ui.workbench,3.7.1.v20120104-1859,"",1380911087778
deactivated,workbench,org.eclipse.ui.workbench,3.7.1.v20120104-1859,"",1380911088169
activated,workbench,org.eclipse.ui.workbench,3.7.1.v20120104-1859,"",1380911099202
activated,editor,org.eclipse.jdt.ui,3.7.2.v20120109-1427,"org.eclipse.jdt.ui.CompilationUnitEditor",1380911100781
deactivated,workbench,org.eclipse.ui.workbench,3.7.1.v20120104-1859,"",1380911108003
activated,workbench,org.eclipse.ui.workbench,3.7.1.v20120104-1859,"",1380911237380
activated,view,org.eclipse.jdt.ui,3.7.2.v20120109-1427,"org.eclipse.jdt.ui.PackageExplorer",1380911263186
started,bundle,org.eclipse.mylyn.context.ui,3.8.3.v20130107-0100,"org.eclipse.mylyn.context.ui",1380911263273
opened,editor,org.eclipse.jdt.ui,3.7.2.v20120109-1427,"org.eclipse.jdt.ui.CompilationUnitEditor",1380911263378
activated,editor,org.eclipse.jdt.ui,3.7.2.v20120109-1427,"org.eclipse.jdt.ui.CompilationUnitEditor",1380911263405
activated,editor,org.eclipse.jdt.ui,3.7.2.v20120109-1427,"org.eclipse.jdt.ui.CompilationUnitEditor",1380911277949
activated,editor,org.eclipse.jdt.ui,3.7.2.v20120109-1427,"org.eclipse.jdt.ui.CompilationUnitEditor",1380911279414
activated,editor,org.eclipse.jdt.ui,3.7.2.v20120109-1427,"org.eclipse.jdt.ui.CompilationUnitEditor",1380911281807
activated,editor,org.eclipse.jdt.ui,3.7.2.v20120109-1427,"org.eclipse.jdt.ui.CompilationUnitEditor",1380911282871
activated,editor,org.eclipse.jdt.ui,3.7.2.v20120109-1427,"org.eclipse.jdt.ui.CompilationUnitEditor",1380911284923
activated,editor,org.eclipse.jdt.ui,3.7.2.v20120109-1427,"org.eclipse.jdt.ui.CompilationUnitEditor",1380911285980
deactivated,workbench,org.eclipse.ui.workbench,3.7.1.v20120104-1859,"",1380911373248
activated,workbench,org.eclipse.ui.workbench,3.7.1.v20120104-1859,"",1380911375008
deactivated,workbench,org.eclipse.ui.workbench,3.7.1.v20120104-1859,"",1380911375715
activated,workbench,org.eclipse.ui.workbench,3.7.1.v20120104-1859,"",1380911408973
activated,editor,org.eclipse.jdt.ui,3.7.2.v20120109-1427,"org.eclipse.jdt.ui.CompilationUnitEditor",1380911410426
deactivated,workbench,org.eclipse.ui.workbench,3.7.1.v20120104-1859,"",1380911411370
activated,workbench,org.eclipse.ui.workbench,3.7.1.v20120104-1859,"",1380911412343
deactivated,workbench,org.eclipse.ui.workbench,3.7.1.v20120104-1859,"",1380911412763
activated,workbench,org.eclipse.ui.workbench,3.7.1.v20120104-1859,"",1380911416772
deactivated,workbench,org.eclipse.ui.workbench,3.7.1.v20120104-1859,"",1380911420929
activated,workbench,org.eclipse.ui.workbench,3.7.1.v20120104-1859,"",1380911435455
activated,editor,org.eclipse.jdt.ui,3.7.2.v20120109-1427,"org.eclipse.jdt.ui.CompilationUnitEditor",1380911460415
activated,editor,org.eclipse.jdt.ui,3.7.2.v20120109-1427,"org.eclipse.jdt.ui.CompilationUnitEditor",1380911461852
activated,editor,org.eclipse.jdt.ui,3.7.2.v20120109-1427,"org.eclipse.jdt.ui.CompilationUnitEditor",1380911495270
activated,editor,org.eclipse.jdt.ui,3.7.2.v20120109-1427,"org.eclipse.jdt.ui.CompilationUnitEditor",1380911495978
activated,editor,org.eclipse.jdt.ui,3.7.2.v20120109-1427,"org.eclipse.jdt.ui.CompilationUnitEditor",1380911496947
activated,editor,org.eclipse.jdt.ui,3.7.2.v20120109-1427,"org.eclipse.jdt.ui.CompilationUnitEditor",1380911497552
activated,editor,org.eclipse.jdt.ui,3.7.2.v20120109-1427,"org.eclipse.jdt.ui.CompilationUnitEditor",1380911498125
activated,view,org.eclipse.jdt.ui,3.7.2.v20120109-1427,"org.eclipse.jdt.ui.PackageExplorer",1380911504813
activated,editor,org.eclipse.jdt.ui,3.7.2.v20120109-1427,"org.eclipse.jdt.ui.CompilationUnitEditor",1380911515171
activated,editor,org.eclipse.jdt.ui,3.7.2.v20120109-1427,"org.eclipse.jdt.ui.CompilationUnitEditor",1380911515217
closed,editor,org.eclipse.jdt.ui,3.7.2.v20120109-1427,"org.eclipse.jdt.ui.CompilationUnitEditor",1380911515217
deactivated,workbench,org.eclipse.ui.workbench,3.7.1.v20120104-1859,"",1380911518648
activated,workbench,org.eclipse.ui.workbench,3.7.1.v20120104-1859,"",1380911519734
deactivated,workbench,org.eclipse.ui.workbench,3.7.1.v20120104-1859,"",1380911520159
activated,workbench,org.eclipse.ui.workbench,3.7.1.v20120104-1859,"",1380911956020
activated,editor,org.eclipse.jdt.ui,3.7.2.v20120109-1427,"org.eclipse.jdt.ui.CompilationUnitEditor",1380911958168
deactivated,workbench,org.eclipse.ui.workbench,3.7.1.v20120104-1859,"",1380911959151
activated,workbench,org.eclipse.ui.workbench,3.7.1.v20120104-1859,"",1380911961324
deactivated,workbench,org.eclipse.ui.workbench,3.7.1.v20120104-1859,"",1380911971093
activated,workbench,org.eclipse.ui.workbench,3.7.1.v20120104-1859,"",1380911972158
deactivated,workbench,org.eclipse.ui.workbench,3.7.1.v20120104-1859,"",1380911972544
activated,workbench,org.eclipse.ui.workbench,3.7.1.v20120104-1859,"",1380911975811
activated,view,org.eclipse.jdt.ui,3.7.2.v20120109-1427,"org.eclipse.jdt.ui.JavadocView",1380911975836
deactivated,workbench,org.eclipse.ui.workbench,3.7.1.v20120104-1859,"",1380911976799
activated,workbench,org.eclipse.ui.workbench,3.7.1.v20120104-1859,"",1380912004262
activated,view,org.eclipse.jdt.ui,3.7.2.v20120109-1427,"org.eclipse.jdt.ui.PackageExplorer",1380912012734
opened,editor,org.eclipse.jdt.ui,3.7.2.v20120109-1427,"org.eclipse.jdt.ui.CompilationUnitEditor",1380912013931
activated,editor,org.eclipse.jdt.ui,3.7.2.v20120109-1427,"org.eclipse.jdt.ui.CompilationUnitEditor",1380912013956
deactivated,workbench,org.eclipse.ui.workbench,3.7.1.v20120104-1859,"",1380912067939
activated,workbench,org.eclipse.ui.workbench,3.7.1.v20120104-1859,"",1380912090832
executed,command,org.eclipse.ui,3.7.0.v20110928-1505,"org.eclipse.ui.file.saveAll",1380912091991
deactivated,workbench,org.eclipse.ui.workbench,3.7.1.v20120104-1859,"",1380912092310
activated,workbench,org.eclipse.ui.workbench,3.7.1.v20120104-1859,"",1380918779816
deactivated,workbench,org.eclipse.ui.workbench,3.7.1.v20120104-1859,"",1380918780267
activated,workbench,org.eclipse.ui.workbench,3.7.1.v20120104-1859,"",1380918890475
activated,editor,org.eclipse.jdt.ui,3.7.2.v20120109-1427,"org.eclipse.jdt.ui.CompilationUnitEditor",1380918893026
activated,editor,org.eclipse.jdt.ui,3.7.2.v20120109-1427,"org.eclipse.jdt.ui.CompilationUnitEditor",1380918897187
activated,editor,org.eclipse.jdt.ui,3.7.2.v20120109-1427,"org.eclipse.jdt.ui.CompilationUnitEditor",1380918903964
deactivated,workbench,org.eclipse.ui.workbench,3.7.1.v20120104-1859,"",1380918904663
activated,workbench,org.eclipse.ui.workbench,3.7.1.v20120104-1859,"",1380918906019
deactivated,workbench,org.eclipse.ui.workbench,3.7.1.v20120104-1859,"",1380918906428
activated,workbench,org.eclipse.ui.workbench,3.7.1.v20120104-1859,"",1380918907496
closed,editor,org.eclipse.jdt.ui,3.7.2.v20120109-1427,"org.eclipse.jdt.ui.CompilationUnitEditor",1380918907583
deactivated,workbench,org.eclipse.ui.workbench,3.7.1.v20120104-1859,"",1380918908494
activated,workbench,org.eclipse.ui.workbench,3.7.1.v20120104-1859,"",1380918925737
deactivated,workbench,org.eclipse.ui.workbench,3.7.1.v20120104-1859,"",1380918926505
activated,workbench,org.eclipse.ui.workbench,3.7.1.v20120104-1859,"",1380918928397
deactivated,workbench,org.eclipse.ui.workbench,3.7.1.v20120104-1859,"",1380918928794
activated,workbench,org.eclipse.ui.workbench,3.7.1.v20120104-1859,"",1380918930442
activated,view,org.eclipse.jdt.ui,3.7.2.v20120109-1427,"org.eclipse.jdt.ui.PackageExplorer",1380918934691
activated,editor,org.eclipse.jdt.ui,3.7.2.v20120109-1427,"org.eclipse.jdt.ui.CompilationUnitEditor",1380919006650
activated,view,org.eclipse.jdt.ui,3.7.2.v20120109-1427,"org.eclipse.jdt.ui.PackageExplorer",1380919027795
opened,editor,org.eclipse.jdt.ui,3.7.2.v20120109-1427,"org.eclipse.jdt.ui.CompilationUnitEditor",1380919029252
activated,editor,org.eclipse.jdt.ui,3.7.2.v20120109-1427,"org.eclipse.jdt.ui.CompilationUnitEditor",1380919029279
deactivated,workbench,org.eclipse.ui.workbench,3.7.1.v20120104-1859,"",1380919259057
activated,workbench,org.eclipse.ui.workbench,3.7.1.v20120104-1859,"",1380919273460
deactivated,workbench,org.eclipse.ui.workbench,3.7.1.v20120104-1859,"",1380919277160
activated,workbench,org.eclipse.ui.workbench,3.7.1.v20120104-1859,"",1380919290052
activated,view,org.eclipse.jdt.ui,3.7.2.v20120109-1427,"org.eclipse.jdt.ui.PackageExplorer",1380919293377
opened,editor,org.eclipse.jdt.ui,3.7.2.v20120109-1427,"org.eclipse.jdt.ui.CompilationUnitEditor",1380919293606
activated,editor,org.eclipse.jdt.ui,3.7.2.v20120109-1427,"org.eclipse.jdt.ui.CompilationUnitEditor",1380919293632
activated,editor,org.eclipse.jdt.ui,3.7.2.v20120109-1427,"org.eclipse.jdt.ui.CompilationUnitEditor",1380919316595
closed,editor,org.eclipse.jdt.ui,3.7.2.v20120109-1427,"org.eclipse.jdt.ui.CompilationUnitEditor",1380919316595
deactivated,workbench,org.eclipse.ui.workbench,3.7.1.v20120104-1859,"",1380919517972
activated,workbench,org.eclipse.ui.workbench,3.7.1.v20120104-1859,"",1380920300075
deactivated,workbench,org.eclipse.ui.workbench,3.7.1.v20120104-1859,"",1380920302509
deactivated,workbench,org.eclipse.ui.workbench,3.7.1.v20120104-1859,"",1380920302988
activated,workbench,org.eclipse.ui.workbench,3.7.1.v20120104-1859,"",1380920524276
deactivated,workbench,org.eclipse.ui.workbench,3.7.1.v20120104-1859,"",1380920629799
activated,workbench,org.eclipse.ui.workbench,3.7.1.v20120104-1859,"",1380920636450
deactivated,workbench,org.eclipse.ui.workbench,3.7.1.v20120104-1859,"",1380920949151
activated,workbench,org.eclipse.ui.workbench,3.7.1.v20120104-1859,"",1380921264754
deactivated,workbench,org.eclipse.ui.workbench,3.7.1.v20120104-1859,"",1380921266254
activated,workbench,org.eclipse.ui.workbench,3.7.1.v20120104-1859,"",1380921307752
deactivated,workbench,org.eclipse.ui.workbench,3.7.1.v20120104-1859,"",1380921308388
activated,workbench,org.eclipse.ui.workbench,3.7.1.v20120104-1859,"",1380927995558
deactivated,workbench,org.eclipse.ui.workbench,3.7.1.v20120104-1859,"",1380927996012
activated,workbench,org.eclipse.ui.workbench,3.7.1.v20120104-1859,"",1380927997105
deactivated,workbench,org.eclipse.ui.workbench,3.7.1.v20120104-1859,"",1380928229312
activated,workbench,org.eclipse.ui.workbench,3.7.1.v20120104-1859,"",1380928298994
deactivated,workbench,org.eclipse.ui.workbench,3.7.1.v20120104-1859,"",1380928604028
activated,workbench,org.eclipse.ui.workbench,3.7.1.v20120104-1859,"",1380928674660
deactivated,workbench,org.eclipse.ui.workbench,3.7.1.v20120104-1859,"",1380928675756
activated,workbench,org.eclipse.ui.workbench,3.7.1.v20120104-1859,"",1380928677652
deactivated,workbench,org.eclipse.ui.workbench,3.7.1.v20120104-1859,"",1380928678500
activated,workbench,org.eclipse.ui.workbench,3.7.1.v20120104-1859,"",1380929085665
deactivated,workbench,org.eclipse.ui.workbench,3.7.1.v20120104-1859,"",1380929087141
activated,workbench,org.eclipse.ui.workbench,3.7.1.v20120104-1859,"",1380929087799
deactivated,workbench,org.eclipse.ui.workbench,3.7.1.v20120104-1859,"",1380929137887
activated,workbench,org.eclipse.ui.workbench,3.7.1.v20120104-1859,"",1380929304689
activated,editor,org.eclipse.jdt.ui,3.7.2.v20120109-1427,"org.eclipse.jdt.ui.CompilationUnitEditor",1380929306538
activated,view,org.eclipse.jdt.ui,3.7.2.v20120109-1427,"org.eclipse.jdt.ui.PackageExplorer",1380929308378
opened,editor,org.eclipse.jdt.ui,3.7.2.v20120109-1427,"org.eclipse.jdt.ui.CompilationUnitEditor",1380929310886
activated,editor,org.eclipse.jdt.ui,3.7.2.v20120109-1427,"org.eclipse.jdt.ui.CompilationUnitEditor",1380929310910
executed,command,org.eclipse.ui,3.7.0.v20110928-1505,"org.eclipse.ui.edit.text.contentAssist.proposals",1380929328036
deactivated,workbench,org.eclipse.ui.workbench,3.7.1.v20120104-1859,"",1380929329920
activated,workbench,org.eclipse.ui.workbench,3.7.1.v20120104-1859,"",1380929337119
activated,view,org.eclipse.jdt.ui,3.7.2.v20120109-1427,"org.eclipse.jdt.ui.PackageExplorer",1380929340260
opened,editor,org.eclipse.jdt.ui,3.7.2.v20120109-1427,"org.eclipse.jdt.ui.CompilationUnitEditor",1380929342543
activated,editor,org.eclipse.jdt.ui,3.7.2.v20120109-1427,"org.eclipse.jdt.ui.CompilationUnitEditor",1380929342569
activated,editor,org.eclipse.jdt.ui,3.7.2.v20120109-1427,"org.eclipse.jdt.ui.CompilationUnitEditor",1380929350651
closed,editor,org.eclipse.jdt.ui,3.7.2.v20120109-1427,"org.eclipse.jdt.ui.CompilationUnitEditor",1380929350652
activated,editor,org.eclipse.jdt.ui,3.7.2.v20120109-1427,"org.eclipse.jdt.ui.CompilationUnitEditor",1380929441377
activated,view,org.eclipse.jdt.ui,3.7.2.v20120109-1427,"org.eclipse.jdt.ui.PackageExplorer",1380929444635
opened,editor,org.eclipse.jdt.ui,3.7.2.v20120109-1427,"org.eclipse.jdt.ui.CompilationUnitEditor",1380929444987
activated,editor,org.eclipse.jdt.ui,3.7.2.v20120109-1427,"org.eclipse.jdt.ui.CompilationUnitEditor",1380929445010
activated,editor,org.eclipse.jdt.ui,3.7.2.v20120109-1427,"org.eclipse.jdt.ui.CompilationUnitEditor",1380929460603
closed,editor,org.eclipse.jdt.ui,3.7.2.v20120109-1427,"org.eclipse.jdt.ui.CompilationUnitEditor",1380929460603
activated,editor,org.eclipse.jdt.ui,3.7.2.v20120109-1427,"org.eclipse.jdt.ui.CompilationUnitEditor",1380929462190
deactivated,workbench,org.eclipse.ui.workbench,3.7.1.v20120104-1859,"",1380929472457
activated,workbench,org.eclipse.ui.workbench,3.7.1.v20120104-1859,"",1380929473349
activated,editor,org.eclipse.jdt.ui,3.7.2.v20120109-1427,"org.eclipse.jdt.ui.CompilationUnitEditor",1380929473377
closed,editor,org.eclipse.jdt.ui,3.7.2.v20120109-1427,"org.eclipse.jdt.ui.CompilationUnitEditor",1380929473377
activated,editor,org.eclipse.jdt.ui,3.7.2.v20120109-1427,"org.eclipse.jdt.ui.CompilationUnitEditor",1380929478476
deactivated,workbench,org.eclipse.ui.workbench,3.7.1.v20120104-1859,"",1380929479550
activated,workbench,org.eclipse.ui.workbench,3.7.1.v20120104-1859,"",1380929480531
deactivated,workbench,org.eclipse.ui.workbench,3.7.1.v20120104-1859,"",1380929480634
activated,workbench,org.eclipse.ui.workbench,3.7.1.v20120104-1859,"",1380929481631
activated,editor,org.eclipse.jdt.ui,3.7.2.v20120109-1427,"org.eclipse.jdt.ui.CompilationUnitEditor",1380929482473
deactivated,workbench,org.eclipse.ui.workbench,3.7.1.v20120104-1859,"",1380929483913
activated,workbench,org.eclipse.ui.workbench,3.7.1.v20120104-1859,"",1380929488273
executed,command,org.eclipse.jdt.ui,3.7.2.v20120109-1427,"org.eclipse.jdt.ui.edit.text.java.organize.imports",1380929495574
deactivated,workbench,org.eclipse.ui.workbench,3.7.1.v20120104-1859,"",1380929520189
activated,workbench,org.eclipse.ui.workbench,3.7.1.v20120104-1859,"",1380929539319
deactivated,workbench,org.eclipse.ui.workbench,3.7.1.v20120104-1859,"",1380929572174
activated,workbench,org.eclipse.ui.workbench,3.7.1.v20120104-1859,"",1380929582166
deactivated,workbench,org.eclipse.ui.workbench,3.7.1.v20120104-1859,"",1380929594682
activated,workbench,org.eclipse.ui.workbench,3.7.1.v20120104-1859,"",1380929615574
deactivated,workbench,org.eclipse.ui.workbench,3.7.1.v20120104-1859,"",1380929634366
activated,workbench,org.eclipse.ui.workbench,3.7.1.v20120104-1859,"",1380929660083
deactivated,workbench,org.eclipse.ui.workbench,3.7.1.v20120104-1859,"",1380929665058
activated,workbench,org.eclipse.ui.workbench,3.7.1.v20120104-1859,"",1380929679051
