what,kind,bundleId,bundleVersion,description,time
started,bundle,org.eclipse.mylyn.commons.ui,3.8.4.v20130429-0100,"org.eclipse.mylyn.commons.ui",1381732100972
started,bundle,org.eclipse.mylyn.commons.workbench,3.8.4.v20130429-0100,"org.eclipse.mylyn.commons.workbench",1381732100972
started,bundle,org.eclipse.mylyn.context.core,3.8.3.v20130107-0100,"org.eclipse.mylyn.context.core",1381732100972
started,bundle,org.eclipse.mylyn.context.tasks.ui,3.8.3.v20130107-0100,"org.eclipse.mylyn.context.tasks.ui",1381732100972
started,bundle,org.eclipse.mylyn.monitor.ui,3.8.3.v20130107-0100,"org.eclipse.mylyn.monitor.ui",1381732100972
started,bundle,org.eclipse.mylyn.tasks.ui,3.8.3.v20130107-0100,"org.eclipse.mylyn.tasks.ui",1381732100973
started,bundle,org.eclipse.mylyn.team.ui,3.8.3.v20130107-0100,"org.eclipse.mylyn.team.ui",1381732100973
started,bundle,org.eclipse.team.core,3.6.0.I20110525-0800,"org.eclipse.team.core",1381732100973
started,bundle,org.eclipse.team.cvs.core,3.3.400.I20110510-0800,"org.eclipse.team.cvs.core",1381732100973
started,bundle,org.eclipse.team.cvs.ui,3.3.401.v20120126-1227,"org.eclipse.team.cvs.ui",1381732100973
started,bundle,org.eclipse.team.ui,3.6.101.R37x_v20111109-0800,"org.eclipse.team.ui",1381732100973
started,bundle,org.eclipse.ui,3.7.0.v20110928-1505,"org.eclipse.ui",1381732100973
started,bundle,org.eclipse.ui.console,3.5.100.v20111007_r372,"org.eclipse.ui.console",1381732100973
started,bundle,org.eclipse.ui.editors,3.7.0.v20110928-1504,"org.eclipse.ui.editors",1381732100973
started,bundle,org.eclipse.ui.forms,3.5.101.v20111011-1919,"org.eclipse.ui.forms",1381732100987
started,bundle,org.eclipse.ui.ide,3.7.0.v20110928-1505,"org.eclipse.ui.ide",1381732100987
started,bundle,org.eclipse.ui.navigator,3.5.101.v20120106-1355,"org.eclipse.ui.navigator",1381732100987
started,bundle,org.eclipse.ui.net,1.2.100.v20111208-1155,"org.eclipse.ui.net",1381732100987
started,bundle,org.eclipse.ui.views,3.6.0.v20110928-1505,"org.eclipse.ui.views",1381732100987
started,bundle,org.eclipse.ui.workbench,3.7.1.v20120104-1859,"org.eclipse.ui.workbench",1381732100987
started,bundle,org.eclipse.ui.workbench.texteditor,3.7.0.v20110928-1504,"org.eclipse.ui.workbench.texteditor",1381732100987
started,bundle,org.eclipse.update.configurator,3.3.100.v20100512,"org.eclipse.update.configurator",1381732100987
started,bundle,org.eclipse.update.core,3.2.500.v20110330,"org.eclipse.update.core",1381732100987
started,bundle,org.eclipse.update.scheduler,3.2.300.v20100512,"org.eclipse.update.scheduler",1381732100988
started,bundle,org.eclipse.wb.core,1.5.2.r37x201303061457,"org.eclipse.wb.core",1381732100988
started,bundle,org.eclipse.wb.core.java,1.5.2.r37x201303061505,"org.eclipse.wb.core.java",1381732100988
started,bundle,org.eclipse.wb.core.lib,1.5.2.r37x201303061457,"org.eclipse.wb.core.lib",1381732100988
started,bundle,org.eclipse.wb.discovery.core,1.5.2.r37x201303061516,"org.eclipse.wb.discovery.core",1381732100988
started,bundle,org.eclipse.wb.discovery.ui,1.5.2.r37x201303061516,"org.eclipse.wb.discovery.ui",1381732100988
started,bundle,org.python.pydev,2.7.3.2013031601,"org.python.pydev",1381732100988
started,bundle,org.python.pydev.core,2.7.3.2013031601,"org.python.pydev.core",1381732100988
started,bundle,org.python.pydev.debug,2.7.3.2013031601,"org.python.pydev.debug",1381732100988
started,bundle,org.python.pydev.shared_core,2.7.3.2013031601,"org.python.pydev.shared_core",1381732100988
started,bundle,org.python.pydev.shared_interactive_console,2.7.3.2013031601,"org.python.pydev.shared_interactive_console",1381732100988
started,bundle,org.python.pydev.shared_ui,2.7.3.2013031601,"org.python.pydev.shared_ui",1381732100988
os,sysinfo,,,"win32",1381732100990
arch,sysinfo,,,"x86",1381732100990
ws,sysinfo,,,"win32",1381732100990
locale,sysinfo,,,"en_CA",1381732100990
processors,sysinfo,,,"4",1381732100990
java.runtime.name,sysinfo,,,"Java(TM) SE Runtime Environment",1381732100990
java.runtime.version,sysinfo,,,"1.7.0_25-b17",1381732100990
java.specification.name,sysinfo,,,"Java Platform API Specification",1381732100990
java.specification.vendor,sysinfo,,,"Oracle Corporation",1381732100990
java.specification.version,sysinfo,,,"1.7",1381732100990
java.vendor,sysinfo,,,"Oracle Corporation",1381732100990
java.version,sysinfo,,,"1.7.0_25",1381732100990
java.vm.info,sysinfo,,,"mixed mode, sharing",1381732100990
java.vm.name,sysinfo,,,"Java HotSpot(TM) Client VM",1381732100990
java.vm.specification.name,sysinfo,,,"Java Virtual Machine Specification",1381732100990
java.vm.specification.vendor,sysinfo,,,"Oracle Corporation",1381732100990
java.vm.specification.version,sysinfo,,,"1.7",1381732100990
java.vm.vendor,sysinfo,,,"Oracle Corporation",1381732100990
java.vm.version,sysinfo,,,"23.25-b01",1381732100990
started,bundle,org.eclipse.m2e.usagedata,1.0.200.20111228-1245,"org.eclipse.m2e.usagedata",1381732100992
started,bundle,org.eclipse.wst.common.project.facet.core,1.4.201.v201201101553,"org.eclipse.wst.common.project.facet.core",1381732104337
started,bundle,org.eclipse.jst.common.project.facet.core,1.4.200.v201103170302,"org.eclipse.jst.common.project.facet.core",1381732104436
started,bundle,org.eclipse.jpt.common.core,1.0.2.v201111103010,"org.eclipse.jpt.common.core",1381732104439
stopped,bundle,org.eclipse.jpt.jpa.core,3.0.2.v201201243020,"org.eclipse.jpt.jpa.core",1381732104441
error,log,,,"An error occurred while automatically activating bundle org.eclipse.jpt.jpa.core (321).",1381732104544
error,log,,,"Could not create content describer for org.eclipse.jpt.jpa.core.content.baseJpaContent. Content type has been disabled.",1381732104545
started,bundle,org.eclipse.wst.sse.core,1.1.602.v201112071516,"org.eclipse.wst.sse.core",1381732104967
opened,editor,org.eclipse.jdt.ui,3.7.2.v20120109-1427,"org.eclipse.jdt.ui.CompilationUnitEditor",1381732111404
activated,editor,org.eclipse.jdt.ui,3.7.2.v20120109-1427,"org.eclipse.jdt.ui.CompilationUnitEditor",1381732111434
activated,view,org.eclipse.jdt.ui,3.7.2.v20120109-1427,"org.eclipse.jdt.ui.PackageExplorer",1381732136226
activated,editor,org.eclipse.jdt.ui,3.7.2.v20120109-1427,"org.eclipse.jdt.ui.CompilationUnitEditor",1381732144498
activated,editor,org.eclipse.jdt.ui,3.7.2.v20120109-1427,"org.eclipse.jdt.ui.CompilationUnitEditor",1381732144514
closed,editor,org.eclipse.jdt.ui,3.7.2.v20120109-1427,"org.eclipse.jdt.ui.CompilationUnitEditor",1381732144516
activated,view,org.eclipse.jdt.ui,3.7.2.v20120109-1427,"org.eclipse.jdt.ui.PackageExplorer",1381732146326
executed,command,org.eclipse.ui,3.7.0.v20110928-1505,"org.eclipse.ui.edit.copy",1381732147564
started,bundle,org.eclipse.compare,3.5.202.R37x_v20111109-0800,"org.eclipse.compare",1381732152528
started,bundle,org.eclipse.wst.jsdt.manipulation,1.0.300.v201104272153,"org.eclipse.wst.jsdt.manipulation",1381732154332
started,bundle,org.eclipse.wst.jsdt.core,1.1.102.v201111090634,"org.eclipse.wst.jsdt.core",1381732154842
started,bundle,org.eclipse.wst.jsdt.ui,1.1.102.v201201131900,"org.eclipse.wst.jsdt.ui",1381732154934
executed,command,org.eclipse.ui,3.7.0.v20110928-1505,"org.eclipse.ui.edit.paste",1381732155415
started,bundle,com.google.gdt.eclipse.maven,3.3.0.v201307162142-rel-r37,"com.google.gdt.eclipse.maven",1381732155898
started,bundle,com.google.gdt.eclipse.suite,3.3.0.v201307162142-rel-r37,"com.google.gdt.eclipse.suite",1381732155900
error,log,,,"Could not parse the XML file C:\\Users\\Jesse\\AppData\\Local\\Temp\\site2759158831178280371xml",1381732157020
opened,editor,org.eclipse.jdt.ui,3.7.2.v20120109-1427,"org.eclipse.jdt.ui.CompilationUnitEditor",1381732158650
activated,editor,org.eclipse.jdt.ui,3.7.2.v20120109-1427,"org.eclipse.jdt.ui.CompilationUnitEditor",1381732158694
started,bundle,org.eclipse.jdt.junit,3.7.0.v20110928-1453,"org.eclipse.jdt.junit",1381732158730
activated,view,org.eclipse.jdt.ui,3.7.2.v20120109-1427,"org.eclipse.jdt.ui.PackageExplorer",1381732175704
deactivated,workbench,org.eclipse.ui.workbench,3.7.1.v20120104-1859,"",1381732183358
started,bundle,org.eclipse.emf.common,2.7.0.v20120127-1122,"org.eclipse.emf.common",1381732184476
started,bundle,org.eclipse.wst.common.frameworks,1.2.102.v201201190400,"org.eclipse.wst.common.frameworks",1381732184478
started,bundle,org.eclipse.wst.common.emf,1.2.100.v201101101900,"org.eclipse.wst.common.emf",1381732184867
started,bundle,org.eclipse.emf.ecore,2.7.0.v20120127-1122,"org.eclipse.emf.ecore",1381732184903
started,bundle,org.eclipse.jem.util,2.1.100.v201103021400,"org.eclipse.jem.util",1381732184924
started,bundle,org.eclipse.emf.ecore.xmi,2.7.0.v20120127-1122,"org.eclipse.emf.ecore.xmi",1381732184926
started,bundle,org.eclipse.wst.common.emfworkbench.integration,1.2.101.v201107140600,"org.eclipse.wst.common.emfworkbench.integration",1381732184927
started,bundle,org.eclipse.wst.common.core,1.2.0.v200908252030,"org.eclipse.wst.common.core",1381732184970
started,bundle,org.eclipse.wst.common.modulecore,1.2.103.v201201190400,"org.eclipse.wst.common.modulecore",1381732184972
started,bundle,org.eclipse.jst.j2ee.core,1.2.102.v201202090300,"org.eclipse.jst.j2ee.core",1381732184996
started,bundle,org.eclipse.jem,2.0.501.v201111030500,"org.eclipse.jem",1381732185014
started,bundle,org.eclipse.wst.common.frameworks.ui,1.2.100.v201105122000,"org.eclipse.wst.common.frameworks.ui",1381732185050
started,bundle,org.eclipse.wst.xml.core,1.1.602.v201201091944,"org.eclipse.wst.xml.core",1381732185060
started,bundle,org.eclipse.wst.validation,1.2.303.v201202090300,"org.eclipse.wst.validation",1381732185081
started,bundle,org.eclipse.jst.j2ee,1.1.503.v201202090300,"org.eclipse.jst.j2ee",1381732185117
error,log,,,"Participant 'org.eclipse.jpt.jpa.core.refactoring.jpaDeleteTypeParticipant' removed due to the following exception",1381732185143
closed,editor,org.eclipse.jdt.ui,3.7.2.v20120109-1427,"org.eclipse.jdt.ui.CompilationUnitEditor",1381732186411
activated,workbench,org.eclipse.ui.workbench,3.7.1.v20120104-1859,"",1381732186465
executed,command,org.eclipse.ui,3.7.0.v20110928-1505,"org.eclipse.ui.edit.delete",1381732186473
deactivated,workbench,org.eclipse.ui.workbench,3.7.1.v20120104-1859,"",1381732188024
activated,workbench,org.eclipse.ui.workbench,3.7.1.v20120104-1859,"",1381732202200
opened,editor,org.eclipse.jdt.ui,3.7.2.v20120109-1427,"org.eclipse.jdt.ui.CompilationUnitEditor",1381732204844
activated,editor,org.eclipse.jdt.ui,3.7.2.v20120109-1427,"org.eclipse.jdt.ui.CompilationUnitEditor",1381732204871
deactivated,workbench,org.eclipse.ui.workbench,3.7.1.v20120104-1859,"",1381732211830
activated,workbench,org.eclipse.ui.workbench,3.7.1.v20120104-1859,"",1381732580506
activated,editor,org.eclipse.jdt.ui,3.7.2.v20120109-1427,"org.eclipse.jdt.ui.CompilationUnitEditor",1381732581703
closed,editor,org.eclipse.jdt.ui,3.7.2.v20120109-1427,"org.eclipse.jdt.ui.CompilationUnitEditor",1381732581703
activated,view,org.eclipse.jdt.ui,3.7.2.v20120109-1427,"org.eclipse.jdt.ui.PackageExplorer",1381732587481
deactivated,workbench,org.eclipse.ui.workbench,3.7.1.v20120104-1859,"",1381732591579
activated,workbench,org.eclipse.ui.workbench,3.7.1.v20120104-1859,"",1381732623097
activated,editor,org.eclipse.jdt.ui,3.7.2.v20120109-1427,"org.eclipse.jdt.ui.CompilationUnitEditor",1381732623114
activated,view,org.eclipse.jdt.ui,3.7.2.v20120109-1427,"org.eclipse.jdt.ui.PackageExplorer",1381732633612
opened,editor,org.eclipse.jdt.ui,3.7.2.v20120109-1427,"org.eclipse.jdt.ui.CompilationUnitEditor",1381732638259
activated,editor,org.eclipse.jdt.ui,3.7.2.v20120109-1427,"org.eclipse.jdt.ui.CompilationUnitEditor",1381732638283
activated,editor,org.eclipse.jdt.ui,3.7.2.v20120109-1427,"org.eclipse.jdt.ui.CompilationUnitEditor",1381732644243
closed,editor,org.eclipse.jdt.ui,3.7.2.v20120109-1427,"org.eclipse.jdt.ui.CompilationUnitEditor",1381732644243
deactivated,workbench,org.eclipse.ui.workbench,3.7.1.v20120104-1859,"",1381732648551
activated,workbench,org.eclipse.ui.workbench,3.7.1.v20120104-1859,"",1381732672419
deactivated,workbench,org.eclipse.ui.workbench,3.7.1.v20120104-1859,"",1381732698461
activated,workbench,org.eclipse.ui.workbench,3.7.1.v20120104-1859,"",1381732708542
deactivated,workbench,org.eclipse.ui.workbench,3.7.1.v20120104-1859,"",1381732709620
activated,workbench,org.eclipse.ui.workbench,3.7.1.v20120104-1859,"",1381732837865
activated,view,org.eclipse.jdt.ui,3.7.2.v20120109-1427,"org.eclipse.jdt.ui.PackageExplorer",1381732839854
executed,command,org.eclipse.ui,3.7.0.v20110928-1505,"org.eclipse.ui.file.refresh",1381732843042
started,bundle,org.eclipse.cdt.debug.core,7.1.0.201202111925,"org.eclipse.cdt.debug.core",1381732846050
started,bundle,org.eclipse.cdt.debug.ui,7.1.2.201202111925,"org.eclipse.cdt.debug.ui",1381732846068
started,bundle,org.eclipse.tm.tcf,0.4.0.201106081058,"org.eclipse.tm.tcf",1381732846181
started,bundle,org.eclipse.tm.tcf.core,0.4.0.201106081058,"org.eclipse.tm.tcf.core",1381732846182
started,bundle,org.eclipse.tm.tcf.debug.ui,0.4.0.201106081058,"org.eclipse.tm.tcf.debug.ui",1381732846182
started,bundle,org.eclipse.tm.tcf.cdt.ui,0.4.0.201106081058,"org.eclipse.tm.tcf.cdt.ui",1381732846190
started,bundle,org.eclipse.cdt.launch,7.0.0.201202111925,"org.eclipse.cdt.launch",1381732846281
started,bundle,org.eclipse.tm.tcf.debug,0.4.0.201106081058,"org.eclipse.tm.tcf.debug",1381732846472
started,bundle,org.eclipse.core.variables,3.2.500.v20110928-1503,"org.eclipse.core.variables",1381732846614
started,bundle,org.eclipse.m2e.launching,1.0.200.20111228-1245,"org.eclipse.m2e.launching",1381732846705
started,bundle,org.eclipse.cdt.debug.mi.ui,6.1.1.201202111925,"org.eclipse.cdt.debug.mi.ui",1381732846830
started,bundle,org.eclipse.cdt.debug.mi.core,7.1.1.201202111925,"org.eclipse.cdt.debug.mi.core",1381732846864
deactivated,workbench,org.eclipse.ui.workbench,3.7.1.v20120104-1859,"",1381732847496
activated,workbench,org.eclipse.ui.workbench,3.7.1.v20120104-1859,"",1381732898443
opened,editor,org.eclipse.jdt.ui,3.7.2.v20120109-1427,"org.eclipse.jdt.ui.CompilationUnitEditor",1381732900568
activated,editor,org.eclipse.jdt.ui,3.7.2.v20120109-1427,"org.eclipse.jdt.ui.CompilationUnitEditor",1381732900629
started,bundle,org.eclipse.mylyn.java.ui,3.8.3.v20130107-0100,"org.eclipse.mylyn.java.ui",1381732977633
opened,editor,org.eclipse.jdt.ui,3.7.2.v20120109-1427,"org.eclipse.jdt.ui.CompilationUnitEditor",1381732996377
activated,editor,org.eclipse.jdt.ui,3.7.2.v20120109-1427,"org.eclipse.jdt.ui.CompilationUnitEditor",1381732996397
activated,view,org.eclipse.jdt.ui,3.7.2.v20120109-1427,"org.eclipse.jdt.ui.PackageExplorer",1381732998514
started,bundle,org.eclipse.mylyn.context.ui,3.8.3.v20130107-0100,"org.eclipse.mylyn.context.ui",1381732998606
deactivated,workbench,org.eclipse.ui.workbench,3.7.1.v20120104-1859,"",1381732999563
activated,workbench,org.eclipse.ui.workbench,3.7.1.v20120104-1859,"",1381733000324
deactivated,workbench,org.eclipse.ui.workbench,3.7.1.v20120104-1859,"",1381733000806
activated,workbench,org.eclipse.ui.workbench,3.7.1.v20120104-1859,"",1381733036661
activated,editor,org.eclipse.jdt.ui,3.7.2.v20120109-1427,"org.eclipse.jdt.ui.CompilationUnitEditor",1381733040605
activated,editor,org.eclipse.jdt.ui,3.7.2.v20120109-1427,"org.eclipse.jdt.ui.CompilationUnitEditor",1381733048504
activated,editor,org.eclipse.jdt.ui,3.7.2.v20120109-1427,"org.eclipse.jdt.ui.CompilationUnitEditor",1381733093305
activated,editor,org.eclipse.jdt.ui,3.7.2.v20120109-1427,"org.eclipse.jdt.ui.CompilationUnitEditor",1381733097052
activated,editor,org.eclipse.jdt.ui,3.7.2.v20120109-1427,"org.eclipse.jdt.ui.CompilationUnitEditor",1381733107366
activated,editor,org.eclipse.jdt.ui,3.7.2.v20120109-1427,"org.eclipse.jdt.ui.CompilationUnitEditor",1381733181053
executed,command,org.eclipse.ui,3.7.0.v20110928-1505,"org.eclipse.ui.edit.cut",1381733230809
executed,command,org.eclipse.ui,3.7.0.v20110928-1505,"org.eclipse.ui.edit.paste",1381733233220
started,bundle,org.eclipse.mylyn.java.tasks,3.8.3.v20130107-0100,"org.eclipse.mylyn.java.tasks",1381733233275
activated,editor,org.eclipse.jdt.ui,3.7.2.v20120109-1427,"org.eclipse.jdt.ui.CompilationUnitEditor",1381733254516
deactivated,workbench,org.eclipse.ui.workbench,3.7.1.v20120104-1859,"",1381733255250
activated,workbench,org.eclipse.ui.workbench,3.7.1.v20120104-1859,"",1381733257218
activated,view,org.eclipse.jdt.ui,3.7.2.v20120109-1427,"org.eclipse.jdt.ui.PackageExplorer",1381733258313
deactivated,workbench,org.eclipse.ui.workbench,3.7.1.v20120104-1859,"",1381733259201
activated,workbench,org.eclipse.ui.workbench,3.7.1.v20120104-1859,"",1381733260134
deactivated,workbench,org.eclipse.ui.workbench,3.7.1.v20120104-1859,"",1381733260653
activated,workbench,org.eclipse.ui.workbench,3.7.1.v20120104-1859,"",1381780081494
deactivated,workbench,org.eclipse.ui.workbench,3.7.1.v20120104-1859,"",1381780088795
activated,workbench,org.eclipse.ui.workbench,3.7.1.v20120104-1859,"",1381789392873
deactivated,workbench,org.eclipse.ui.workbench,3.7.1.v20120104-1859,"",1381789394379
activated,workbench,org.eclipse.ui.workbench,3.7.1.v20120104-1859,"",1381814700699
started,bundle,org.eclipse.epp.usagedata.ui,1.3.1.R201106061540,"org.eclipse.epp.usagedata.ui",1381814700769
deactivated,workbench,org.eclipse.ui.workbench,3.7.1.v20120104-1859,"",1381814705150
activated,workbench,org.eclipse.ui.workbench,3.7.1.v20120104-1859,"",1381814705695
deactivated,workbench,org.eclipse.ui.workbench,3.7.1.v20120104-1859,"",1381814705709
activated,workbench,org.eclipse.ui.workbench,3.7.1.v20120104-1859,"",1381814708494
closed,workbench,org.eclipse.ui.workbench,3.7.1.v20120104-1859,"",1381814708692
stopped,bundle,org.eclipse.m2e.logback.configuration,1.0.200.20111228-1245,"org.eclipse.m2e.logback.configuration",1381814712160
stopped,bundle,com.google.gdt.eclipse.mobile.android,3.3.0.v201307162142-rel-r37,"com.google.gdt.eclipse.mobile.android",1381814712160
stopped,bundle,com.google.gdt.eclipse.appengine.swarm_backend,3.3.0.v201307162142-rel-r37,"com.google.gdt.eclipse.appengine.swarm_backend",1381814712160
stopped,bundle,com.google.gdt.eclipse.suite.ext,3.3.0.v201307162142-rel-r37,"com.google.gdt.eclipse.suite.ext",1381814712160
stopped,bundle,com.google.gdt.eclipse.appengine.swarm,3.3.0.v201307162142-rel-r37,"com.google.gdt.eclipse.appengine.swarm",1381814712160
stopped,bundle,com.google.gdt.eclipse.gph.e36,3.3.0.v201307162142-rel-r37,"com.google.gdt.eclipse.gph.e36",1381814712160
stopped,bundle,com.google.gdt.eclipse.gph.hge,3.3.0.v201307162142-rel-r37,"com.google.gdt.eclipse.gph.hge",1381814712160
stopped,bundle,com.google.gdt.eclipse.gph.subclipse,3.3.0.v201307162142-rel-r37,"com.google.gdt.eclipse.gph.subclipse",1381814712160
stopped,bundle,com.google.gdt.eclipse.gph.subversive,3.3.0.v201307162142-rel-r37,"com.google.gdt.eclipse.gph.subversive",1381814712160
stopped,bundle,com.google.gdt.eclipse.suite.ext.e35,3.3.0.v201307162142-rel-r37,"com.google.gdt.eclipse.suite.ext.e35",1381814712160
stopped,bundle,com.google.gdt.eclipse.gph,3.3.0.v201307162142-rel-r37,"com.google.gdt.eclipse.gph",1381814712160
stopped,bundle,com.google.gdt.eclipse.maven.e37,3.3.0.v201307162142-rel-r37,"com.google.gdt.eclipse.maven.e37",1381814712160
stopped,bundle,com.google.gdt.eclipse.maven,3.3.0.v201307162142-rel-r37,"com.google.gdt.eclipse.maven",1381814712161
stopped,bundle,com.google.gdt.eclipse.suite,3.3.0.v201307162142-rel-r37,"com.google.gdt.eclipse.suite",1381814712161
stopped,bundle,com.google.gdt.eclipse.managedapis,3.3.0.v201307162142-rel-r37,"com.google.gdt.eclipse.managedapis",1381814712161
stopped,bundle,org.eclipse.m2e.discovery,1.0.200.20111228-1245,"org.eclipse.m2e.discovery",1381814712162
stopped,bundle,org.eclipse.m2e.refactoring,1.0.200.20111228-1245,"org.eclipse.m2e.refactoring",1381814712162
stopped,bundle,org.eclipse.m2e.editor,1.0.200.20111228-1245,"org.eclipse.m2e.editor",1381814712162
stopped,bundle,org.eclipse.m2e.editor.xml,1.0.200.20111228-1245,"org.eclipse.m2e.editor.xml",1381814712162
stopped,bundle,org.eclipse.m2e.jdt,1.0.200.20111228-1245,"org.eclipse.m2e.jdt",1381814712162
stopped,bundle,org.eclipse.m2e.launching,1.0.200.20111228-1245,"org.eclipse.m2e.launching",1381814712162
stopped,bundle,org.eclipse.m2e.usagedata,1.0.200.20111228-1245,"org.eclipse.m2e.usagedata",1381814712162
stopped,bundle,com.google.appengine.eclipse.datatools,3.3.0.v201307162142-rel-r37,"com.google.appengine.eclipse.datatools",1381814712162
stopped,bundle,com.google.appengine.eclipse.webtools,3.3.0.v201307162142-rel-r37,"com.google.appengine.eclipse.webtools",1381814712162
stopped,bundle,com.google.gdt.eclipse.appsmarketplace,3.3.0.v201307162142-rel-r37,"com.google.gdt.eclipse.appsmarketplace",1381814712162
stopped,bundle,com.google.appengine.eclipse.core,3.3.0.v201307162142-rel-r37,"com.google.appengine.eclipse.core",1381814712162
stopped,bundle,com.google.gdt.eclipse.login,3.3.0.v201307162142-rel-r37,"com.google.gdt.eclipse.login",1381814712162
stopped,bundle,com.google.gwt.eclipse.oophm,3.3.0.v201307162142-rel-r37,"com.google.gwt.eclipse.oophm",1381814712162
stopped,bundle,com.google.gwt.eclipse.core,3.3.0.v201307162142-rel-r37,"com.google.gwt.eclipse.core",1381814712364
stopped,bundle,com.google.gdt.eclipse.core,3.3.0.v201307162142-rel-r37,"com.google.gdt.eclipse.core",1381814712364
stopped,bundle,com.google.gdt.eclipse.platform,3.3.0.v201307162142-rel-r37,"com.google.gdt.eclipse.platform",1381814712364
stopped,bundle,com.google.gdt.eclipse.platform.e37,3.3.0.v201307162142-rel-r37,"com.google.gdt.eclipse.platform.e37",1381814712364
stopped,bundle,org.eclipse.cdt.debug.edc.linux.x86,1.0.0.201202112006,"org.eclipse.cdt.debug.edc.linux.x86",1381814712364
stopped,bundle,org.eclipse.cdt.debug.edc.windows.ui,1.0.0.201202112006,"org.eclipse.cdt.debug.edc.windows.ui",1381814712364
stopped,bundle,org.eclipse.cdt.debug.edc.windows,2.0.0.201202112006,"org.eclipse.cdt.debug.edc.windows",1381814712364
stopped,bundle,org.eclipse.cdt.debug.edc.ui,2.0.0.201202112006,"org.eclipse.cdt.debug.edc.ui",1381814712364
stopped,bundle,org.eclipse.cdt.debug.edc.x86,1.0.0.201202112006,"org.eclipse.cdt.debug.edc.x86",1381814712364
stopped,bundle,org.eclipse.cdt.debug.edc,2.0.0.201202112006,"org.eclipse.cdt.debug.edc",1381814712364
stopped,bundle,org.eclipse.cdt.scripting,1.0.0.201202112006,"org.eclipse.cdt.scripting",1381814712364
stopped,bundle,net.sf.fjep.fatjar,0.0.31,"net.sf.fjep.fatjar",1381814712364
stopped,bundle,org.eclipse.cdt,8.0.2.201202111925,"org.eclipse.cdt",1381814712365
stopped,bundle,org.eclipse.cdt.doc.user,5.1.1.201202111925,"org.eclipse.cdt.doc.user",1381814712365
stopped,bundle,com.android.ide.eclipse.ndk,22.0.5.v201307292155--757759,"com.android.ide.eclipse.ndk",1381814712365
stopped,bundle,overlay.com.android.ide.eclipse.adt.overlay,22.0.5.v201307292155--757759,"overlay.com.android.ide.eclipse.adt.overlay",1381814712365
stopped,bundle,com.android.ide.eclipse.adt,22.0.5.v201307292155--757759,"com.android.ide.eclipse.adt",1381814712382
stopped,bundle,org.eclipse.ui.cheatsheets,3.4.100.v20110425,"org.eclipse.ui.cheatsheets",1381814712382
stopped,bundle,org.eclipse.help.ui,3.5.101.r37_20110819,"org.eclipse.help.ui",1381814712382
stopped,bundle,org.eclipse.help.webapp,3.6.1.r37_20110929,"org.eclipse.help.webapp",1381814712382
stopped,bundle,org.eclipse.epp.mpc.ui,1.1.1.I20110907-0947,"org.eclipse.epp.mpc.ui",1381814712382
stopped,bundle,org.eclipse.epp.usagedata.ui,1.3.1.R201106061540,"org.eclipse.epp.usagedata.ui",1381814712382
stopped,bundle,org.eclipse.ui.intro.universal,3.2.500.v20110510,"org.eclipse.ui.intro.universal",1381814712382
stopped,bundle,org.eclipse.ui.intro,3.4.100.v20110425,"org.eclipse.ui.intro",1381814712382
stopped,bundle,org.eclipse.help.base,3.6.2.v201202080800,"org.eclipse.help.base",1381814712382
stopped,bundle,org.eclipse.equinox.http.jetty,2.0.100.v20110502,"org.eclipse.equinox.http.jetty",1381814712382
stopped,bundle,org.eclipse.m2e.core.ui,1.0.200.20111228-1245,"org.eclipse.m2e.core.ui",1381814712382
stopped,bundle,org.eclipse.m2e.core,1.0.200.20111228-1245,"org.eclipse.m2e.core",1381814712382
stopped,bundle,com.android.ide.eclipse.gldebugger,22.0.5.v201307292155--757759,"com.android.ide.eclipse.gldebugger",1381814712383
stopped,bundle,com.android.ide.eclipse.hierarchyviewer,22.0.5.v201307292155--757759,"com.android.ide.eclipse.hierarchyviewer",1381814712383
stopped,bundle,com.android.ide.eclipse.traceview,22.0.5.v201307292155--757759,"com.android.ide.eclipse.traceview",1381814712383
stopped,bundle,com.android.ide.eclipse.ddms,22.0.5.v201307292155--757759,"com.android.ide.eclipse.ddms",1381814712383
stopped,bundle,com.android.ide.eclipse.base,22.0.5.v201307292155--757759,"com.android.ide.eclipse.base",1381814712383
stopped,bundle,com.google.appengine.eclipse.sdkbundle,1.8.3,"com.google.appengine.eclipse.sdkbundle",1381814712383
stopped,bundle,com.google.gdt.eclipse.apiclientlib,3.3.0.v201307162142-rel-r37,"com.google.gdt.eclipse.apiclientlib",1381814712383
stopped,bundle,com.google.gdt.eclipse.designer.UiBinder,3.1.2.r37x201303061530,"com.google.gdt.eclipse.designer.UiBinder",1381814712383
stopped,bundle,com.google.gdt.eclipse.designer.gpe,3.1.2.r37x201303061641,"com.google.gdt.eclipse.designer.gpe",1381814712383
stopped,bundle,com.google.gdt.eclipse.designer,3.1.2.r37x201303061530,"com.google.gdt.eclipse.designer",1381814712383
stopped,bundle,com.google.gdt.eclipse.designer.hosted.2_0.ie,3.1.2.r37x201303061525,"com.google.gdt.eclipse.designer.hosted.2_0.ie",1381814712383
stopped,bundle,com.google.gdt.eclipse.designer.hosted.2_0.webkit,3.1.2.r37x201303061525,"com.google.gdt.eclipse.designer.hosted.2_0.webkit",1381814712383
stopped,bundle,com.google.gdt.eclipse.designer.hosted.2_0,3.1.2.r37x201303061525,"com.google.gdt.eclipse.designer.hosted.2_0",1381814712383
stopped,bundle,com.google.gdt.eclipse.designer.hosted.2_2.ie,3.1.2.r37x201303061525,"com.google.gdt.eclipse.designer.hosted.2_2.ie",1381814712383
stopped,bundle,com.google.gdt.eclipse.designer.hosted.2_2.webkit,3.1.2.r37x201303061525,"com.google.gdt.eclipse.designer.hosted.2_2.webkit",1381814712383
