what,kind,bundleId,bundleVersion,description,time
deactivated,workbench,org.eclipse.ui.workbench,3.7.1.v20120104-1859,"",1379980088692
activated,workbench,org.eclipse.ui.workbench,3.7.1.v20120104-1859,"",1379980100827
activated,view,org.eclipse.jdt.ui,3.7.2.v20120109-1427,"org.eclipse.jdt.ui.PackageExplorer",1379980184790
deactivated,workbench,org.eclipse.ui.workbench,3.7.1.v20120104-1859,"",1379980186753
activated,workbench,org.eclipse.ui.workbench,3.7.1.v20120104-1859,"",1379980211858
opened,editor,org.eclipse.jdt.ui,3.7.2.v20120109-1427,"org.eclipse.jdt.ui.CompilationUnitEditor",1379980212184
activated,editor,org.eclipse.jdt.ui,3.7.2.v20120109-1427,"org.eclipse.jdt.ui.CompilationUnitEditor",1379980212232
activated,editor,org.eclipse.jdt.ui,3.7.2.v20120109-1427,"org.eclipse.jdt.ui.CompilationUnitEditor",1379980226286
activated,view,org.eclipse.jdt.ui,3.7.2.v20120109-1427,"org.eclipse.jdt.ui.PackageExplorer",1379980227973
opened,editor,org.eclipse.jdt.ui,3.7.2.v20120109-1427,"org.eclipse.jdt.ui.CompilationUnitEditor",1379980228106
activated,editor,org.eclipse.jdt.ui,3.7.2.v20120109-1427,"org.eclipse.jdt.ui.CompilationUnitEditor",1379980228156
started,bundle,org.eclipse.cdt.debug.core,7.1.0.201202111925,"org.eclipse.cdt.debug.core",1379980353040
started,bundle,org.eclipse.cdt.debug.ui,7.1.2.201202111925,"org.eclipse.cdt.debug.ui",1379980353044
started,bundle,org.eclipse.tm.tcf,0.4.0.201106081058,"org.eclipse.tm.tcf",1379980353062
started,bundle,org.eclipse.tm.tcf.core,0.4.0.201106081058,"org.eclipse.tm.tcf.core",1379980353062
started,bundle,org.eclipse.tm.tcf.debug.ui,0.4.0.201106081058,"org.eclipse.tm.tcf.debug.ui",1379980353062
started,bundle,org.eclipse.tm.tcf.cdt.ui,0.4.0.201106081058,"org.eclipse.tm.tcf.cdt.ui",1379980353065
started,bundle,org.eclipse.cdt.launch,7.0.0.201202111925,"org.eclipse.cdt.launch",1379980353076
started,bundle,org.eclipse.tm.tcf.debug,0.4.0.201106081058,"org.eclipse.tm.tcf.debug",1379980353261
activated,editor,org.eclipse.jdt.ui,3.7.2.v20120109-1427,"org.eclipse.jdt.ui.CompilationUnitEditor",1379980356321
deactivated,workbench,org.eclipse.ui.workbench,3.7.1.v20120104-1859,"",1379980558981
activated,workbench,org.eclipse.ui.workbench,3.7.1.v20120104-1859,"",1379980883404
started,bundle,org.eclipse.mylyn.java.tasks,3.8.3.v20130107-0100,"org.eclipse.mylyn.java.tasks",1379980888589
executed,command,org.eclipse.ui,3.7.0.v20110928-1505,"org.eclipse.ui.edit.copy",1379980888801
activated,editor,org.eclipse.jdt.ui,3.7.2.v20120109-1427,"org.eclipse.jdt.ui.CompilationUnitEditor",1379980889279
activated,editor,org.eclipse.jdt.ui,3.7.2.v20120109-1427,"org.eclipse.jdt.ui.CompilationUnitEditor",1379980892075
activated,editor,org.eclipse.jdt.ui,3.7.2.v20120109-1427,"org.eclipse.jdt.ui.CompilationUnitEditor",1379980895615
activated,editor,org.eclipse.jdt.ui,3.7.2.v20120109-1427,"org.eclipse.jdt.ui.CompilationUnitEditor",1379980898402
started,bundle,org.eclipse.mylyn.java.ui,3.8.3.v20130107-0100,"org.eclipse.mylyn.java.ui",1379980901975
executed,command,org.eclipse.ui,3.7.0.v20110928-1505,"org.eclipse.ui.edit.text.contentAssist.proposals",1379980902274
deactivated,workbench,org.eclipse.ui.workbench,3.7.1.v20120104-1859,"",1379980905059
activated,workbench,org.eclipse.ui.workbench,3.7.1.v20120104-1859,"",1379980905530
executed,command,org.eclipse.ui,3.7.0.v20110928-1505,"org.eclipse.ui.edit.text.contentAssist.proposals",1379980908157
deactivated,workbench,org.eclipse.ui.workbench,3.7.1.v20120104-1859,"",1379980909470
activated,workbench,org.eclipse.ui.workbench,3.7.1.v20120104-1859,"",1379980909632
executed,command,org.eclipse.ui,3.7.0.v20110928-1505,"org.eclipse.ui.edit.text.contentAssist.proposals",1379980915024
deactivated,workbench,org.eclipse.ui.workbench,3.7.1.v20120104-1859,"",1379980916184
activated,workbench,org.eclipse.ui.workbench,3.7.1.v20120104-1859,"",1379980916509
executed,command,org.eclipse.ui,3.7.0.v20110928-1505,"org.eclipse.ui.file.saveAll",1379980925250
activated,editor,org.eclipse.jdt.ui,3.7.2.v20120109-1427,"org.eclipse.jdt.ui.CompilationUnitEditor",1379980958270
deactivated,workbench,org.eclipse.ui.workbench,3.7.1.v20120104-1859,"",1379980973887
activated,workbench,org.eclipse.ui.workbench,3.7.1.v20120104-1859,"",1379981223354
activated,view,org.eclipse.jdt.ui,3.7.2.v20120109-1427,"org.eclipse.jdt.ui.PackageExplorer",1379981226103
started,bundle,org.eclipse.mylyn.context.ui,3.8.3.v20130107-0100,"org.eclipse.mylyn.context.ui",1379981226119
deactivated,workbench,org.eclipse.ui.workbench,3.7.1.v20120104-1859,"",1379981228053
activated,workbench,org.eclipse.ui.workbench,3.7.1.v20120104-1859,"",1379981231676
opened,editor,org.eclipse.jdt.ui,3.7.2.v20120109-1427,"org.eclipse.jdt.ui.CompilationUnitEditor",1379981232021
activated,editor,org.eclipse.jdt.ui,3.7.2.v20120109-1427,"org.eclipse.jdt.ui.CompilationUnitEditor",1379981232070
activated,editor,org.eclipse.jdt.ui,3.7.2.v20120109-1427,"org.eclipse.jdt.ui.CompilationUnitEditor",1379981240135
opened,editor,org.eclipse.jdt.ui,3.7.2.v20120109-1427,"org.eclipse.jdt.ui.CompilationUnitEditor",1379981241309
activated,editor,org.eclipse.jdt.ui,3.7.2.v20120109-1427,"org.eclipse.jdt.ui.CompilationUnitEditor",1379981242948
activated,editor,org.eclipse.jdt.ui,3.7.2.v20120109-1427,"org.eclipse.jdt.ui.CompilationUnitEditor",1379981245470
activated,view,org.eclipse.mylyn.tasks.ui,3.8.3.v20130107-0100,"org.eclipse.mylyn.tasks.ui.views.tasks",1379981255003
activated,editor,org.eclipse.jdt.ui,3.7.2.v20120109-1427,"org.eclipse.jdt.ui.CompilationUnitEditor",1379981255018
closed,view,org.eclipse.mylyn.tasks.ui,3.8.3.v20130107-0100,"org.eclipse.mylyn.tasks.ui.views.tasks",1379981255034
activated,view,org.eclipse.ui.views,3.6.0.v20110928-1505,"org.eclipse.ui.views.ContentOutline",1379981256060
activated,editor,org.eclipse.jdt.ui,3.7.2.v20120109-1427,"org.eclipse.jdt.ui.CompilationUnitEditor",1379981256073
closed,view,org.eclipse.ui.views,3.6.0.v20110928-1505,"org.eclipse.ui.views.ContentOutline",1379981256081
opened,editor,org.eclipse.jdt.ui,3.7.2.v20120109-1427,"org.eclipse.jdt.ui.CompilationUnitEditor",1379981256124
started,bundle,org.eclipse.mylyn.ide.ant,3.8.3.v20130107-0100,"org.eclipse.mylyn.ide.ant",1379981256129
started,bundle,org.eclipse.mylyn.resources.ui,3.8.3.v20130107-0100,"org.eclipse.mylyn.resources.ui",1379981256131
started,bundle,org.eclipse.mylyn.wikitext.tasks.ui,1.7.3.v20130107-0100,"org.eclipse.mylyn.wikitext.tasks.ui",1379981256133
started,bundle,org.eclipse.mylyn.wikitext.core,1.7.3.v20130107-0100,"org.eclipse.mylyn.wikitext.core",1379981256144
activated,view,org.eclipse.ui.console,3.5.100.v20111007_r372,"org.eclipse.ui.console.ConsoleView",1379981257748
activated,view,org.eclipse.ui.ide,3.7.0.v20110928-1505,"org.eclipse.ui.views.ProblemView",1379981271160
activated,view,org.eclipse.ui.console,3.5.100.v20111007_r372,"org.eclipse.ui.console.ConsoleView",1379981272658
activated,editor,org.eclipse.jdt.ui,3.7.2.v20120109-1427,"org.eclipse.jdt.ui.CompilationUnitEditor",1379981274212
deactivated,workbench,org.eclipse.ui.workbench,3.7.1.v20120104-1859,"",1379981276848
activated,workbench,org.eclipse.ui.workbench,3.7.1.v20120104-1859,"",1379981279772
deactivated,workbench,org.eclipse.ui.workbench,3.7.1.v20120104-1859,"",1379981295986
activated,workbench,org.eclipse.ui.workbench,3.7.1.v20120104-1859,"",1379981296976
activated,editor,org.eclipse.jdt.ui,3.7.2.v20120109-1427,"org.eclipse.jdt.ui.CompilationUnitEditor",1379981297014
closed,editor,org.eclipse.jdt.ui,3.7.2.v20120109-1427,"org.eclipse.jdt.ui.CompilationUnitEditor",1379981297014
executed,command,org.eclipse.jdt.ui,3.7.2.v20120109-1427,"org.eclipse.jdt.ui.edit.text.java.organize.imports",1379981303342
deactivated,workbench,org.eclipse.ui.workbench,3.7.1.v20120104-1859,"",1379981306983
activated,workbench,org.eclipse.ui.workbench,3.7.1.v20120104-1859,"",1379981310366
executed,command,org.eclipse.ui,3.7.0.v20110928-1505,"org.eclipse.ui.edit.text.contentAssist.proposals",1379981311256
deactivated,workbench,org.eclipse.ui.workbench,3.7.1.v20120104-1859,"",1379981330891
activated,workbench,org.eclipse.ui.workbench,3.7.1.v20120104-1859,"",1379981345458
deactivated,workbench,org.eclipse.ui.workbench,3.7.1.v20120104-1859,"",1379981351060
activated,workbench,org.eclipse.ui.workbench,3.7.1.v20120104-1859,"",1379981573133
activated,editor,org.eclipse.jdt.ui,3.7.2.v20120109-1427,"org.eclipse.jdt.ui.CompilationUnitEditor",1379981579869
executed,command,org.eclipse.ui,3.7.0.v20110928-1505,"org.eclipse.ui.edit.text.contentAssist.proposals",1379981590146
executed,command,org.eclipse.jdt.ui,3.7.2.v20120109-1427,"org.eclipse.jdt.ui.edit.text.java.organize.imports",1379981604852
activated,editor,org.eclipse.jdt.ui,3.7.2.v20120109-1427,"org.eclipse.jdt.ui.CompilationUnitEditor",1379981612201
deactivated,workbench,org.eclipse.ui.workbench,3.7.1.v20120104-1859,"",1379981613633
activated,workbench,org.eclipse.ui.workbench,3.7.1.v20120104-1859,"",1379981614586
activated,editor,org.eclipse.jdt.ui,3.7.2.v20120109-1427,"org.eclipse.jdt.ui.CompilationUnitEditor",1379981614617
closed,editor,org.eclipse.jdt.ui,3.7.2.v20120109-1427,"org.eclipse.jdt.ui.CompilationUnitEditor",1379981614617
activated,editor,org.eclipse.jdt.ui,3.7.2.v20120109-1427,"org.eclipse.jdt.ui.CompilationUnitEditor",1379981630680
activated,editor,org.eclipse.jdt.ui,3.7.2.v20120109-1427,"org.eclipse.jdt.ui.CompilationUnitEditor",1379981636655
activated,editor,org.eclipse.jdt.ui,3.7.2.v20120109-1427,"org.eclipse.jdt.ui.CompilationUnitEditor",1379981637452
activated,editor,org.eclipse.jdt.ui,3.7.2.v20120109-1427,"org.eclipse.jdt.ui.CompilationUnitEditor",1379981639188
activated,editor,org.eclipse.jdt.ui,3.7.2.v20120109-1427,"org.eclipse.jdt.ui.CompilationUnitEditor",1379981645176
activated,editor,org.eclipse.jdt.ui,3.7.2.v20120109-1427,"org.eclipse.jdt.ui.CompilationUnitEditor",1379981652052
executed,command,org.eclipse.ui,3.7.0.v20110928-1505,"org.eclipse.ui.file.saveAll",1379981746719
activated,editor,org.eclipse.jdt.ui,3.7.2.v20120109-1427,"org.eclipse.jdt.ui.CompilationUnitEditor",1379981757488
activated,editor,org.eclipse.jdt.ui,3.7.2.v20120109-1427,"org.eclipse.jdt.ui.CompilationUnitEditor",1379981759540
deactivated,workbench,org.eclipse.ui.workbench,3.7.1.v20120104-1859,"",1379981767612
activated,workbench,org.eclipse.ui.workbench,3.7.1.v20120104-1859,"",1379981767732
deactivated,workbench,org.eclipse.ui.workbench,3.7.1.v20120104-1859,"",1379981875104
activated,workbench,org.eclipse.ui.workbench,3.7.1.v20120104-1859,"",1379981887812
activated,editor,org.eclipse.jdt.ui,3.7.2.v20120109-1427,"org.eclipse.jdt.ui.CompilationUnitEditor",1379981887904
activated,editor,org.eclipse.jdt.ui,3.7.2.v20120109-1427,"org.eclipse.jdt.ui.CompilationUnitEditor",1379981888891
executed,command,org.eclipse.ui,3.7.0.v20110928-1505,"org.eclipse.ui.edit.delete",1379981912922
activated,view,org.eclipse.jdt.ui,3.7.2.v20120109-1427,"org.eclipse.jdt.ui.PackageExplorer",1379981923811
opened,editor,org.eclipse.jdt.ui,3.7.2.v20120109-1427,"org.eclipse.jdt.ui.CompilationUnitEditor",1379981923961
activated,editor,org.eclipse.jdt.ui,3.7.2.v20120109-1427,"org.eclipse.jdt.ui.CompilationUnitEditor",1379981923984
activated,view,org.eclipse.jdt.ui,3.7.2.v20120109-1427,"org.eclipse.jdt.ui.PackageExplorer",1379981925572
deactivated,workbench,org.eclipse.ui.workbench,3.7.1.v20120104-1859,"",1379981927567
error,log,,,"Participant 'org.eclipse.jpt.jpa.core.refactoring.jpaDeleteTypeParticipant' removed due to the following exception",1379981928644
closed,editor,org.eclipse.jdt.ui,3.7.2.v20120109-1427,"org.eclipse.jdt.ui.CompilationUnitEditor",1379981929869
activated,workbench,org.eclipse.ui.workbench,3.7.1.v20120104-1859,"",1379981929919
executed,command,org.eclipse.ui,3.7.0.v20110928-1505,"org.eclipse.ui.edit.delete",1379981929927
activated,editor,org.eclipse.jdt.ui,3.7.2.v20120109-1427,"org.eclipse.jdt.ui.CompilationUnitEditor",1379981931313
activated,editor,org.eclipse.jdt.ui,3.7.2.v20120109-1427,"org.eclipse.jdt.ui.CompilationUnitEditor",1379981948616
activated,editor,org.eclipse.jdt.ui,3.7.2.v20120109-1427,"org.eclipse.jdt.ui.CompilationUnitEditor",1379981950429
executed,command,org.eclipse.ui.ide,3.7.0.v20110928-1505,"org.eclipse.jdt.ui.edit.text.java.correction.assist.proposals",1379981973093
executed,command,org.eclipse.ui,3.7.0.v20110928-1505,"org.eclipse.ui.file.saveAll",1379981980257
activated,editor,org.eclipse.jdt.ui,3.7.2.v20120109-1427,"org.eclipse.jdt.ui.CompilationUnitEditor",1379981994506
deactivated,workbench,org.eclipse.ui.workbench,3.7.1.v20120104-1859,"",1379982000230
activated,workbench,org.eclipse.ui.workbench,3.7.1.v20120104-1859,"",1379982027495
deactivated,workbench,org.eclipse.ui.workbench,3.7.1.v20120104-1859,"",1379982033156
activated,workbench,org.eclipse.ui.workbench,3.7.1.v20120104-1859,"",1379982049655
activated,editor,org.eclipse.jdt.ui,3.7.2.v20120109-1427,"org.eclipse.jdt.ui.CompilationUnitEditor",1379982056511
activated,editor,org.eclipse.jdt.ui,3.7.2.v20120109-1427,"org.eclipse.jdt.ui.CompilationUnitEditor",1379982057480
activated,editor,org.eclipse.jdt.ui,3.7.2.v20120109-1427,"org.eclipse.jdt.ui.CompilationUnitEditor",1379982066820
deactivated,workbench,org.eclipse.ui.workbench,3.7.1.v20120104-1859,"",1379982107540
activated,workbench,org.eclipse.ui.workbench,3.7.1.v20120104-1859,"",1379982107633
activated,editor,org.eclipse.jdt.ui,3.7.2.v20120109-1427,"org.eclipse.jdt.ui.CompilationUnitEditor",1379982107645
deactivated,workbench,org.eclipse.ui.workbench,3.7.1.v20120104-1859,"",1379982108383
activated,workbench,org.eclipse.ui.workbench,3.7.1.v20120104-1859,"",1379982108407
activated,editor,org.eclipse.jdt.ui,3.7.2.v20120109-1427,"org.eclipse.jdt.ui.CompilationUnitEditor",1379982130706
activated,editor,org.eclipse.jdt.ui,3.7.2.v20120109-1427,"org.eclipse.jdt.ui.CompilationUnitEditor",1379982248664
activated,editor,org.eclipse.jdt.ui,3.7.2.v20120109-1427,"org.eclipse.jdt.ui.CompilationUnitEditor",1379982385347
closed,editor,org.eclipse.jdt.ui,3.7.2.v20120109-1427,"org.eclipse.jdt.ui.CompilationUnitEditor",1379982508103
activated,view,org.eclipse.jdt.ui,3.7.2.v20120109-1427,"org.eclipse.jdt.ui.PackageExplorer",1379982528459
activated,editor,org.eclipse.jdt.ui,3.7.2.v20120109-1427,"org.eclipse.jdt.ui.CompilationUnitEditor",1379982529545
deactivated,workbench,org.eclipse.ui.workbench,3.7.1.v20120104-1859,"",1379982533924
activated,workbench,org.eclipse.ui.workbench,3.7.1.v20120104-1859,"",1379982617903
deactivated,workbench,org.eclipse.ui.workbench,3.7.1.v20120104-1859,"",1379982652835
activated,workbench,org.eclipse.ui.workbench,3.7.1.v20120104-1859,"",1379983997895
activated,editor,org.eclipse.jdt.ui,3.7.2.v20120109-1427,"org.eclipse.jdt.ui.CompilationUnitEditor",1379984003621
activated,editor,org.eclipse.jdt.ui,3.7.2.v20120109-1427,"org.eclipse.jdt.ui.CompilationUnitEditor",1379984039857
deactivated,workbench,org.eclipse.ui.workbench,3.7.1.v20120104-1859,"",1379984040617
activated,workbench,org.eclipse.ui.workbench,3.7.1.v20120104-1859,"",1379984041469
started,bundle,org.eclipse.core.variables,3.2.500.v20110928-1503,"org.eclipse.core.variables",1379984041618
started,bundle,org.eclipse.m2e.launching,1.0.200.20111228-1245,"org.eclipse.m2e.launching",1379984041825
started,bundle,org.eclipse.cdt.debug.mi.ui,6.1.1.201202111925,"org.eclipse.cdt.debug.mi.ui",1379984041969
started,bundle,org.eclipse.cdt.debug.mi.core,7.1.1.201202111925,"org.eclipse.cdt.debug.mi.core",1379984042087
deactivated,workbench,org.eclipse.ui.workbench,3.7.1.v20120104-1859,"",1379984043092
activated,workbench,org.eclipse.ui.workbench,3.7.1.v20120104-1859,"",1379984057722
activated,view,org.eclipse.ui.console,3.5.100.v20111007_r372,"org.eclipse.ui.console.ConsoleView",1379984057733
deactivated,workbench,org.eclipse.ui.workbench,3.7.1.v20120104-1859,"",1379984060892
activated,workbench,org.eclipse.ui.workbench,3.7.1.v20120104-1859,"",1379984066277
activated,editor,org.eclipse.jdt.ui,3.7.2.v20120109-1427,"org.eclipse.jdt.ui.CompilationUnitEditor",1379984073250
activated,editor,org.eclipse.jdt.ui,3.7.2.v20120109-1427,"org.eclipse.jdt.ui.CompilationUnitEditor",1379984074066
deactivated,workbench,org.eclipse.ui.workbench,3.7.1.v20120104-1859,"",1379984093955
activated,workbench,org.eclipse.ui.workbench,3.7.1.v20120104-1859,"",1379984342619
deactivated,workbench,org.eclipse.ui.workbench,3.7.1.v20120104-1859,"",1379984351719
activated,workbench,org.eclipse.ui.workbench,3.7.1.v20120104-1859,"",1379984717275
deactivated,workbench,org.eclipse.ui.workbench,3.7.1.v20120104-1859,"",1379984717853
deactivated,workbench,org.eclipse.ui.workbench,3.7.1.v20120104-1859,"",1379984739897
activated,workbench,org.eclipse.ui.workbench,3.7.1.v20120104-1859,"",1379984740071
activated,editor,org.eclipse.jdt.ui,3.7.2.v20120109-1427,"org.eclipse.jdt.ui.CompilationUnitEditor",1379984813024
deactivated,workbench,org.eclipse.ui.workbench,3.7.1.v20120104-1859,"",1379984815429
activated,workbench,org.eclipse.ui.workbench,3.7.1.v20120104-1859,"",1379984848866
activated,editor,org.eclipse.jdt.ui,3.7.2.v20120109-1427,"org.eclipse.jdt.ui.CompilationUnitEditor",1379984850740
deactivated,workbench,org.eclipse.ui.workbench,3.7.1.v20120104-1859,"",1379985186794
activated,workbench,org.eclipse.ui.workbench,3.7.1.v20120104-1859,"",1379985230038
deactivated,workbench,org.eclipse.ui.workbench,3.7.1.v20120104-1859,"",1379985244067
activated,workbench,org.eclipse.ui.workbench,3.7.1.v20120104-1859,"",1379985258644
deactivated,workbench,org.eclipse.ui.workbench,3.7.1.v20120104-1859,"",1379985260652
activated,workbench,org.eclipse.ui.workbench,3.7.1.v20120104-1859,"",1379985556359
deactivated,workbench,org.eclipse.ui.workbench,3.7.1.v20120104-1859,"",1379985630670
activated,workbench,org.eclipse.ui.workbench,3.7.1.v20120104-1859,"",1379985755925
deactivated,workbench,org.eclipse.ui.workbench,3.7.1.v20120104-1859,"",1379985823473
activated,workbench,org.eclipse.ui.workbench,3.7.1.v20120104-1859,"",1379986879022
deactivated,workbench,org.eclipse.ui.workbench,3.7.1.v20120104-1859,"",1379986879575
activated,workbench,org.eclipse.ui.workbench,3.7.1.v20120104-1859,"",1379987088075
deactivated,workbench,org.eclipse.ui.workbench,3.7.1.v20120104-1859,"",1379987097845
activated,workbench,org.eclipse.ui.workbench,3.7.1.v20120104-1859,"",1379987182369
deactivated,workbench,org.eclipse.ui.workbench,3.7.1.v20120104-1859,"",1379987186304
activated,workbench,org.eclipse.ui.workbench,3.7.1.v20120104-1859,"",1379996596730
deactivated,workbench,org.eclipse.ui.workbench,3.7.1.v20120104-1859,"",1379996786669
activated,workbench,org.eclipse.ui.workbench,3.7.1.v20120104-1859,"",1379998079343
deactivated,workbench,org.eclipse.ui.workbench,3.7.1.v20120104-1859,"",1379998148074
activated,workbench,org.eclipse.ui.workbench,3.7.1.v20120104-1859,"",1380001495731
deactivated,workbench,org.eclipse.ui.workbench,3.7.1.v20120104-1859,"",1380001497205
deactivated,workbench,org.eclipse.ui.workbench,3.7.1.v20120104-1859,"",1380001499600
deactivated,workbench,org.eclipse.ui.workbench,3.7.1.v20120104-1859,"",1380001500589
deactivated,workbench,org.eclipse.ui.workbench,3.7.1.v20120104-1859,"",1380001501074
activated,workbench,org.eclipse.ui.workbench,3.7.1.v20120104-1859,"",1380001501976
executed,command,org.eclipse.ui,3.7.0.v20110928-1505,"org.eclipse.ui.file.saveAll",1380001503244
error,log,,,"Could not parse the XML file C:\\Users\\Jesse\\AppData\\Local\\Temp\\site8058284612841888471xml",1380001505015
deactivated,workbench,org.eclipse.ui.workbench,3.7.1.v20120104-1859,"",1380001505798
activated,workbench,org.eclipse.ui.workbench,3.7.1.v20120104-1859,"",1380001507184
closed,workbench,org.eclipse.ui.workbench,3.7.1.v20120104-1859,"",1380001507336
stopped,bundle,org.eclipse.m2e.logback.configuration,1.0.200.20111228-1245,"org.eclipse.m2e.logback.configuration",1380001507996
stopped,bundle,com.google.gdt.eclipse.mobile.android,3.3.0.v201307162142-rel-r37,"com.google.gdt.eclipse.mobile.android",1380001507996
stopped,bundle,com.google.gdt.eclipse.appengine.swarm_backend,3.3.0.v201307162142-rel-r37,"com.google.gdt.eclipse.appengine.swarm_backend",1380001507996
stopped,bundle,com.google.gdt.eclipse.suite.ext,3.3.0.v201307162142-rel-r37,"com.google.gdt.eclipse.suite.ext",1380001507996
stopped,bundle,com.google.gdt.eclipse.appengine.swarm,3.3.0.v201307162142-rel-r37,"com.google.gdt.eclipse.appengine.swarm",1380001507996
stopped,bundle,com.google.gdt.eclipse.gph.e36,3.3.0.v201307162142-rel-r37,"com.google.gdt.eclipse.gph.e36",1380001507996
stopped,bundle,com.google.gdt.eclipse.gph.hge,3.3.0.v201307162142-rel-r37,"com.google.gdt.eclipse.gph.hge",1380001507996
stopped,bundle,com.google.gdt.eclipse.gph.subclipse,3.3.0.v201307162142-rel-r37,"com.google.gdt.eclipse.gph.subclipse",1380001507996
stopped,bundle,com.google.gdt.eclipse.gph.subversive,3.3.0.v201307162142-rel-r37,"com.google.gdt.eclipse.gph.subversive",1380001507996
stopped,bundle,com.google.gdt.eclipse.suite.ext.e35,3.3.0.v201307162142-rel-r37,"com.google.gdt.eclipse.suite.ext.e35",1380001507996
stopped,bundle,com.google.gdt.eclipse.gph,3.3.0.v201307162142-rel-r37,"com.google.gdt.eclipse.gph",1380001507996
stopped,bundle,com.google.gdt.eclipse.maven.e37,3.3.0.v201307162142-rel-r37,"com.google.gdt.eclipse.maven.e37",1380001507996
stopped,bundle,com.google.gdt.eclipse.maven,3.3.0.v201307162142-rel-r37,"com.google.gdt.eclipse.maven",1380001507996
stopped,bundle,com.google.gdt.eclipse.suite,3.3.0.v201307162142-rel-r37,"com.google.gdt.eclipse.suite",1380001507996
stopped,bundle,com.google.gdt.eclipse.managedapis,3.3.0.v201307162142-rel-r37,"com.google.gdt.eclipse.managedapis",1380001507997
stopped,bundle,org.eclipse.m2e.discovery,1.0.200.20111228-1245,"org.eclipse.m2e.discovery",1380001507997
stopped,bundle,org.eclipse.m2e.refactoring,1.0.200.20111228-1245,"org.eclipse.m2e.refactoring",1380001507997
stopped,bundle,org.eclipse.m2e.editor,1.0.200.20111228-1245,"org.eclipse.m2e.editor",1380001507997
stopped,bundle,org.eclipse.m2e.editor.xml,1.0.200.20111228-1245,"org.eclipse.m2e.editor.xml",1380001507997
stopped,bundle,org.eclipse.m2e.jdt,1.0.200.20111228-1245,"org.eclipse.m2e.jdt",1380001507997
stopped,bundle,org.eclipse.m2e.launching,1.0.200.20111228-1245,"org.eclipse.m2e.launching",1380001507997
stopped,bundle,org.eclipse.m2e.usagedata,1.0.200.20111228-1245,"org.eclipse.m2e.usagedata",1380001507997
stopped,bundle,com.google.appengine.eclipse.datatools,3.3.0.v201307162142-rel-r37,"com.google.appengine.eclipse.datatools",1380001507997
stopped,bundle,com.google.appengine.eclipse.webtools,3.3.0.v201307162142-rel-r37,"com.google.appengine.eclipse.webtools",1380001507997
stopped,bundle,com.google.gdt.eclipse.appsmarketplace,3.3.0.v201307162142-rel-r37,"com.google.gdt.eclipse.appsmarketplace",1380001507997
stopped,bundle,com.google.appengine.eclipse.core,3.3.0.v201307162142-rel-r37,"com.google.appengine.eclipse.core",1380001507998
stopped,bundle,com.google.gdt.eclipse.login,3.3.0.v201307162142-rel-r37,"com.google.gdt.eclipse.login",1380001507998
stopped,bundle,com.google.gwt.eclipse.oophm,3.3.0.v201307162142-rel-r37,"com.google.gwt.eclipse.oophm",1380001507998
stopped,bundle,com.google.gwt.eclipse.core,3.3.0.v201307162142-rel-r37,"com.google.gwt.eclipse.core",1380001508158
stopped,bundle,com.google.gdt.eclipse.core,3.3.0.v201307162142-rel-r37,"com.google.gdt.eclipse.core",1380001508158
stopped,bundle,com.google.gdt.eclipse.platform,3.3.0.v201307162142-rel-r37,"com.google.gdt.eclipse.platform",1380001508158
stopped,bundle,com.google.gdt.eclipse.platform.e37,3.3.0.v201307162142-rel-r37,"com.google.gdt.eclipse.platform.e37",1380001508158
stopped,bundle,org.eclipse.cdt.debug.edc.linux.x86,1.0.0.201202112006,"org.eclipse.cdt.debug.edc.linux.x86",1380001508158
stopped,bundle,org.eclipse.cdt.debug.edc.windows.ui,1.0.0.201202112006,"org.eclipse.cdt.debug.edc.windows.ui",1380001508158
stopped,bundle,org.eclipse.cdt.debug.edc.windows,2.0.0.201202112006,"org.eclipse.cdt.debug.edc.windows",1380001508158
stopped,bundle,org.eclipse.cdt.debug.edc.ui,2.0.0.201202112006,"org.eclipse.cdt.debug.edc.ui",1380001508158
stopped,bundle,org.eclipse.cdt.debug.edc.x86,1.0.0.201202112006,"org.eclipse.cdt.debug.edc.x86",1380001508158
stopped,bundle,org.eclipse.cdt.debug.edc,2.0.0.201202112006,"org.eclipse.cdt.debug.edc",1380001508158
stopped,bundle,org.eclipse.cdt.scripting,1.0.0.201202112006,"org.eclipse.cdt.scripting",1380001508158
stopped,bundle,net.sf.fjep.fatjar,0.0.31,"net.sf.fjep.fatjar",1380001508158
stopped,bundle,org.eclipse.cdt,8.0.2.201202111925,"org.eclipse.cdt",1380001508158
stopped,bundle,org.eclipse.cdt.doc.user,5.1.1.201202111925,"org.eclipse.cdt.doc.user",1380001508158
stopped,bundle,com.android.ide.eclipse.ndk,22.0.5.v201307292155--757759,"com.android.ide.eclipse.ndk",1380001508158
stopped,bundle,overlay.com.android.ide.eclipse.adt.overlay,22.0.5.v201307292155--757759,"overlay.com.android.ide.eclipse.adt.overlay",1380001508158
stopped,bundle,com.android.ide.eclipse.adt,22.0.5.v201307292155--757759,"com.android.ide.eclipse.adt",1380001508175
stopped,bundle,org.eclipse.ui.cheatsheets,3.4.100.v20110425,"org.eclipse.ui.cheatsheets",1380001508175
stopped,bundle,org.eclipse.help.ui,3.5.101.r37_20110819,"org.eclipse.help.ui",1380001508175
stopped,bundle,org.eclipse.help.webapp,3.6.1.r37_20110929,"org.eclipse.help.webapp",1380001508175
stopped,bundle,org.eclipse.epp.mpc.ui,1.1.1.I20110907-0947,"org.eclipse.epp.mpc.ui",1380001508175
stopped,bundle,org.eclipse.epp.usagedata.ui,1.3.1.R201106061540,"org.eclipse.epp.usagedata.ui",1380001508175
stopped,bundle,org.eclipse.ui.intro.universal,3.2.500.v20110510,"org.eclipse.ui.intro.universal",1380001508175
stopped,bundle,org.eclipse.ui.intro,3.4.100.v20110425,"org.eclipse.ui.intro",1380001508175
