what,kind,bundleId,bundleVersion,description,time
deactivated,workbench,org.eclipse.ui.workbench,3.7.1.v20120104-1859,"",1377028073126
activated,workbench,org.eclipse.ui.workbench,3.7.1.v20120104-1859,"",1377028183077
deactivated,workbench,org.eclipse.ui.workbench,3.7.1.v20120104-1859,"",1377028190779
activated,workbench,org.eclipse.ui.workbench,3.7.1.v20120104-1859,"",1377028191693
deactivated,workbench,org.eclipse.ui.workbench,3.7.1.v20120104-1859,"",1377028194740
activated,workbench,org.eclipse.ui.workbench,3.7.1.v20120104-1859,"",1377028208992
activated,view,org.eclipse.jdt.ui,3.7.2.v20120109-1427,"org.eclipse.jdt.ui.PackageExplorer",1377028250654
deactivated,workbench,org.eclipse.ui.workbench,3.7.1.v20120104-1859,"",1377028253454
activated,workbench,org.eclipse.ui.workbench,3.7.1.v20120104-1859,"",1377028262637
deactivated,workbench,org.eclipse.ui.workbench,3.7.1.v20120104-1859,"",1377028265739
error,log,,,"Participant 'org.eclipse.jpt.jpa.core.refactoring.jpaDeletePackageOrFolderParticipant' removed due to the following exception",1377028266826
activated,workbench,org.eclipse.ui.workbench,3.7.1.v20120104-1859,"",1377028267932
executed,command,org.eclipse.ui,3.7.0.v20110928-1505,"org.eclipse.ui.edit.delete",1377028267939
deactivated,workbench,org.eclipse.ui.workbench,3.7.1.v20120104-1859,"",1377028270604
activated,workbench,org.eclipse.ui.workbench,3.7.1.v20120104-1859,"",1377028275589
deactivated,workbench,org.eclipse.ui.workbench,3.7.1.v20120104-1859,"",1377028278702
activated,workbench,org.eclipse.ui.workbench,3.7.1.v20120104-1859,"",1377028284892
deactivated,workbench,org.eclipse.ui.workbench,3.7.1.v20120104-1859,"",1377028290103
activated,workbench,org.eclipse.ui.workbench,3.7.1.v20120104-1859,"",1377028291496
opened,editor,org.eclipse.jdt.ui,3.7.2.v20120109-1427,"org.eclipse.jdt.ui.CompilationUnitEditor",1377028291792
activated,editor,org.eclipse.jdt.ui,3.7.2.v20120109-1427,"org.eclipse.jdt.ui.CompilationUnitEditor",1377028291849
activated,editor,org.eclipse.jdt.ui,3.7.2.v20120109-1427,"org.eclipse.jdt.ui.CompilationUnitEditor",1377028306179
activated,editor,org.eclipse.jdt.ui,3.7.2.v20120109-1427,"org.eclipse.jdt.ui.CompilationUnitEditor",1377028311089
activated,editor,org.eclipse.jdt.ui,3.7.2.v20120109-1427,"org.eclipse.jdt.ui.CompilationUnitEditor",1377028322179
activated,editor,org.eclipse.jdt.ui,3.7.2.v20120109-1427,"org.eclipse.jdt.ui.CompilationUnitEditor",1377028323605
activated,editor,org.eclipse.jdt.ui,3.7.2.v20120109-1427,"org.eclipse.jdt.ui.CompilationUnitEditor",1377028339781
activated,editor,org.eclipse.jdt.ui,3.7.2.v20120109-1427,"org.eclipse.jdt.ui.CompilationUnitEditor",1377028342565
activated,editor,org.eclipse.jdt.ui,3.7.2.v20120109-1427,"org.eclipse.jdt.ui.CompilationUnitEditor",1377028345462
activated,editor,org.eclipse.jdt.ui,3.7.2.v20120109-1427,"org.eclipse.jdt.ui.CompilationUnitEditor",1377028347189
executed,command,org.eclipse.jdt.ui,3.7.2.v20120109-1427,"org.eclipse.jdt.ui.edit.text.java.organize.imports",1377028351646
activated,editor,org.eclipse.jdt.ui,3.7.2.v20120109-1427,"org.eclipse.jdt.ui.CompilationUnitEditor",1377028353193
executed,command,org.eclipse.ui,3.7.0.v20110928-1505,"org.eclipse.ui.edit.delete",1377028358919
executed,command,org.eclipse.ui,3.7.0.v20110928-1505,"org.eclipse.ui.edit.copy",1377028371159
activated,editor,org.eclipse.jdt.ui,3.7.2.v20120109-1427,"org.eclipse.jdt.ui.CompilationUnitEditor",1377028372720
executed,command,org.eclipse.ui,3.7.0.v20110928-1505,"org.eclipse.ui.edit.paste",1377028377388
activated,editor,org.eclipse.jdt.ui,3.7.2.v20120109-1427,"org.eclipse.jdt.ui.CompilationUnitEditor",1377028381334
activated,editor,org.eclipse.jdt.ui,3.7.2.v20120109-1427,"org.eclipse.jdt.ui.CompilationUnitEditor",1377028382065
activated,editor,org.eclipse.jdt.ui,3.7.2.v20120109-1427,"org.eclipse.jdt.ui.CompilationUnitEditor",1377028388565
activated,editor,org.eclipse.jdt.ui,3.7.2.v20120109-1427,"org.eclipse.jdt.ui.CompilationUnitEditor",1377028390578
executed,command,org.eclipse.ui,3.7.0.v20110928-1505,"org.eclipse.ui.edit.text.contentAssist.proposals",1377028391864
executed,command,org.eclipse.jdt.ui,3.7.2.v20120109-1427,"org.eclipse.jdt.ui.edit.text.java.show.outline",1377028392193
activated,editor,org.eclipse.jdt.ui,3.7.2.v20120109-1427,"org.eclipse.jdt.ui.CompilationUnitEditor",1377028405438
executed,command,org.eclipse.ui,3.7.0.v20110928-1505,"org.eclipse.ui.edit.copy",1377028411412
activated,editor,org.eclipse.jdt.ui,3.7.2.v20120109-1427,"org.eclipse.jdt.ui.CompilationUnitEditor",1377028412196
executed,command,org.eclipse.ui,3.7.0.v20110928-1505,"org.eclipse.ui.edit.paste",1377028413110
deactivated,workbench,org.eclipse.ui.workbench,3.7.1.v20120104-1859,"",1377028479347
activated,workbench,org.eclipse.ui.workbench,3.7.1.v20120104-1859,"",1377028485699
activated,view,org.eclipse.jdt.ui,3.7.2.v20120109-1427,"org.eclipse.jdt.ui.PackageExplorer",1377028528149
activated,editor,org.eclipse.jdt.ui,3.7.2.v20120109-1427,"org.eclipse.jdt.ui.CompilationUnitEditor",1377028537154
activated,view,org.eclipse.jdt.ui,3.7.2.v20120109-1427,"org.eclipse.jdt.ui.PackageExplorer",1377028549878
deactivated,workbench,org.eclipse.ui.workbench,3.7.1.v20120104-1859,"",1377028554555
started,bundle,org.eclipse.ant.ui,3.5.101.v20120110-1739,"org.eclipse.ant.ui",1377028557125
activated,workbench,org.eclipse.ui.workbench,3.7.1.v20120104-1859,"",1377028557286
executed,command,org.eclipse.jdt.ui,3.7.2.v20120109-1427,"org.eclipse.jdt.ui.edit.text.java.rename.element",1377028557293
activated,editor,org.eclipse.jdt.ui,3.7.2.v20120109-1427,"org.eclipse.jdt.ui.CompilationUnitEditor",1377028565455
activated,view,org.eclipse.ui.ide,3.7.0.v20110928-1505,"org.eclipse.ui.views.ProblemView",1377028566322
activated,editor,org.eclipse.jdt.ui,3.7.2.v20120109-1427,"org.eclipse.jdt.ui.CompilationUnitEditor",1377028569247
executed,command,org.eclipse.ui,3.7.0.v20110928-1505,"org.eclipse.ui.file.saveAll",1377028587360
activated,editor,org.eclipse.jdt.ui,3.7.2.v20120109-1427,"org.eclipse.jdt.ui.CompilationUnitEditor",1377028589300
executed,command,org.eclipse.ui,3.7.0.v20110928-1505,"org.eclipse.ui.edit.copy",1377028595792
activated,editor,org.eclipse.jdt.ui,3.7.2.v20120109-1427,"org.eclipse.jdt.ui.CompilationUnitEditor",1377028596722
executed,command,org.eclipse.ui,3.7.0.v20110928-1505,"org.eclipse.ui.edit.paste",1377028599061
activated,editor,org.eclipse.jdt.ui,3.7.2.v20120109-1427,"org.eclipse.jdt.ui.CompilationUnitEditor",1377028600677
activated,editor,org.eclipse.jdt.ui,3.7.2.v20120109-1427,"org.eclipse.jdt.ui.CompilationUnitEditor",1377028619453
activated,editor,org.eclipse.jdt.ui,3.7.2.v20120109-1427,"org.eclipse.jdt.ui.CompilationUnitEditor",1377028642082
activated,editor,org.eclipse.jdt.ui,3.7.2.v20120109-1427,"org.eclipse.jdt.ui.CompilationUnitEditor",1377028665002
activated,editor,org.eclipse.jdt.ui,3.7.2.v20120109-1427,"org.eclipse.jdt.ui.CompilationUnitEditor",1377028678189
activated,editor,org.eclipse.jdt.ui,3.7.2.v20120109-1427,"org.eclipse.jdt.ui.CompilationUnitEditor",1377028685491
executed,command,org.eclipse.ui,3.7.0.v20110928-1505,"org.eclipse.ui.edit.text.contentAssist.proposals",1377028691912
executed,command,org.eclipse.jdt.ui,3.7.2.v20120109-1427,"org.eclipse.jdt.ui.edit.text.java.organize.imports",1377028703865
executed,command,org.eclipse.jdt.ui,3.7.2.v20120109-1427,"org.eclipse.jdt.ui.edit.text.java.organize.imports",1377028707033
activated,editor,org.eclipse.jdt.ui,3.7.2.v20120109-1427,"org.eclipse.jdt.ui.CompilationUnitEditor",1377028709985
activated,editor,org.eclipse.jdt.ui,3.7.2.v20120109-1427,"org.eclipse.jdt.ui.CompilationUnitEditor",1377028718432
activated,editor,org.eclipse.jdt.ui,3.7.2.v20120109-1427,"org.eclipse.jdt.ui.CompilationUnitEditor",1377028728492
activated,editor,org.eclipse.jdt.ui,3.7.2.v20120109-1427,"org.eclipse.jdt.ui.CompilationUnitEditor",1377028729552
activated,editor,org.eclipse.jdt.ui,3.7.2.v20120109-1427,"org.eclipse.jdt.ui.CompilationUnitEditor",1377028730315
executed,command,org.eclipse.jdt.ui,3.7.2.v20120109-1427,"org.eclipse.jdt.ui.edit.text.java.organize.imports",1377028767303
activated,editor,org.eclipse.jdt.ui,3.7.2.v20120109-1427,"org.eclipse.jdt.ui.CompilationUnitEditor",1377028784487
deactivated,workbench,org.eclipse.ui.workbench,3.7.1.v20120104-1859,"",1377028785165
activated,workbench,org.eclipse.ui.workbench,3.7.1.v20120104-1859,"",1377028786061
deactivated,workbench,org.eclipse.ui.workbench,3.7.1.v20120104-1859,"",1377028786420
activated,workbench,org.eclipse.ui.workbench,3.7.1.v20120104-1859,"",1377028789174
activated,view,org.eclipse.ui.console,3.5.100.v20111007_r372,"org.eclipse.ui.console.ConsoleView",1377028795252
deactivated,workbench,org.eclipse.ui.workbench,3.7.1.v20120104-1859,"",1377028805963
activated,workbench,org.eclipse.ui.workbench,3.7.1.v20120104-1859,"",1377028808256
activated,editor,org.eclipse.jdt.ui,3.7.2.v20120109-1427,"org.eclipse.jdt.ui.CompilationUnitEditor",1377028809332
activated,editor,org.eclipse.jdt.ui,3.7.2.v20120109-1427,"org.eclipse.jdt.ui.CompilationUnitEditor",1377028816514
deactivated,workbench,org.eclipse.ui.workbench,3.7.1.v20120104-1859,"",1377028817104
activated,workbench,org.eclipse.ui.workbench,3.7.1.v20120104-1859,"",1377028818024
deactivated,workbench,org.eclipse.ui.workbench,3.7.1.v20120104-1859,"",1377028818377
activated,workbench,org.eclipse.ui.workbench,3.7.1.v20120104-1859,"",1377028822120
deactivated,workbench,org.eclipse.ui.workbench,3.7.1.v20120104-1859,"",1377028824485
activated,workbench,org.eclipse.ui.workbench,3.7.1.v20120104-1859,"",1377028826325
activated,editor,org.eclipse.jdt.ui,3.7.2.v20120109-1427,"org.eclipse.jdt.ui.CompilationUnitEditor",1377028830891
activated,editor,org.eclipse.jdt.ui,3.7.2.v20120109-1427,"org.eclipse.jdt.ui.CompilationUnitEditor",1377028838397
activated,editor,org.eclipse.jdt.ui,3.7.2.v20120109-1427,"org.eclipse.jdt.ui.CompilationUnitEditor",1377028840212
activated,editor,org.eclipse.jdt.ui,3.7.2.v20120109-1427,"org.eclipse.jdt.ui.CompilationUnitEditor",1377028840684
activated,editor,org.eclipse.jdt.ui,3.7.2.v20120109-1427,"org.eclipse.jdt.ui.CompilationUnitEditor",1377028856014
activated,editor,org.eclipse.jdt.ui,3.7.2.v20120109-1427,"org.eclipse.jdt.ui.CompilationUnitEditor",1377028862464
deactivated,workbench,org.eclipse.ui.workbench,3.7.1.v20120104-1859,"",1377028862997
activated,workbench,org.eclipse.ui.workbench,3.7.1.v20120104-1859,"",1377028864093
deactivated,workbench,org.eclipse.ui.workbench,3.7.1.v20120104-1859,"",1377028864456
activated,workbench,org.eclipse.ui.workbench,3.7.1.v20120104-1859,"",1377028876438
activated,editor,org.eclipse.jdt.ui,3.7.2.v20120109-1427,"org.eclipse.jdt.ui.CompilationUnitEditor",1377028878864
activated,editor,org.eclipse.jdt.ui,3.7.2.v20120109-1427,"org.eclipse.jdt.ui.CompilationUnitEditor",1377028881649
activated,view,org.eclipse.jdt.ui,3.7.2.v20120109-1427,"org.eclipse.jdt.ui.PackageExplorer",1377028915880
deactivated,workbench,org.eclipse.ui.workbench,3.7.1.v20120104-1859,"",1377028918127
activated,workbench,org.eclipse.ui.workbench,3.7.1.v20120104-1859,"",1377028923187
opened,editor,org.eclipse.jdt.ui,3.7.2.v20120109-1427,"org.eclipse.jdt.ui.CompilationUnitEditor",1377028923507
activated,editor,org.eclipse.jdt.ui,3.7.2.v20120109-1427,"org.eclipse.jdt.ui.CompilationUnitEditor",1377028923551
executed,command,org.eclipse.jdt.ui,3.7.2.v20120109-1427,"org.eclipse.jdt.ui.edit.text.java.organize.imports",1377028929230
executed,command,org.eclipse.ui,3.7.0.v20110928-1505,"org.eclipse.ui.edit.text.contentAssist.proposals",1377028932072
activated,editor,org.eclipse.jdt.ui,3.7.2.v20120109-1427,"org.eclipse.jdt.ui.CompilationUnitEditor",1377028937607
executed,command,org.eclipse.jdt.ui,3.7.2.v20120109-1427,"org.eclipse.jdt.ui.edit.text.java.organize.imports",1377028945795
executed,command,org.eclipse.ui,3.7.0.v20110928-1505,"org.eclipse.ui.file.saveAll",1377028949191
activated,editor,org.eclipse.jdt.ui,3.7.2.v20120109-1427,"org.eclipse.jdt.ui.CompilationUnitEditor",1377028960282
activated,editor,org.eclipse.jdt.ui,3.7.2.v20120109-1427,"org.eclipse.jdt.ui.CompilationUnitEditor",1377028967204
deactivated,workbench,org.eclipse.ui.workbench,3.7.1.v20120104-1859,"",1377028988235
activated,workbench,org.eclipse.ui.workbench,3.7.1.v20120104-1859,"",1377028988321
deactivated,workbench,org.eclipse.ui.workbench,3.7.1.v20120104-1859,"",1377029025287
activated,workbench,org.eclipse.ui.workbench,3.7.1.v20120104-1859,"",1377029025382
executed,command,org.eclipse.ui,3.7.0.v20110928-1505,"org.eclipse.ui.file.saveAll",1377029055743
activated,view,org.eclipse.jdt.ui,3.7.2.v20120109-1427,"org.eclipse.jdt.ui.PackageExplorer",1377029057703
activated,editor,org.eclipse.jdt.ui,3.7.2.v20120109-1427,"org.eclipse.jdt.ui.CompilationUnitEditor",1377029060603
activated,editor,org.eclipse.jdt.ui,3.7.2.v20120109-1427,"org.eclipse.jdt.ui.CompilationUnitEditor",1377029061124
activated,editor,org.eclipse.jdt.ui,3.7.2.v20120109-1427,"org.eclipse.jdt.ui.CompilationUnitEditor",1377029069311
closed,editor,org.eclipse.jdt.ui,3.7.2.v20120109-1427,"org.eclipse.jdt.ui.CompilationUnitEditor",1377029069311
activated,view,org.eclipse.jdt.ui,3.7.2.v20120109-1427,"org.eclipse.jdt.ui.PackageExplorer",1377029070240
deactivated,workbench,org.eclipse.ui.workbench,3.7.1.v20120104-1859,"",1377029071817
activated,workbench,org.eclipse.ui.workbench,3.7.1.v20120104-1859,"",1377029072896
executed,command,org.eclipse.ui,3.7.0.v20110928-1505,"org.eclipse.ui.edit.delete",1377029072902
activated,editor,org.eclipse.jdt.ui,3.7.2.v20120109-1427,"org.eclipse.jdt.ui.CompilationUnitEditor",1377029074155
deactivated,workbench,org.eclipse.ui.workbench,3.7.1.v20120104-1859,"",1377029096128
activated,workbench,org.eclipse.ui.workbench,3.7.1.v20120104-1859,"",1377029115324
activated,editor,org.eclipse.jdt.ui,3.7.2.v20120109-1427,"org.eclipse.jdt.ui.CompilationUnitEditor",1377029118315
activated,editor,org.eclipse.jdt.ui,3.7.2.v20120109-1427,"org.eclipse.jdt.ui.CompilationUnitEditor",1377029119436
deactivated,workbench,org.eclipse.ui.workbench,3.7.1.v20120104-1859,"",1377029121147
activated,workbench,org.eclipse.ui.workbench,3.7.1.v20120104-1859,"",1377029123037
deactivated,workbench,org.eclipse.ui.workbench,3.7.1.v20120104-1859,"",1377029126859
activated,workbench,org.eclipse.ui.workbench,3.7.1.v20120104-1859,"",1377029138647
deactivated,workbench,org.eclipse.ui.workbench,3.7.1.v20120104-1859,"",1377029152646
activated,workbench,org.eclipse.ui.workbench,3.7.1.v20120104-1859,"",1377029152725
deactivated,workbench,org.eclipse.ui.workbench,3.7.1.v20120104-1859,"",1377029154023
activated,workbench,org.eclipse.ui.workbench,3.7.1.v20120104-1859,"",1377029159466
deactivated,workbench,org.eclipse.ui.workbench,3.7.1.v20120104-1859,"",1377029166592
activated,workbench,org.eclipse.ui.workbench,3.7.1.v20120104-1859,"",1377029169427
deactivated,workbench,org.eclipse.ui.workbench,3.7.1.v20120104-1859,"",1377029175408
activated,workbench,org.eclipse.ui.workbench,3.7.1.v20120104-1859,"",1377029180028
deactivated,workbench,org.eclipse.ui.workbench,3.7.1.v20120104-1859,"",1377029189362
activated,workbench,org.eclipse.ui.workbench,3.7.1.v20120104-1859,"",1377029191076
deactivated,workbench,org.eclipse.ui.workbench,3.7.1.v20120104-1859,"",1377029195251
activated,workbench,org.eclipse.ui.workbench,3.7.1.v20120104-1859,"",1377029196581
executed,command,org.eclipse.ui,3.7.0.v20110928-1505,"org.eclipse.ui.edit.copy",1377029207236
executed,command,org.eclipse.ui,3.7.0.v20110928-1505,"org.eclipse.ui.edit.paste",1377029208566
deactivated,workbench,org.eclipse.ui.workbench,3.7.1.v20120104-1859,"",1377029218972
activated,workbench,org.eclipse.ui.workbench,3.7.1.v20120104-1859,"",1377029227738
deactivated,workbench,org.eclipse.ui.workbench,3.7.1.v20120104-1859,"",1377029258714
activated,workbench,org.eclipse.ui.workbench,3.7.1.v20120104-1859,"",1377029297592
activated,editor,org.eclipse.jdt.ui,3.7.2.v20120109-1427,"org.eclipse.jdt.ui.CompilationUnitEditor",1377029380234
deactivated,workbench,org.eclipse.ui.workbench,3.7.1.v20120104-1859,"",1377029380981
activated,workbench,org.eclipse.ui.workbench,3.7.1.v20120104-1859,"",1377029382103
deactivated,workbench,org.eclipse.ui.workbench,3.7.1.v20120104-1859,"",1377029382461
activated,workbench,org.eclipse.ui.workbench,3.7.1.v20120104-1859,"",1377029408594
activated,editor,org.eclipse.jdt.ui,3.7.2.v20120109-1427,"org.eclipse.jdt.ui.CompilationUnitEditor",1377029411501
activated,editor,org.eclipse.jdt.ui,3.7.2.v20120109-1427,"org.eclipse.jdt.ui.CompilationUnitEditor",1377029423260
activated,editor,org.eclipse.jdt.ui,3.7.2.v20120109-1427,"org.eclipse.jdt.ui.CompilationUnitEditor",1377029427911
activated,editor,org.eclipse.jdt.ui,3.7.2.v20120109-1427,"org.eclipse.jdt.ui.CompilationUnitEditor",1377029430783
activated,editor,org.eclipse.jdt.ui,3.7.2.v20120109-1427,"org.eclipse.jdt.ui.CompilationUnitEditor",1377029438351
deactivated,workbench,org.eclipse.ui.workbench,3.7.1.v20120104-1859,"",1377029450515
activated,workbench,org.eclipse.ui.workbench,3.7.1.v20120104-1859,"",1377029464929
executed,command,org.eclipse.jdt.ui,3.7.2.v20120109-1427,"org.eclipse.jdt.ui.edit.text.java.create.getter.setter",1377029464972
activated,editor,org.eclipse.jdt.ui,3.7.2.v20120109-1427,"org.eclipse.jdt.ui.CompilationUnitEditor",1377029468522
executed,command,org.eclipse.ui,3.7.0.v20110928-1505,"org.eclipse.ui.file.saveAll",1377029469722
executed,command,org.eclipse.ui,3.7.0.v20110928-1505,"org.eclipse.ui.file.saveAll",1377029509490
activated,editor,org.eclipse.jdt.ui,3.7.2.v20120109-1427,"org.eclipse.jdt.ui.CompilationUnitEditor",1377029510903
deactivated,workbench,org.eclipse.ui.workbench,3.7.1.v20120104-1859,"",1377029511940
activated,workbench,org.eclipse.ui.workbench,3.7.1.v20120104-1859,"",1377029556707
activated,editor,org.eclipse.jdt.ui,3.7.2.v20120109-1427,"org.eclipse.jdt.ui.CompilationUnitEditor",1377029559646
activated,editor,org.eclipse.jdt.ui,3.7.2.v20120109-1427,"org.eclipse.jdt.ui.CompilationUnitEditor",1377029583726
deactivated,workbench,org.eclipse.ui.workbench,3.7.1.v20120104-1859,"",1377029584908
activated,workbench,org.eclipse.ui.workbench,3.7.1.v20120104-1859,"",1377029586126
deactivated,workbench,org.eclipse.ui.workbench,3.7.1.v20120104-1859,"",1377029586497
activated,workbench,org.eclipse.ui.workbench,3.7.1.v20120104-1859,"",1377029613792
deactivated,workbench,org.eclipse.ui.workbench,3.7.1.v20120104-1859,"",1377029615025
activated,workbench,org.eclipse.ui.workbench,3.7.1.v20120104-1859,"",1377030319626
deactivated,workbench,org.eclipse.ui.workbench,3.7.1.v20120104-1859,"",1377030623334
activated,workbench,org.eclipse.ui.workbench,3.7.1.v20120104-1859,"",1377030810639
deactivated,workbench,org.eclipse.ui.workbench,3.7.1.v20120104-1859,"",1377030811879
activated,workbench,org.eclipse.ui.workbench,3.7.1.v20120104-1859,"",1377030872862
deactivated,workbench,org.eclipse.ui.workbench,3.7.1.v20120104-1859,"",1377030896632
activated,workbench,org.eclipse.ui.workbench,3.7.1.v20120104-1859,"",1377031675615
activated,view,org.eclipse.jdt.ui,3.7.2.v20120109-1427,"org.eclipse.jdt.ui.PackageExplorer",1377031691266
deactivated,workbench,org.eclipse.ui.workbench,3.7.1.v20120104-1859,"",1377031695203
activated,workbench,org.eclipse.ui.workbench,3.7.1.v20120104-1859,"",1377031704055
deactivated,workbench,org.eclipse.ui.workbench,3.7.1.v20120104-1859,"",1377031708985
activated,workbench,org.eclipse.ui.workbench,3.7.1.v20120104-1859,"",1377032564171
activated,editor,org.eclipse.jdt.ui,3.7.2.v20120109-1427,"org.eclipse.jdt.ui.CompilationUnitEditor",1377032566991
executed,command,org.eclipse.jdt.ui,3.7.2.v20120109-1427,"org.eclipse.jdt.ui.edit.text.java.organize.imports",1377032568268
executed,command,org.eclipse.ui,3.7.0.v20110928-1505,"org.eclipse.ui.file.saveAll",1377032571813
activated,view,org.eclipse.jdt.ui,3.7.2.v20120109-1427,"org.eclipse.jdt.ui.PackageExplorer",1377032574701
activated,view,org.eclipse.ui.ide,3.7.0.v20110928-1505,"org.eclipse.ui.views.ProblemView",1377032587431
activated,view,org.eclipse.jdt.ui,3.7.2.v20120109-1427,"org.eclipse.jdt.ui.PackageExplorer",1377032598254
deactivated,workbench,org.eclipse.ui.workbench,3.7.1.v20120104-1859,"",1377032598909
activated,workbench,org.eclipse.ui.workbench,3.7.1.v20120104-1859,"",1377034703154
deactivated,workbench,org.eclipse.ui.workbench,3.7.1.v20120104-1859,"",1377034708067
activated,workbench,org.eclipse.ui.workbench,3.7.1.v20120104-1859,"",1377039145829
deactivated,workbench,org.eclipse.ui.workbench,3.7.1.v20120104-1859,"",1377039446532
activated,workbench,org.eclipse.ui.workbench,3.7.1.v20120104-1859,"",1377039529351
deactivated,workbench,org.eclipse.ui.workbench,3.7.1.v20120104-1859,"",1377039531142
activated,workbench,org.eclipse.ui.workbench,3.7.1.v20120104-1859,"",1377040564700
deactivated,workbench,org.eclipse.ui.workbench,3.7.1.v20120104-1859,"",1377040865149
activated,workbench,org.eclipse.ui.workbench,3.7.1.v20120104-1859,"",1377041229938
deactivated,workbench,org.eclipse.ui.workbench,3.7.1.v20120104-1859,"",1377041230970
activated,workbench,org.eclipse.ui.workbench,3.7.1.v20120104-1859,"",1377041281796
deactivated,workbench,org.eclipse.ui.workbench,3.7.1.v20120104-1859,"",1377041505696
activated,workbench,org.eclipse.ui.workbench,3.7.1.v20120104-1859,"",1377048255775
deactivated,workbench,org.eclipse.ui.workbench,3.7.1.v20120104-1859,"",1377048557634
activated,workbench,org.eclipse.ui.workbench,3.7.1.v20120104-1859,"",1377048648390
deactivated,workbench,org.eclipse.ui.workbench,3.7.1.v20120104-1859,"",1377048649793
activated,workbench,org.eclipse.ui.workbench,3.7.1.v20120104-1859,"",1377049418193
deactivated,workbench,org.eclipse.ui.workbench,3.7.1.v20120104-1859,"",1377049478197
activated,workbench,org.eclipse.ui.workbench,3.7.1.v20120104-1859,"",1377049487641
deactivated,workbench,org.eclipse.ui.workbench,3.7.1.v20120104-1859,"",1377049494758
activated,workbench,org.eclipse.ui.workbench,3.7.1.v20120104-1859,"",1377049523725
deactivated,workbench,org.eclipse.ui.workbench,3.7.1.v20120104-1859,"",1377049578080
activated,workbench,org.eclipse.ui.workbench,3.7.1.v20120104-1859,"",1377052484484
deactivated,workbench,org.eclipse.ui.workbench,3.7.1.v20120104-1859,"",1377052485569
activated,workbench,org.eclipse.ui.workbench,3.7.1.v20120104-1859,"",1377062315223
deactivated,workbench,org.eclipse.ui.workbench,3.7.1.v20120104-1859,"",1377062316235
activated,workbench,org.eclipse.ui.workbench,3.7.1.v20120104-1859,"",1377063803761
deactivated,workbench,org.eclipse.ui.workbench,3.7.1.v20120104-1859,"",1377063804559
activated,workbench,org.eclipse.ui.workbench,3.7.1.v20120104-1859,"",1377064363255
deactivated,workbench,org.eclipse.ui.workbench,3.7.1.v20120104-1859,"",1377064551490
activated,workbench,org.eclipse.ui.workbench,3.7.1.v20120104-1859,"",1377066401833
deactivated,workbench,org.eclipse.ui.workbench,3.7.1.v20120104-1859,"",1377066567194
activated,workbench,org.eclipse.ui.workbench,3.7.1.v20120104-1859,"",1377068646827
deactivated,workbench,org.eclipse.ui.workbench,3.7.1.v20120104-1859,"",1377068649126
activated,workbench,org.eclipse.ui.workbench,3.7.1.v20120104-1859,"",1377068650304
closed,workbench,org.eclipse.ui.workbench,3.7.1.v20120104-1859,"",1377068650696
stopped,bundle,org.eclipse.m2e.logback.configuration,1.0.200.20111228-1245,"org.eclipse.m2e.logback.configuration",1377068651501
stopped,bundle,com.google.gdt.eclipse.mobile.android,3.3.0.v201307162142-rel-r37,"com.google.gdt.eclipse.mobile.android",1377068651501
stopped,bundle,com.google.gdt.eclipse.appengine.swarm_backend,3.3.0.v201307162142-rel-r37,"com.google.gdt.eclipse.appengine.swarm_backend",1377068651501
stopped,bundle,com.google.gdt.eclipse.suite.ext,3.3.0.v201307162142-rel-r37,"com.google.gdt.eclipse.suite.ext",1377068651501
stopped,bundle,com.google.gdt.eclipse.appengine.swarm,3.3.0.v201307162142-rel-r37,"com.google.gdt.eclipse.appengine.swarm",1377068651501
stopped,bundle,com.google.gdt.eclipse.gph.e36,3.3.0.v201307162142-rel-r37,"com.google.gdt.eclipse.gph.e36",1377068651501
stopped,bundle,com.google.gdt.eclipse.gph.hge,3.3.0.v201307162142-rel-r37,"com.google.gdt.eclipse.gph.hge",1377068651501
stopped,bundle,com.google.gdt.eclipse.gph.subclipse,3.3.0.v201307162142-rel-r37,"com.google.gdt.eclipse.gph.subclipse",1377068651501
stopped,bundle,com.google.gdt.eclipse.gph.subversive,3.3.0.v201307162142-rel-r37,"com.google.gdt.eclipse.gph.subversive",1377068651501
stopped,bundle,com.google.gdt.eclipse.suite.ext.e35,3.3.0.v201307162142-rel-r37,"com.google.gdt.eclipse.suite.ext.e35",1377068651501
stopped,bundle,com.google.gdt.eclipse.gph,3.3.0.v201307162142-rel-r37,"com.google.gdt.eclipse.gph",1377068651501
stopped,bundle,com.google.gdt.eclipse.maven.e37,3.3.0.v201307162142-rel-r37,"com.google.gdt.eclipse.maven.e37",1377068651501
stopped,bundle,com.google.gdt.eclipse.maven,3.3.0.v201307162142-rel-r37,"com.google.gdt.eclipse.maven",1377068651501
stopped,bundle,com.google.gdt.eclipse.suite,3.3.0.v201307162142-rel-r37,"com.google.gdt.eclipse.suite",1377068651501
stopped,bundle,com.google.gdt.eclipse.managedapis,3.3.0.v201307162142-rel-r37,"com.google.gdt.eclipse.managedapis",1377068651502
stopped,bundle,org.eclipse.m2e.discovery,1.0.200.20111228-1245,"org.eclipse.m2e.discovery",1377068651503
stopped,bundle,org.eclipse.m2e.refactoring,1.0.200.20111228-1245,"org.eclipse.m2e.refactoring",1377068651503
stopped,bundle,org.eclipse.m2e.editor,1.0.200.20111228-1245,"org.eclipse.m2e.editor",1377068651503
stopped,bundle,org.eclipse.m2e.editor.xml,1.0.200.20111228-1245,"org.eclipse.m2e.editor.xml",1377068651503
stopped,bundle,org.eclipse.m2e.jdt,1.0.200.20111228-1245,"org.eclipse.m2e.jdt",1377068651503
stopped,bundle,org.eclipse.m2e.launching,1.0.200.20111228-1245,"org.eclipse.m2e.launching",1377068651503
stopped,bundle,org.eclipse.m2e.usagedata,1.0.200.20111228-1245,"org.eclipse.m2e.usagedata",1377068651503
stopped,bundle,com.google.appengine.eclipse.datatools,3.3.0.v201307162142-rel-r37,"com.google.appengine.eclipse.datatools",1377068651503
stopped,bundle,com.google.appengine.eclipse.webtools,3.3.0.v201307162142-rel-r37,"com.google.appengine.eclipse.webtools",1377068651503
stopped,bundle,com.google.gdt.eclipse.appsmarketplace,3.3.0.v201307162142-rel-r37,"com.google.gdt.eclipse.appsmarketplace",1377068651503
stopped,bundle,com.google.appengine.eclipse.core,3.3.0.v201307162142-rel-r37,"com.google.appengine.eclipse.core",1377068651511
stopped,bundle,com.google.gdt.eclipse.login,3.3.0.v201307162142-rel-r37,"com.google.gdt.eclipse.login",1377068651511
stopped,bundle,com.google.gwt.eclipse.oophm,3.3.0.v201307162142-rel-r37,"com.google.gwt.eclipse.oophm",1377068651511
stopped,bundle,com.google.gwt.eclipse.core,3.3.0.v201307162142-rel-r37,"com.google.gwt.eclipse.core",1377068651635
stopped,bundle,com.google.gdt.eclipse.core,3.3.0.v201307162142-rel-r37,"com.google.gdt.eclipse.core",1377068651635
stopped,bundle,com.google.gdt.eclipse.platform,3.3.0.v201307162142-rel-r37,"com.google.gdt.eclipse.platform",1377068651635
stopped,bundle,com.google.gdt.eclipse.platform.e37,3.3.0.v201307162142-rel-r37,"com.google.gdt.eclipse.platform.e37",1377068651635
stopped,bundle,org.eclipse.cdt.debug.edc.linux.x86,1.0.0.201202112006,"org.eclipse.cdt.debug.edc.linux.x86",1377068651635
stopped,bundle,org.eclipse.cdt.debug.edc.windows.ui,1.0.0.201202112006,"org.eclipse.cdt.debug.edc.windows.ui",1377068651635
stopped,bundle,org.eclipse.cdt.debug.edc.windows,2.0.0.201202112006,"org.eclipse.cdt.debug.edc.windows",1377068651635
stopped,bundle,org.eclipse.cdt.debug.edc.ui,2.0.0.201202112006,"org.eclipse.cdt.debug.edc.ui",1377068651636
