what,kind,bundleId,bundleVersion,description,time
activated,view,org.eclipse.jdt.ui,3.7.2.v20120109-1427,"org.eclipse.jdt.ui.PackageExplorer",1382487509114
opened,editor,org.eclipse.jdt.ui,3.7.2.v20120109-1427,"org.eclipse.jdt.ui.CompilationUnitEditor",1382487510426
activated,editor,org.eclipse.jdt.ui,3.7.2.v20120109-1427,"org.eclipse.jdt.ui.CompilationUnitEditor",1382487510457
activated,view,org.eclipse.jdt.ui,3.7.2.v20120109-1427,"org.eclipse.jdt.ui.PackageExplorer",1382487512063
activated,editor,org.eclipse.jdt.ui,3.7.2.v20120109-1427,"org.eclipse.jdt.ui.CompilationUnitEditor",1382487513427
executed,command,org.eclipse.ui,3.7.0.v20110928-1505,"org.eclipse.ui.edit.copy",1382487519807
started,bundle,org.eclipse.mylyn.java.tasks,3.8.3.v20130107-0100,"org.eclipse.mylyn.java.tasks",1382487519961
executed,command,org.eclipse.ui,3.7.0.v20110928-1505,"org.eclipse.ui.edit.copy",1382487520170
activated,editor,org.eclipse.jdt.ui,3.7.2.v20120109-1427,"org.eclipse.jdt.ui.CompilationUnitEditor",1382487522239
activated,editor,org.eclipse.jdt.ui,3.7.2.v20120109-1427,"org.eclipse.jdt.ui.CompilationUnitEditor",1382487523704
activated,editor,org.eclipse.jdt.ui,3.7.2.v20120109-1427,"org.eclipse.jdt.ui.CompilationUnitEditor",1382487524868
executed,command,org.eclipse.ui,3.7.0.v20110928-1505,"org.eclipse.ui.edit.paste",1382487525811
executed,command,org.eclipse.ui,3.7.0.v20110928-1505,"org.eclipse.ui.edit.text.contentAssist.proposals",1382487530282
executed,command,org.eclipse.ui,3.7.0.v20110928-1505,"org.eclipse.ui.edit.text.contentAssist.proposals",1382487538927
deactivated,workbench,org.eclipse.ui.workbench,3.7.1.v20120104-1859,"",1382487539571
activated,workbench,org.eclipse.ui.workbench,3.7.1.v20120104-1859,"",1382487539740
executed,command,org.eclipse.ui,3.7.0.v20110928-1505,"org.eclipse.ui.edit.undo",1382487581912
executed,command,org.eclipse.ui,3.7.0.v20110928-1505,"org.eclipse.ui.edit.undo",1382487582278
activated,editor,org.eclipse.jdt.ui,3.7.2.v20120109-1427,"org.eclipse.jdt.ui.CompilationUnitEditor",1382487635136
deactivated,workbench,org.eclipse.ui.workbench,3.7.1.v20120104-1859,"",1382487729467
activated,workbench,org.eclipse.ui.workbench,3.7.1.v20120104-1859,"",1382487784059
executed,command,org.eclipse.ui,3.7.0.v20110928-1505,"org.eclipse.ui.edit.text.contentAssist.proposals",1382487794726
deactivated,workbench,org.eclipse.ui.workbench,3.7.1.v20120104-1859,"",1382487828089
activated,workbench,org.eclipse.ui.workbench,3.7.1.v20120104-1859,"",1382487828124
deactivated,workbench,org.eclipse.ui.workbench,3.7.1.v20120104-1859,"",1382487918560
activated,workbench,org.eclipse.ui.workbench,3.7.1.v20120104-1859,"",1382487919760
deactivated,workbench,org.eclipse.ui.workbench,3.7.1.v20120104-1859,"",1382487920578
activated,workbench,org.eclipse.ui.workbench,3.7.1.v20120104-1859,"",1382487994756
deactivated,workbench,org.eclipse.ui.workbench,3.7.1.v20120104-1859,"",1382488028028
activated,workbench,org.eclipse.ui.workbench,3.7.1.v20120104-1859,"",1382488030733
executed,command,org.eclipse.jdt.ui,3.7.2.v20120109-1427,"org.eclipse.jdt.ui.edit.text.java.organize.imports",1382488030751
deactivated,workbench,org.eclipse.ui.workbench,3.7.1.v20120104-1859,"",1382488045633
activated,workbench,org.eclipse.ui.workbench,3.7.1.v20120104-1859,"",1382488067989
executed,command,org.eclipse.jdt.ui,3.7.2.v20120109-1427,"org.eclipse.jdt.ui.edit.text.java.organize.imports",1382488095270
deactivated,workbench,org.eclipse.ui.workbench,3.7.1.v20120104-1859,"",1382488101010
activated,workbench,org.eclipse.ui.workbench,3.7.1.v20120104-1859,"",1382488101110
executed,command,org.eclipse.jdt.ui,3.7.2.v20120109-1427,"org.eclipse.jdt.ui.edit.text.java.organize.imports",1382488113159
deactivated,workbench,org.eclipse.ui.workbench,3.7.1.v20120104-1859,"",1382488127544
activated,workbench,org.eclipse.ui.workbench,3.7.1.v20120104-1859,"",1382488130716
deactivated,workbench,org.eclipse.ui.workbench,3.7.1.v20120104-1859,"",1382488141899
activated,workbench,org.eclipse.ui.workbench,3.7.1.v20120104-1859,"",1382488184962
deactivated,workbench,org.eclipse.ui.workbench,3.7.1.v20120104-1859,"",1382488216046
activated,workbench,org.eclipse.ui.workbench,3.7.1.v20120104-1859,"",1382488247786
deactivated,workbench,org.eclipse.ui.workbench,3.7.1.v20120104-1859,"",1382488266784
activated,workbench,org.eclipse.ui.workbench,3.7.1.v20120104-1859,"",1382488383113
deactivated,workbench,org.eclipse.ui.workbench,3.7.1.v20120104-1859,"",1382488395118
activated,workbench,org.eclipse.ui.workbench,3.7.1.v20120104-1859,"",1382488395211
deactivated,workbench,org.eclipse.ui.workbench,3.7.1.v20120104-1859,"",1382488400697
activated,workbench,org.eclipse.ui.workbench,3.7.1.v20120104-1859,"",1382488400797
executed,command,org.eclipse.jdt.ui,3.7.2.v20120109-1427,"org.eclipse.jdt.ui.edit.text.java.organize.imports",1382488403303
deactivated,workbench,org.eclipse.ui.workbench,3.7.1.v20120104-1859,"",1382488415086
activated,workbench,org.eclipse.ui.workbench,3.7.1.v20120104-1859,"",1382488433676
deactivated,workbench,org.eclipse.ui.workbench,3.7.1.v20120104-1859,"",1382488500562
activated,workbench,org.eclipse.ui.workbench,3.7.1.v20120104-1859,"",1382488503611
executed,command,org.eclipse.ui,3.7.0.v20110928-1505,"org.eclipse.ui.file.saveAll",1382488503709
activated,editor,org.eclipse.jdt.ui,3.7.2.v20120109-1427,"org.eclipse.jdt.ui.CompilationUnitEditor",1382488505768
activated,editor,org.eclipse.jdt.ui,3.7.2.v20120109-1427,"org.eclipse.jdt.ui.CompilationUnitEditor",1382488506289
activated,editor,org.eclipse.jdt.ui,3.7.2.v20120109-1427,"org.eclipse.jdt.ui.CompilationUnitEditor",1382488507318
closed,editor,org.eclipse.jdt.ui,3.7.2.v20120109-1427,"org.eclipse.jdt.ui.CompilationUnitEditor",1382488507318
activated,editor,org.eclipse.jdt.ui,3.7.2.v20120109-1427,"org.eclipse.jdt.ui.CompilationUnitEditor",1382488507927
deactivated,workbench,org.eclipse.ui.workbench,3.7.1.v20120104-1859,"",1382488510960
activated,workbench,org.eclipse.ui.workbench,3.7.1.v20120104-1859,"",1382488981922
deactivated,workbench,org.eclipse.ui.workbench,3.7.1.v20120104-1859,"",1382488984927
activated,workbench,org.eclipse.ui.workbench,3.7.1.v20120104-1859,"",1382488986058
activated,view,org.eclipse.jdt.ui,3.7.2.v20120109-1427,"org.eclipse.jdt.ui.PackageExplorer",1382488994297
activated,editor,org.eclipse.jdt.ui,3.7.2.v20120109-1427,"org.eclipse.jdt.ui.CompilationUnitEditor",1382488995836
deactivated,workbench,org.eclipse.ui.workbench,3.7.1.v20120104-1859,"",1382489005325
activated,workbench,org.eclipse.ui.workbench,3.7.1.v20120104-1859,"",1382489007824
activated,editor,org.eclipse.jdt.ui,3.7.2.v20120109-1427,"org.eclipse.jdt.ui.CompilationUnitEditor",1382489058599
activated,editor,org.eclipse.jdt.ui,3.7.2.v20120109-1427,"org.eclipse.jdt.ui.CompilationUnitEditor",1382489059658
activated,editor,org.eclipse.jdt.ui,3.7.2.v20120109-1427,"org.eclipse.jdt.ui.CompilationUnitEditor",1382489072499
executed,command,org.eclipse.ui,3.7.0.v20110928-1505,"org.eclipse.ui.edit.text.contentAssist.proposals",1382489075660
deactivated,workbench,org.eclipse.ui.workbench,3.7.1.v20120104-1859,"",1382489083331
activated,workbench,org.eclipse.ui.workbench,3.7.1.v20120104-1859,"",1382489086685
executed,command,org.eclipse.jdt.ui,3.7.2.v20120109-1427,"org.eclipse.jdt.ui.edit.text.java.create.getter.setter",1382489086736
activated,editor,org.eclipse.jdt.ui,3.7.2.v20120109-1427,"org.eclipse.jdt.ui.CompilationUnitEditor",1382489088598
activated,editor,org.eclipse.jdt.ui,3.7.2.v20120109-1427,"org.eclipse.jdt.ui.CompilationUnitEditor",1382489089686
activated,view,org.eclipse.jdt.ui,3.7.2.v20120109-1427,"org.eclipse.jdt.ui.PackageExplorer",1382489201134
deactivated,workbench,org.eclipse.ui.workbench,3.7.1.v20120104-1859,"",1382489203753
activated,workbench,org.eclipse.ui.workbench,3.7.1.v20120104-1859,"",1382489244917
opened,editor,org.eclipse.jdt.ui,3.7.2.v20120109-1427,"org.eclipse.jdt.ui.CompilationUnitEditor",1382489245247
activated,editor,org.eclipse.jdt.ui,3.7.2.v20120109-1427,"org.eclipse.jdt.ui.CompilationUnitEditor",1382489245269
executed,command,org.eclipse.ui,3.7.0.v20110928-1505,"org.eclipse.ui.edit.text.contentAssist.proposals",1382489269682
executed,command,org.eclipse.ui,3.7.0.v20110928-1505,"org.eclipse.ui.file.saveAll",1382489296113
started,bundle,org.eclipse.cdt.debug.core,7.1.0.201202111925,"org.eclipse.cdt.debug.core",1382489296773
started,bundle,org.eclipse.cdt.debug.ui,7.1.2.201202111925,"org.eclipse.cdt.debug.ui",1382489296790
started,bundle,org.eclipse.tm.tcf,0.4.0.201106081058,"org.eclipse.tm.tcf",1382489296907
started,bundle,org.eclipse.tm.tcf.core,0.4.0.201106081058,"org.eclipse.tm.tcf.core",1382489296907
started,bundle,org.eclipse.tm.tcf.debug.ui,0.4.0.201106081058,"org.eclipse.tm.tcf.debug.ui",1382489296907
started,bundle,org.eclipse.tm.tcf.cdt.ui,0.4.0.201106081058,"org.eclipse.tm.tcf.cdt.ui",1382489296985
started,bundle,org.eclipse.cdt.launch,7.0.0.201202111925,"org.eclipse.cdt.launch",1382489297032
started,bundle,org.eclipse.tm.tcf.debug,0.4.0.201106081058,"org.eclipse.tm.tcf.debug",1382489297277
activated,editor,org.eclipse.jdt.ui,3.7.2.v20120109-1427,"org.eclipse.jdt.ui.CompilationUnitEditor",1382489298585
closed,editor,org.eclipse.jdt.ui,3.7.2.v20120109-1427,"org.eclipse.jdt.ui.CompilationUnitEditor",1382489298586
activated,editor,org.eclipse.jdt.ui,3.7.2.v20120109-1427,"org.eclipse.jdt.ui.CompilationUnitEditor",1382489299398
activated,editor,org.eclipse.jdt.ui,3.7.2.v20120109-1427,"org.eclipse.jdt.ui.CompilationUnitEditor",1382489300344
deactivated,workbench,org.eclipse.ui.workbench,3.7.1.v20120104-1859,"",1382489393063
activated,workbench,org.eclipse.ui.workbench,3.7.1.v20120104-1859,"",1382489393181
deactivated,workbench,org.eclipse.ui.workbench,3.7.1.v20120104-1859,"",1382489496168
activated,workbench,org.eclipse.ui.workbench,3.7.1.v20120104-1859,"",1382489499299
activated,editor,org.eclipse.jdt.ui,3.7.2.v20120109-1427,"org.eclipse.jdt.ui.CompilationUnitEditor",1382489500728
activated,view,org.eclipse.jdt.ui,3.7.2.v20120109-1427,"org.eclipse.jdt.ui.PackageExplorer",1382489503150
activated,editor,org.eclipse.jdt.ui,3.7.2.v20120109-1427,"org.eclipse.jdt.ui.CompilationUnitEditor",1382489503238
deactivated,workbench,org.eclipse.ui.workbench,3.7.1.v20120104-1859,"",1382489509791
activated,workbench,org.eclipse.ui.workbench,3.7.1.v20120104-1859,"",1382489510855
activated,editor,org.eclipse.jdt.ui,3.7.2.v20120109-1427,"org.eclipse.jdt.ui.CompilationUnitEditor",1382489510884
closed,editor,org.eclipse.jdt.ui,3.7.2.v20120109-1427,"org.eclipse.jdt.ui.CompilationUnitEditor",1382489510884
activated,view,org.eclipse.jdt.ui,3.7.2.v20120109-1427,"org.eclipse.jdt.ui.PackageExplorer",1382489512995
opened,editor,org.eclipse.jdt.ui,3.7.2.v20120109-1427,"org.eclipse.jdt.ui.CompilationUnitEditor",1382489513141
activated,editor,org.eclipse.jdt.ui,3.7.2.v20120109-1427,"org.eclipse.jdt.ui.CompilationUnitEditor",1382489513163
executed,command,org.eclipse.ui,3.7.0.v20110928-1505,"org.eclipse.ui.edit.text.contentAssist.proposals",1382489515036
deactivated,workbench,org.eclipse.ui.workbench,3.7.1.v20120104-1859,"",1382489515711
activated,workbench,org.eclipse.ui.workbench,3.7.1.v20120104-1859,"",1382489515861
deactivated,workbench,org.eclipse.ui.workbench,3.7.1.v20120104-1859,"",1382489529595
activated,workbench,org.eclipse.ui.workbench,3.7.1.v20120104-1859,"",1382489530310
activated,editor,org.eclipse.jdt.ui,3.7.2.v20120109-1427,"org.eclipse.jdt.ui.CompilationUnitEditor",1382489530350
closed,editor,org.eclipse.jdt.ui,3.7.2.v20120109-1427,"org.eclipse.jdt.ui.CompilationUnitEditor",1382489530350
activated,view,org.eclipse.jdt.ui,3.7.2.v20120109-1427,"org.eclipse.jdt.ui.PackageExplorer",1382489532668
opened,editor,org.eclipse.jdt.ui,3.7.2.v20120109-1427,"org.eclipse.jdt.ui.CompilationUnitEditor",1382489532815
activated,editor,org.eclipse.jdt.ui,3.7.2.v20120109-1427,"org.eclipse.jdt.ui.CompilationUnitEditor",1382489532837
executed,command,org.eclipse.ui,3.7.0.v20110928-1505,"org.eclipse.ui.file.saveAll",1382489545663
activated,editor,org.eclipse.jdt.ui,3.7.2.v20120109-1427,"org.eclipse.jdt.ui.CompilationUnitEditor",1382489546566
closed,editor,org.eclipse.jdt.ui,3.7.2.v20120109-1427,"org.eclipse.jdt.ui.CompilationUnitEditor",1382489546567
deactivated,workbench,org.eclipse.ui.workbench,3.7.1.v20120104-1859,"",1382489558474
activated,workbench,org.eclipse.ui.workbench,3.7.1.v20120104-1859,"",1382489559632
deactivated,workbench,org.eclipse.ui.workbench,3.7.1.v20120104-1859,"",1382489559953
activated,workbench,org.eclipse.ui.workbench,3.7.1.v20120104-1859,"",1382489562753
deactivated,workbench,org.eclipse.ui.workbench,3.7.1.v20120104-1859,"",1382489617652
activated,workbench,org.eclipse.ui.workbench,3.7.1.v20120104-1859,"",1382489620181
activated,view,org.eclipse.jdt.ui,3.7.2.v20120109-1427,"org.eclipse.jdt.ui.PackageExplorer",1382489629536
opened,editor,org.eclipse.jdt.ui,3.7.2.v20120109-1427,"org.eclipse.jdt.ui.CompilationUnitEditor",1382489629669
activated,editor,org.eclipse.jdt.ui,3.7.2.v20120109-1427,"org.eclipse.jdt.ui.CompilationUnitEditor",1382489629691
activated,editor,org.eclipse.jdt.ui,3.7.2.v20120109-1427,"org.eclipse.jdt.ui.CompilationUnitEditor",1382489631800
closed,editor,org.eclipse.jdt.ui,3.7.2.v20120109-1427,"org.eclipse.jdt.ui.CompilationUnitEditor",1382489631800
executed,command,org.eclipse.ui,3.7.0.v20110928-1505,"org.eclipse.ui.edit.cut",1382489687488
executed,command,org.eclipse.ui,3.7.0.v20110928-1505,"org.eclipse.ui.edit.paste",1382489697250
executed,command,org.eclipse.ui,3.7.0.v20110928-1505,"org.eclipse.ui.edit.cut",1382489722214
executed,command,org.eclipse.ui,3.7.0.v20110928-1505,"org.eclipse.ui.edit.paste",1382489725222
executed,command,org.eclipse.ui,3.7.0.v20110928-1505,"org.eclipse.ui.file.saveAll",1382489737919
executed,command,org.eclipse.jdt.ui,3.7.2.v20120109-1427,"org.eclipse.jdt.ui.edit.text.java.organize.imports",1382489792816
activated,view,org.eclipse.jdt.ui,3.7.2.v20120109-1427,"org.eclipse.jdt.ui.PackageExplorer",1382489834675
deactivated,workbench,org.eclipse.ui.workbench,3.7.1.v20120104-1859,"",1382489836176
activated,workbench,org.eclipse.ui.workbench,3.7.1.v20120104-1859,"",1382489843870
opened,editor,org.eclipse.jdt.ui,3.7.2.v20120109-1427,"org.eclipse.jdt.ui.CompilationUnitEditor",1382489844208
activated,editor,org.eclipse.jdt.ui,3.7.2.v20120109-1427,"org.eclipse.jdt.ui.CompilationUnitEditor",1382489844228
deactivated,workbench,org.eclipse.ui.workbench,3.7.1.v20120104-1859,"",1382489856904
activated,workbench,org.eclipse.ui.workbench,3.7.1.v20120104-1859,"",1382489861905
deactivated,workbench,org.eclipse.ui.workbench,3.7.1.v20120104-1859,"",1382489863638
activated,workbench,org.eclipse.ui.workbench,3.7.1.v20120104-1859,"",1382489865263
deactivated,workbench,org.eclipse.ui.workbench,3.7.1.v20120104-1859,"",1382489879844
activated,workbench,org.eclipse.ui.workbench,3.7.1.v20120104-1859,"",1382489881325
activated,view,org.eclipse.jdt.ui,3.7.2.v20120109-1427,"org.eclipse.jdt.ui.PackageExplorer",1382489892839
deactivated,workbench,org.eclipse.ui.workbench,3.7.1.v20120104-1859,"",1382489894462
activated,workbench,org.eclipse.ui.workbench,3.7.1.v20120104-1859,"",1382489903867
opened,editor,org.eclipse.jdt.ui,3.7.2.v20120109-1427,"org.eclipse.jdt.ui.CompilationUnitEditor",1382489904192
activated,editor,org.eclipse.jdt.ui,3.7.2.v20120109-1427,"org.eclipse.jdt.ui.CompilationUnitEditor",1382489904213
deactivated,workbench,org.eclipse.ui.workbench,3.7.1.v20120104-1859,"",1382489911532
activated,workbench,org.eclipse.ui.workbench,3.7.1.v20120104-1859,"",1382489915420
deactivated,workbench,org.eclipse.ui.workbench,3.7.1.v20120104-1859,"",1382489916058
activated,workbench,org.eclipse.ui.workbench,3.7.1.v20120104-1859,"",1382489918980
activated,view,org.eclipse.jdt.ui,3.7.2.v20120109-1427,"org.eclipse.jdt.ui.PackageExplorer",1382489927691
deactivated,workbench,org.eclipse.ui.workbench,3.7.1.v20120104-1859,"",1382489930076
activated,workbench,org.eclipse.ui.workbench,3.7.1.v20120104-1859,"",1382490007161
opened,editor,org.eclipse.jdt.ui,3.7.2.v20120109-1427,"org.eclipse.jdt.ui.CompilationUnitEditor",1382490007508
activated,editor,org.eclipse.jdt.ui,3.7.2.v20120109-1427,"org.eclipse.jdt.ui.CompilationUnitEditor",1382490007549
activated,editor,org.eclipse.jdt.ui,3.7.2.v20120109-1427,"org.eclipse.jdt.ui.CompilationUnitEditor",1382490009398
activated,editor,org.eclipse.jdt.ui,3.7.2.v20120109-1427,"org.eclipse.jdt.ui.CompilationUnitEditor",1382490010259
deactivated,workbench,org.eclipse.ui.workbench,3.7.1.v20120104-1859,"",1382490010983
activated,workbench,org.eclipse.ui.workbench,3.7.1.v20120104-1859,"",1382490011818
deactivated,workbench,org.eclipse.ui.workbench,3.7.1.v20120104-1859,"",1382490012321
activated,workbench,org.eclipse.ui.workbench,3.7.1.v20120104-1859,"",1382490022924
activated,editor,org.eclipse.jdt.ui,3.7.2.v20120109-1427,"org.eclipse.jdt.ui.CompilationUnitEditor",1382490032487
activated,view,org.eclipse.jdt.ui,3.7.2.v20120109-1427,"org.eclipse.jdt.ui.PackageExplorer",1382490213209
opened,editor,org.eclipse.jdt.ui,3.7.2.v20120109-1427,"org.eclipse.jdt.ui.CompilationUnitEditor",1382490213731
activated,editor,org.eclipse.jdt.ui,3.7.2.v20120109-1427,"org.eclipse.jdt.ui.CompilationUnitEditor",1382490213752
activated,editor,org.eclipse.jdt.ui,3.7.2.v20120109-1427,"org.eclipse.jdt.ui.CompilationUnitEditor",1382490216791
closed,editor,org.eclipse.jdt.ui,3.7.2.v20120109-1427,"org.eclipse.jdt.ui.CompilationUnitEditor",1382490216791
activated,view,org.eclipse.jdt.ui,3.7.2.v20120109-1427,"org.eclipse.jdt.ui.PackageExplorer",1382490220506
activated,editor,org.eclipse.jdt.ui,3.7.2.v20120109-1427,"org.eclipse.jdt.ui.CompilationUnitEditor",1382490220643
deactivated,workbench,org.eclipse.ui.workbench,3.7.1.v20120104-1859,"",1382490223555
activated,workbench,org.eclipse.ui.workbench,3.7.1.v20120104-1859,"",1382490225318
activated,editor,org.eclipse.jdt.ui,3.7.2.v20120109-1427,"org.eclipse.jdt.ui.CompilationUnitEditor",1382490225355
closed,editor,org.eclipse.jdt.ui,3.7.2.v20120109-1427,"org.eclipse.jdt.ui.CompilationUnitEditor",1382490225356
executed,command,org.eclipse.ui,3.7.0.v20110928-1505,"org.eclipse.ui.file.saveAll",1382490226566
activated,view,org.eclipse.jdt.ui,3.7.2.v20120109-1427,"org.eclipse.jdt.ui.PackageExplorer",1382490227371
opened,editor,org.eclipse.jdt.ui,3.7.2.v20120109-1427,"org.eclipse.jdt.ui.CompilationUnitEditor",1382490227499
activated,editor,org.eclipse.jdt.ui,3.7.2.v20120109-1427,"org.eclipse.jdt.ui.CompilationUnitEditor",1382490227521
activated,editor,org.eclipse.jdt.ui,3.7.2.v20120109-1427,"org.eclipse.jdt.ui.CompilationUnitEditor",1382490231124
closed,editor,org.eclipse.jdt.ui,3.7.2.v20120109-1427,"org.eclipse.jdt.ui.CompilationUnitEditor",1382490231124
activated,editor,org.eclipse.jdt.ui,3.7.2.v20120109-1427,"org.eclipse.jdt.ui.CompilationUnitEditor",1382490231784
activated,editor,org.eclipse.jdt.ui,3.7.2.v20120109-1427,"org.eclipse.jdt.ui.CompilationUnitEditor",1382490237162
activated,editor,org.eclipse.jdt.ui,3.7.2.v20120109-1427,"org.eclipse.jdt.ui.CompilationUnitEditor",1382490238046
activated,editor,org.eclipse.jdt.ui,3.7.2.v20120109-1427,"org.eclipse.jdt.ui.CompilationUnitEditor",1382490239040
deactivated,workbench,org.eclipse.ui.workbench,3.7.1.v20120104-1859,"",1382490481031
activated,workbench,org.eclipse.ui.workbench,3.7.1.v20120104-1859,"",1382490484214
deactivated,workbench,org.eclipse.ui.workbench,3.7.1.v20120104-1859,"",1382490492191
activated,workbench,org.eclipse.ui.workbench,3.7.1.v20120104-1859,"",1382490493629
deactivated,workbench,org.eclipse.ui.workbench,3.7.1.v20120104-1859,"",1382490494655
activated,workbench,org.eclipse.ui.workbench,3.7.1.v20120104-1859,"",1382490496124
deactivated,workbench,org.eclipse.ui.workbench,3.7.1.v20120104-1859,"",1382490509420
activated,workbench,org.eclipse.ui.workbench,3.7.1.v20120104-1859,"",1382490510789
deactivated,workbench,org.eclipse.ui.workbench,3.7.1.v20120104-1859,"",1382490531288
activated,workbench,org.eclipse.ui.workbench,3.7.1.v20120104-1859,"",1382490658388
deactivated,workbench,org.eclipse.ui.workbench,3.7.1.v20120104-1859,"",1382490862446
activated,workbench,org.eclipse.ui.workbench,3.7.1.v20120104-1859,"",1382490872192
deactivated,workbench,org.eclipse.ui.workbench,3.7.1.v20120104-1859,"",1382490873228
activated,workbench,org.eclipse.ui.workbench,3.7.1.v20120104-1859,"",1382491123993
deactivated,workbench,org.eclipse.ui.workbench,3.7.1.v20120104-1859,"",1382491127985
activated,workbench,org.eclipse.ui.workbench,3.7.1.v20120104-1859,"",1382491159616
activated,view,org.eclipse.jdt.ui,3.7.2.v20120109-1427,"org.eclipse.jdt.ui.PackageExplorer",1382491173516
activated,editor,org.eclipse.jdt.ui,3.7.2.v20120109-1427,"org.eclipse.jdt.ui.CompilationUnitEditor",1382491173618
executed,command,org.eclipse.ui,3.7.0.v20110928-1505,"org.eclipse.ui.file.saveAll",1382491281103
activated,editor,org.eclipse.jdt.ui,3.7.2.v20120109-1427,"org.eclipse.jdt.ui.CompilationUnitEditor",1382491281792
activated,editor,org.eclipse.jdt.ui,3.7.2.v20120109-1427,"org.eclipse.jdt.ui.CompilationUnitEditor",1382491282860
activated,editor,org.eclipse.jdt.ui,3.7.2.v20120109-1427,"org.eclipse.jdt.ui.CompilationUnitEditor",1382491283743
activated,editor,org.eclipse.jdt.ui,3.7.2.v20120109-1427,"org.eclipse.jdt.ui.CompilationUnitEditor",1382491284149
activated,editor,org.eclipse.jdt.ui,3.7.2.v20120109-1427,"org.eclipse.jdt.ui.CompilationUnitEditor",1382491292106
activated,editor,org.eclipse.jdt.ui,3.7.2.v20120109-1427,"org.eclipse.jdt.ui.CompilationUnitEditor",1382491293329
activated,view,org.eclipse.jdt.ui,3.7.2.v20120109-1427,"org.eclipse.jdt.ui.PackageExplorer",1382491297164
opened,editor,org.eclipse.jdt.ui,3.7.2.v20120109-1427,"org.eclipse.jdt.ui.CompilationUnitEditor",1382491297304
activated,editor,org.eclipse.jdt.ui,3.7.2.v20120109-1427,"org.eclipse.jdt.ui.CompilationUnitEditor",1382491297325
activated,editor,org.eclipse.jdt.ui,3.7.2.v20120109-1427,"org.eclipse.jdt.ui.CompilationUnitEditor",1382491300513
executed,command,org.eclipse.ui,3.7.0.v20110928-1505,"org.eclipse.ui.edit.text.contentAssist.proposals",1382491305716
deactivated,workbench,org.eclipse.ui.workbench,3.7.1.v20120104-1859,"",1382491334555
activated,workbench,org.eclipse.ui.workbench,3.7.1.v20120104-1859,"",1382491337106
executed,command,org.eclipse.jdt.ui,3.7.2.v20120109-1427,"org.eclipse.jdt.ui.edit.text.java.create.getter.setter",1382491337128
executed,command,org.eclipse.ui,3.7.0.v20110928-1505,"org.eclipse.ui.file.save",1382491339018
activated,editor,org.eclipse.jdt.ui,3.7.2.v20120109-1427,"org.eclipse.jdt.ui.CompilationUnitEditor",1382491341184
executed,command,org.eclipse.ui,3.7.0.v20110928-1505,"org.eclipse.ui.edit.text.contentAssist.proposals",1382491345209
deactivated,workbench,org.eclipse.ui.workbench,3.7.1.v20120104-1859,"",1382491347002
activated,workbench,org.eclipse.ui.workbench,3.7.1.v20120104-1859,"",1382491347138
activated,editor,org.eclipse.jdt.ui,3.7.2.v20120109-1427,"org.eclipse.jdt.ui.CompilationUnitEditor",1382491358208
executed,command,org.eclipse.ui,3.7.0.v20110928-1505,"org.eclipse.ui.edit.text.contentAssist.proposals",1382491359774
deactivated,workbench,org.eclipse.ui.workbench,3.7.1.v20120104-1859,"",1382491363760
activated,workbench,org.eclipse.ui.workbench,3.7.1.v20120104-1859,"",1382491363900
executed,command,org.eclipse.ui,3.7.0.v20110928-1505,"org.eclipse.ui.file.saveAll",1382491376483
deactivated,workbench,org.eclipse.ui.workbench,3.7.1.v20120104-1859,"",1382491377883
activated,workbench,org.eclipse.ui.workbench,3.7.1.v20120104-1859,"",1382491494732
activated,editor,org.eclipse.jdt.ui,3.7.2.v20120109-1427,"org.eclipse.jdt.ui.CompilationUnitEditor",1382491499305
activated,editor,org.eclipse.jdt.ui,3.7.2.v20120109-1427,"org.eclipse.jdt.ui.CompilationUnitEditor",1382491508374
deactivated,workbench,org.eclipse.ui.workbench,3.7.1.v20120104-1859,"",1382491522363
activated,workbench,org.eclipse.ui.workbench,3.7.1.v20120104-1859,"",1382491544608
activated,editor,org.eclipse.jdt.ui,3.7.2.v20120109-1427,"org.eclipse.jdt.ui.CompilationUnitEditor",1382491550757
executed,command,org.eclipse.ui,3.7.0.v20110928-1505,"org.eclipse.ui.edit.copy",1382491606195
executed,command,org.eclipse.ui,3.7.0.v20110928-1505,"org.eclipse.ui.edit.paste",1382491608692
executed,command,org.eclipse.ui,3.7.0.v20110928-1505,"org.eclipse.ui.edit.delete",1382491628606
executed,command,org.eclipse.ui,3.7.0.v20110928-1505,"org.eclipse.ui.edit.delete",1382491628748
executed,command,org.eclipse.ui,3.7.0.v20110928-1505,"org.eclipse.ui.edit.delete",1382491628909
executed,command,org.eclipse.ui,3.7.0.v20110928-1505,"org.eclipse.ui.edit.delete",1382491629036
executed,command,org.eclipse.ui,3.7.0.v20110928-1505,"org.eclipse.ui.edit.delete",1382491629165
executed,command,org.eclipse.ui,3.7.0.v20110928-1505,"org.eclipse.ui.edit.delete",1382491629310
executed,command,org.eclipse.ui,3.7.0.v20110928-1505,"org.eclipse.ui.edit.delete",1382491629452
executed,command,org.eclipse.ui,3.7.0.v20110928-1505,"org.eclipse.ui.edit.delete",1382491629580
executed,command,org.eclipse.ui,3.7.0.v20110928-1505,"org.eclipse.ui.edit.delete",1382491629725
deactivated,workbench,org.eclipse.ui.workbench,3.7.1.v20120104-1859,"",1382491655564
activated,workbench,org.eclipse.ui.workbench,3.7.1.v20120104-1859,"",1382491660265
deactivated,workbench,org.eclipse.ui.workbench,3.7.1.v20120104-1859,"",1382491711076
activated,workbench,org.eclipse.ui.workbench,3.7.1.v20120104-1859,"",1382491734762
activated,editor,org.eclipse.jdt.ui,3.7.2.v20120109-1427,"org.eclipse.jdt.ui.CompilationUnitEditor",1382491778007
activated,editor,org.eclipse.jdt.ui,3.7.2.v20120109-1427,"org.eclipse.jdt.ui.CompilationUnitEditor",1382491780060
activated,editor,org.eclipse.jdt.ui,3.7.2.v20120109-1427,"org.eclipse.jdt.ui.CompilationUnitEditor",1382491781681
activated,editor,org.eclipse.jdt.ui,3.7.2.v20120109-1427,"org.eclipse.jdt.ui.CompilationUnitEditor",1382491782230
activated,editor,org.eclipse.jdt.ui,3.7.2.v20120109-1427,"org.eclipse.jdt.ui.CompilationUnitEditor",1382491783757
executed,command,org.eclipse.ui,3.7.0.v20110928-1505,"org.eclipse.ui.file.saveAll",1382491814055
activated,editor,org.eclipse.jdt.ui,3.7.2.v20120109-1427,"org.eclipse.jdt.ui.CompilationUnitEditor",1382491816809
closed,editor,org.eclipse.jdt.ui,3.7.2.v20120109-1427,"org.eclipse.jdt.ui.CompilationUnitEditor",1382491816809
activated,editor,org.eclipse.jdt.ui,3.7.2.v20120109-1427,"org.eclipse.jdt.ui.CompilationUnitEditor",1382491818445
executed,command,org.eclipse.ui,3.7.0.v20110928-1505,"org.eclipse.ui.file.saveAll",1382491845551
activated,editor,org.eclipse.jdt.ui,3.7.2.v20120109-1427,"org.eclipse.jdt.ui.CompilationUnitEditor",1382491853863
closed,editor,org.eclipse.jdt.ui,3.7.2.v20120109-1427,"org.eclipse.jdt.ui.CompilationUnitEditor",1382491853864
executed,command,org.eclipse.ui,3.7.0.v20110928-1505,"org.eclipse.ui.file.saveAll",1382491951330
activated,view,org.eclipse.jdt.ui,3.7.2.v20120109-1427,"org.eclipse.jdt.ui.PackageExplorer",1382491965424
activated,editor,org.eclipse.jdt.ui,3.7.2.v20120109-1427,"org.eclipse.jdt.ui.CompilationUnitEditor",1382491967533
executed,command,org.eclipse.ui,3.7.0.v20110928-1505,"org.eclipse.ui.edit.copy",1382492022680
executed,command,org.eclipse.ui,3.7.0.v20110928-1505,"org.eclipse.ui.edit.paste",1382492024444
