what,kind,bundleId,bundleVersion,description,time
deactivated,workbench,org.eclipse.ui.workbench,3.7.1.v20120104-1859,"",1382233752305
activated,workbench,org.eclipse.ui.workbench,3.7.1.v20120104-1859,"",1382233752926
activated,editor,org.eclipse.jdt.ui,3.7.2.v20120109-1427,"org.eclipse.jdt.ui.CompilationUnitEditor",1382233752971
closed,editor,org.eclipse.jdt.ui,3.7.2.v20120109-1427,"org.eclipse.jdt.ui.CompilationUnitEditor",1382233752972
activated,view,org.eclipse.jdt.ui,3.7.2.v20120109-1427,"org.eclipse.jdt.ui.PackageExplorer",1382233803270
deactivated,workbench,org.eclipse.ui.workbench,3.7.1.v20120104-1859,"",1382233804213
activated,workbench,org.eclipse.ui.workbench,3.7.1.v20120104-1859,"",1382233804987
deactivated,workbench,org.eclipse.ui.workbench,3.7.1.v20120104-1859,"",1382233805436
activated,workbench,org.eclipse.ui.workbench,3.7.1.v20120104-1859,"",1382233810024
activated,view,org.eclipse.ui.console,3.5.100.v20111007_r372,"org.eclipse.ui.console.ConsoleView",1382233810031
deactivated,workbench,org.eclipse.ui.workbench,3.7.1.v20120104-1859,"",1382233823798
activated,workbench,org.eclipse.ui.workbench,3.7.1.v20120104-1859,"",1382233867902
activated,editor,org.eclipse.jdt.ui,3.7.2.v20120109-1427,"org.eclipse.jdt.ui.CompilationUnitEditor",1382233869606
executed,command,org.eclipse.ui,3.7.0.v20110928-1505,"org.eclipse.ui.edit.paste",1382233879566
executed,command,org.eclipse.jdt.ui,3.7.2.v20120109-1427,"org.eclipse.jdt.ui.edit.text.java.organize.imports",1382233882939
deactivated,workbench,org.eclipse.ui.workbench,3.7.1.v20120104-1859,"",1382233889457
activated,workbench,org.eclipse.ui.workbench,3.7.1.v20120104-1859,"",1382233912195
activated,view,org.eclipse.jdt.ui,3.7.2.v20120109-1427,"org.eclipse.jdt.ui.PackageExplorer",1382233934207
deactivated,workbench,org.eclipse.ui.workbench,3.7.1.v20120104-1859,"",1382233935462
activated,workbench,org.eclipse.ui.workbench,3.7.1.v20120104-1859,"",1382233936853
deactivated,workbench,org.eclipse.ui.workbench,3.7.1.v20120104-1859,"",1382233937243
activated,workbench,org.eclipse.ui.workbench,3.7.1.v20120104-1859,"",1382233937614
activated,view,org.eclipse.ui.console,3.5.100.v20111007_r372,"org.eclipse.ui.console.ConsoleView",1382233938636
activated,editor,org.eclipse.jdt.ui,3.7.2.v20120109-1427,"org.eclipse.jdt.ui.CompilationUnitEditor",1382233944700
deactivated,workbench,org.eclipse.ui.workbench,3.7.1.v20120104-1859,"",1382233952610
activated,workbench,org.eclipse.ui.workbench,3.7.1.v20120104-1859,"",1382233959928
executed,command,org.eclipse.ui,3.7.0.v20110928-1505,"org.eclipse.ui.edit.paste",1382233966660
deactivated,workbench,org.eclipse.ui.workbench,3.7.1.v20120104-1859,"",1382233972422
activated,workbench,org.eclipse.ui.workbench,3.7.1.v20120104-1859,"",1382233974639
executed,command,org.eclipse.jdt.ui,3.7.2.v20120109-1427,"org.eclipse.jdt.ui.edit.text.java.organize.imports",1382233974667
executed,command,org.eclipse.ui,3.7.0.v20110928-1505,"org.eclipse.ui.edit.cut",1382233981922
executed,command,org.eclipse.ui,3.7.0.v20110928-1505,"org.eclipse.ui.edit.paste",1382233988370
executed,command,org.eclipse.ui,3.7.0.v20110928-1505,"org.eclipse.ui.edit.cut",1382233992025
executed,command,org.eclipse.ui,3.7.0.v20110928-1505,"org.eclipse.ui.edit.paste",1382234000501
executed,command,org.eclipse.ui,3.7.0.v20110928-1505,"org.eclipse.ui.edit.cut",1382234005509
executed,command,org.eclipse.ui,3.7.0.v20110928-1505,"org.eclipse.ui.edit.paste",1382234007941
activated,view,org.eclipse.jdt.ui,3.7.2.v20120109-1427,"org.eclipse.jdt.ui.PackageExplorer",1382234023431
deactivated,workbench,org.eclipse.ui.workbench,3.7.1.v20120104-1859,"",1382234024499
activated,workbench,org.eclipse.ui.workbench,3.7.1.v20120104-1859,"",1382234025384
deactivated,workbench,org.eclipse.ui.workbench,3.7.1.v20120104-1859,"",1382234025723
activated,workbench,org.eclipse.ui.workbench,3.7.1.v20120104-1859,"",1382234043429
activated,editor,org.eclipse.jdt.ui,3.7.2.v20120109-1427,"org.eclipse.jdt.ui.CompilationUnitEditor",1382234048656
activated,view,org.eclipse.jdt.ui,3.7.2.v20120109-1427,"org.eclipse.jdt.ui.PackageExplorer",1382234057823
deactivated,workbench,org.eclipse.ui.workbench,3.7.1.v20120104-1859,"",1382234059477
activated,workbench,org.eclipse.ui.workbench,3.7.1.v20120104-1859,"",1382234060298
deactivated,workbench,org.eclipse.ui.workbench,3.7.1.v20120104-1859,"",1382234060671
activated,workbench,org.eclipse.ui.workbench,3.7.1.v20120104-1859,"",1382234071728
deactivated,workbench,org.eclipse.ui.workbench,3.7.1.v20120104-1859,"",1382234082737
activated,workbench,org.eclipse.ui.workbench,3.7.1.v20120104-1859,"",1382234087479
activated,editor,org.eclipse.jdt.ui,3.7.2.v20120109-1427,"org.eclipse.jdt.ui.CompilationUnitEditor",1382234090086
deactivated,workbench,org.eclipse.ui.workbench,3.7.1.v20120104-1859,"",1382234137935
activated,workbench,org.eclipse.ui.workbench,3.7.1.v20120104-1859,"",1382234146347
deactivated,workbench,org.eclipse.ui.workbench,3.7.1.v20120104-1859,"",1382234166125
activated,workbench,org.eclipse.ui.workbench,3.7.1.v20120104-1859,"",1382234274596
activated,editor,org.eclipse.jdt.ui,3.7.2.v20120109-1427,"org.eclipse.jdt.ui.CompilationUnitEditor",1382234286678
activated,editor,org.eclipse.jdt.ui,3.7.2.v20120109-1427,"org.eclipse.jdt.ui.CompilationUnitEditor",1382234338572
activated,editor,org.eclipse.jdt.ui,3.7.2.v20120109-1427,"org.eclipse.jdt.ui.CompilationUnitEditor",1382234344126
activated,editor,org.eclipse.jdt.ui,3.7.2.v20120109-1427,"org.eclipse.jdt.ui.CompilationUnitEditor",1382234380826
activated,editor,org.eclipse.jdt.ui,3.7.2.v20120109-1427,"org.eclipse.jdt.ui.CompilationUnitEditor",1382234383553
activated,view,org.eclipse.jdt.ui,3.7.2.v20120109-1427,"org.eclipse.jdt.ui.PackageExplorer",1382234405993
deactivated,workbench,org.eclipse.ui.workbench,3.7.1.v20120104-1859,"",1382234410479
activated,workbench,org.eclipse.ui.workbench,3.7.1.v20120104-1859,"",1382234413871
opened,editor,org.eclipse.jdt.ui,3.7.2.v20120109-1427,"org.eclipse.jdt.ui.CompilationUnitEditor",1382234414225
activated,editor,org.eclipse.jdt.ui,3.7.2.v20120109-1427,"org.eclipse.jdt.ui.CompilationUnitEditor",1382234414265
activated,editor,org.eclipse.jdt.ui,3.7.2.v20120109-1427,"org.eclipse.jdt.ui.CompilationUnitEditor",1382234415449
activated,editor,org.eclipse.jdt.ui,3.7.2.v20120109-1427,"org.eclipse.jdt.ui.CompilationUnitEditor",1382234427101
activated,view,org.eclipse.jdt.ui,3.7.2.v20120109-1427,"org.eclipse.jdt.ui.PackageExplorer",1382234437531
opened,editor,org.eclipse.jdt.ui,3.7.2.v20120109-1427,"org.eclipse.jdt.ui.CompilationUnitEditor",1382234437673
activated,editor,org.eclipse.jdt.ui,3.7.2.v20120109-1427,"org.eclipse.jdt.ui.CompilationUnitEditor",1382234437699
activated,editor,org.eclipse.jdt.ui,3.7.2.v20120109-1427,"org.eclipse.jdt.ui.CompilationUnitEditor",1382234469710
activated,editor,org.eclipse.jdt.ui,3.7.2.v20120109-1427,"org.eclipse.jdt.ui.CompilationUnitEditor",1382234547320
activated,editor,org.eclipse.jdt.ui,3.7.2.v20120109-1427,"org.eclipse.jdt.ui.CompilationUnitEditor",1382234555997
activated,editor,org.eclipse.jdt.ui,3.7.2.v20120109-1427,"org.eclipse.jdt.ui.CompilationUnitEditor",1382234557100
activated,editor,org.eclipse.jdt.ui,3.7.2.v20120109-1427,"org.eclipse.jdt.ui.CompilationUnitEditor",1382234560621
activated,editor,org.eclipse.jdt.ui,3.7.2.v20120109-1427,"org.eclipse.jdt.ui.CompilationUnitEditor",1382234561414
activated,editor,org.eclipse.jdt.ui,3.7.2.v20120109-1427,"org.eclipse.jdt.ui.CompilationUnitEditor",1382234562030
activated,editor,org.eclipse.jdt.ui,3.7.2.v20120109-1427,"org.eclipse.jdt.ui.CompilationUnitEditor",1382234562737
activated,editor,org.eclipse.jdt.ui,3.7.2.v20120109-1427,"org.eclipse.jdt.ui.CompilationUnitEditor",1382234572572
executed,command,org.eclipse.ui,3.7.0.v20110928-1505,"org.eclipse.ui.edit.text.contentAssist.proposals",1382234586952
deactivated,workbench,org.eclipse.ui.workbench,3.7.1.v20120104-1859,"",1382234587544
activated,workbench,org.eclipse.ui.workbench,3.7.1.v20120104-1859,"",1382234588363
deactivated,workbench,org.eclipse.ui.workbench,3.7.1.v20120104-1859,"",1382234589807
activated,workbench,org.eclipse.ui.workbench,3.7.1.v20120104-1859,"",1382234591501
executed,command,org.eclipse.jdt.ui,3.7.2.v20120109-1427,"org.eclipse.jdt.ui.edit.text.java.organize.imports",1382234591518
activated,editor,org.eclipse.jdt.ui,3.7.2.v20120109-1427,"org.eclipse.jdt.ui.CompilationUnitEditor",1382234605526
activated,editor,org.eclipse.jdt.ui,3.7.2.v20120109-1427,"org.eclipse.jdt.ui.CompilationUnitEditor",1382234741768
executed,command,org.eclipse.jdt.ui,3.7.2.v20120109-1427,"org.eclipse.jdt.ui.edit.text.java.organize.imports",1382234761122
deactivated,workbench,org.eclipse.ui.workbench,3.7.1.v20120104-1859,"",1382234778348
activated,workbench,org.eclipse.ui.workbench,3.7.1.v20120104-1859,"",1382234780692
executed,command,org.eclipse.jdt.ui,3.7.2.v20120109-1427,"org.eclipse.jdt.ui.edit.text.java.organize.imports",1382234780706
executed,command,org.eclipse.ui,3.7.0.v20110928-1505,"org.eclipse.ui.edit.copy",1382234888950
executed,command,org.eclipse.ui,3.7.0.v20110928-1505,"org.eclipse.ui.edit.paste",1382234890328
deactivated,workbench,org.eclipse.ui.workbench,3.7.1.v20120104-1859,"",1382234901488
activated,workbench,org.eclipse.ui.workbench,3.7.1.v20120104-1859,"",1382234901561
deactivated,workbench,org.eclipse.ui.workbench,3.7.1.v20120104-1859,"",1382234906797
activated,workbench,org.eclipse.ui.workbench,3.7.1.v20120104-1859,"",1382234906871
deactivated,workbench,org.eclipse.ui.workbench,3.7.1.v20120104-1859,"",1382234996979
activated,workbench,org.eclipse.ui.workbench,3.7.1.v20120104-1859,"",1382235346238
activated,editor,org.eclipse.jdt.ui,3.7.2.v20120109-1427,"org.eclipse.jdt.ui.CompilationUnitEditor",1382235480404
activated,editor,org.eclipse.jdt.ui,3.7.2.v20120109-1427,"org.eclipse.jdt.ui.CompilationUnitEditor",1382235482603
activated,editor,org.eclipse.jdt.ui,3.7.2.v20120109-1427,"org.eclipse.jdt.ui.CompilationUnitEditor",1382235526371
deactivated,workbench,org.eclipse.ui.workbench,3.7.1.v20120104-1859,"",1382235529712
activated,workbench,org.eclipse.ui.workbench,3.7.1.v20120104-1859,"",1382235530750
activated,editor,org.eclipse.jdt.ui,3.7.2.v20120109-1427,"org.eclipse.jdt.ui.CompilationUnitEditor",1382235530781
closed,editor,org.eclipse.jdt.ui,3.7.2.v20120109-1427,"org.eclipse.jdt.ui.CompilationUnitEditor",1382235530781
activated,editor,org.eclipse.jdt.ui,3.7.2.v20120109-1427,"org.eclipse.jdt.ui.CompilationUnitEditor",1382235532794
activated,editor,org.eclipse.jdt.ui,3.7.2.v20120109-1427,"org.eclipse.jdt.ui.CompilationUnitEditor",1382235535506
activated,editor,org.eclipse.jdt.ui,3.7.2.v20120109-1427,"org.eclipse.jdt.ui.CompilationUnitEditor",1382235538760
activated,editor,org.eclipse.jdt.ui,3.7.2.v20120109-1427,"org.eclipse.jdt.ui.CompilationUnitEditor",1382235566588
deactivated,workbench,org.eclipse.ui.workbench,3.7.1.v20120104-1859,"",1382235591390
activated,workbench,org.eclipse.ui.workbench,3.7.1.v20120104-1859,"",1382239160584
deactivated,workbench,org.eclipse.ui.workbench,3.7.1.v20120104-1859,"",1382239161067
activated,workbench,org.eclipse.ui.workbench,3.7.1.v20120104-1859,"",1382239172942
activated,editor,org.eclipse.jdt.ui,3.7.2.v20120109-1427,"org.eclipse.jdt.ui.CompilationUnitEditor",1382239177845
activated,editor,org.eclipse.jdt.ui,3.7.2.v20120109-1427,"org.eclipse.jdt.ui.CompilationUnitEditor",1382239189381
activated,editor,org.eclipse.jdt.ui,3.7.2.v20120109-1427,"org.eclipse.jdt.ui.CompilationUnitEditor",1382239193062
activated,editor,org.eclipse.jdt.ui,3.7.2.v20120109-1427,"org.eclipse.jdt.ui.CompilationUnitEditor",1382239302729
activated,editor,org.eclipse.jdt.ui,3.7.2.v20120109-1427,"org.eclipse.jdt.ui.CompilationUnitEditor",1382239305188
activated,editor,org.eclipse.jdt.ui,3.7.2.v20120109-1427,"org.eclipse.jdt.ui.CompilationUnitEditor",1382239403189
activated,editor,org.eclipse.jdt.ui,3.7.2.v20120109-1427,"org.eclipse.jdt.ui.CompilationUnitEditor",1382239405851
activated,editor,org.eclipse.jdt.ui,3.7.2.v20120109-1427,"org.eclipse.jdt.ui.CompilationUnitEditor",1382239409049
activated,editor,org.eclipse.jdt.ui,3.7.2.v20120109-1427,"org.eclipse.jdt.ui.CompilationUnitEditor",1382239413976
deactivated,workbench,org.eclipse.ui.workbench,3.7.1.v20120104-1859,"",1382239449378
activated,workbench,org.eclipse.ui.workbench,3.7.1.v20120104-1859,"",1382239451569
executed,command,org.eclipse.jdt.ui,3.7.2.v20120109-1427,"org.eclipse.jdt.ui.edit.text.java.organize.imports",1382239451592
deactivated,workbench,org.eclipse.ui.workbench,3.7.1.v20120104-1859,"",1382239496982
activated,workbench,org.eclipse.ui.workbench,3.7.1.v20120104-1859,"",1382239525640
deactivated,workbench,org.eclipse.ui.workbench,3.7.1.v20120104-1859,"",1382239543695
activated,workbench,org.eclipse.ui.workbench,3.7.1.v20120104-1859,"",1382239545186
activated,editor,org.eclipse.jdt.ui,3.7.2.v20120109-1427,"org.eclipse.jdt.ui.CompilationUnitEditor",1382239549942
deactivated,workbench,org.eclipse.ui.workbench,3.7.1.v20120104-1859,"",1382239561245
activated,workbench,org.eclipse.ui.workbench,3.7.1.v20120104-1859,"",1382239562206
executed,command,org.eclipse.jdt.ui,3.7.2.v20120109-1427,"org.eclipse.jdt.ui.edit.text.java.organize.imports",1382239562236
activated,editor,org.eclipse.jdt.ui,3.7.2.v20120109-1427,"org.eclipse.jdt.ui.CompilationUnitEditor",1382239566807
deactivated,workbench,org.eclipse.ui.workbench,3.7.1.v20120104-1859,"",1382239597129
activated,workbench,org.eclipse.ui.workbench,3.7.1.v20120104-1859,"",1382239615267
activated,editor,org.eclipse.jdt.ui,3.7.2.v20120109-1427,"org.eclipse.jdt.ui.CompilationUnitEditor",1382239638577
activated,editor,org.eclipse.jdt.ui,3.7.2.v20120109-1427,"org.eclipse.jdt.ui.CompilationUnitEditor",1382239649163
activated,editor,org.eclipse.jdt.ui,3.7.2.v20120109-1427,"org.eclipse.jdt.ui.CompilationUnitEditor",1382239650128
deactivated,workbench,org.eclipse.ui.workbench,3.7.1.v20120104-1859,"",1382239704006
activated,workbench,org.eclipse.ui.workbench,3.7.1.v20120104-1859,"",1382239706455
executed,command,org.eclipse.ui.workbench.texteditor,3.7.0.v20110928-1504,"org.eclipse.ui.edit.text.toggleOverwrite",1382239854215
executed,command,org.eclipse.ui.workbench.texteditor,3.7.0.v20110928-1504,"org.eclipse.ui.edit.text.toggleOverwrite",1382239856119
activated,editor,org.eclipse.jdt.ui,3.7.2.v20120109-1427,"org.eclipse.jdt.ui.CompilationUnitEditor",1382239894452
executed,command,org.eclipse.jdt.ui,3.7.2.v20120109-1427,"org.eclipse.jdt.ui.edit.text.java.organize.imports",1382239906200
executed,command,org.eclipse.ui,3.7.0.v20110928-1505,"org.eclipse.ui.file.saveAll",1382239907466
activated,editor,org.eclipse.jdt.ui,3.7.2.v20120109-1427,"org.eclipse.jdt.ui.CompilationUnitEditor",1382239909560
activated,editor,org.eclipse.jdt.ui,3.7.2.v20120109-1427,"org.eclipse.jdt.ui.CompilationUnitEditor",1382239917587
activated,editor,org.eclipse.jdt.ui,3.7.2.v20120109-1427,"org.eclipse.jdt.ui.CompilationUnitEditor",1382239963882
executed,command,org.eclipse.ui,3.7.0.v20110928-1505,"org.eclipse.ui.file.saveAll",1382239981956
activated,editor,org.eclipse.jdt.ui,3.7.2.v20120109-1427,"org.eclipse.jdt.ui.CompilationUnitEditor",1382239984463
activated,view,org.eclipse.jdt.ui,3.7.2.v20120109-1427,"org.eclipse.jdt.ui.PackageExplorer",1382240073564
deactivated,workbench,org.eclipse.ui.workbench,3.7.1.v20120104-1859,"",1382240074732
activated,workbench,org.eclipse.ui.workbench,3.7.1.v20120104-1859,"",1382240075350
deactivated,workbench,org.eclipse.ui.workbench,3.7.1.v20120104-1859,"",1382240075738
activated,workbench,org.eclipse.ui.workbench,3.7.1.v20120104-1859,"",1382240090778
activated,editor,org.eclipse.jdt.ui,3.7.2.v20120109-1427,"org.eclipse.jdt.ui.CompilationUnitEditor",1382240107865
deactivated,workbench,org.eclipse.ui.workbench,3.7.1.v20120104-1859,"",1382240114399
activated,workbench,org.eclipse.ui.workbench,3.7.1.v20120104-1859,"",1382240164054
deactivated,workbench,org.eclipse.ui.workbench,3.7.1.v20120104-1859,"",1382240168989
activated,workbench,org.eclipse.ui.workbench,3.7.1.v20120104-1859,"",1382240335775
deactivated,workbench,org.eclipse.ui.workbench,3.7.1.v20120104-1859,"",1382240363469
activated,workbench,org.eclipse.ui.workbench,3.7.1.v20120104-1859,"",1382240386547
activated,view,org.eclipse.jdt.ui,3.7.2.v20120109-1427,"org.eclipse.jdt.ui.PackageExplorer",1382240393761
deactivated,workbench,org.eclipse.ui.workbench,3.7.1.v20120104-1859,"",1382240394554
activated,workbench,org.eclipse.ui.workbench,3.7.1.v20120104-1859,"",1382240395211
deactivated,workbench,org.eclipse.ui.workbench,3.7.1.v20120104-1859,"",1382240395600
activated,workbench,org.eclipse.ui.workbench,3.7.1.v20120104-1859,"",1382240405078
activated,editor,org.eclipse.jdt.ui,3.7.2.v20120109-1427,"org.eclipse.jdt.ui.CompilationUnitEditor",1382240410493
activated,view,org.eclipse.jdt.ui,3.7.2.v20120109-1427,"org.eclipse.jdt.ui.PackageExplorer",1382240421954
deactivated,workbench,org.eclipse.ui.workbench,3.7.1.v20120104-1859,"",1382240422938
activated,workbench,org.eclipse.ui.workbench,3.7.1.v20120104-1859,"",1382240423874
deactivated,workbench,org.eclipse.ui.workbench,3.7.1.v20120104-1859,"",1382240424235
activated,workbench,org.eclipse.ui.workbench,3.7.1.v20120104-1859,"",1382240451546
activated,editor,org.eclipse.jdt.ui,3.7.2.v20120109-1427,"org.eclipse.jdt.ui.CompilationUnitEditor",1382240454099
activated,editor,org.eclipse.jdt.ui,3.7.2.v20120109-1427,"org.eclipse.jdt.ui.CompilationUnitEditor",1382240528310
activated,view,org.eclipse.jdt.ui,3.7.2.v20120109-1427,"org.eclipse.jdt.ui.PackageExplorer",1382240561193
deactivated,workbench,org.eclipse.ui.workbench,3.7.1.v20120104-1859,"",1382240562537
activated,workbench,org.eclipse.ui.workbench,3.7.1.v20120104-1859,"",1382240563851
deactivated,workbench,org.eclipse.ui.workbench,3.7.1.v20120104-1859,"",1382240564290
activated,workbench,org.eclipse.ui.workbench,3.7.1.v20120104-1859,"",1382240568934
activated,view,org.eclipse.ui.console,3.5.100.v20111007_r372,"org.eclipse.ui.console.ConsoleView",1382240571422
activated,editor,org.eclipse.jdt.ui,3.7.2.v20120109-1427,"org.eclipse.jdt.ui.CompilationUnitEditor",1382240575870
deactivated,workbench,org.eclipse.ui.workbench,3.7.1.v20120104-1859,"",1382240578843
activated,workbench,org.eclipse.ui.workbench,3.7.1.v20120104-1859,"",1382240655397
deactivated,workbench,org.eclipse.ui.workbench,3.7.1.v20120104-1859,"",1382240671108
activated,workbench,org.eclipse.ui.workbench,3.7.1.v20120104-1859,"",1382240674935
deactivated,workbench,org.eclipse.ui.workbench,3.7.1.v20120104-1859,"",1382240694980
activated,workbench,org.eclipse.ui.workbench,3.7.1.v20120104-1859,"",1382240803030
deactivated,workbench,org.eclipse.ui.workbench,3.7.1.v20120104-1859,"",1382240804374
activated,workbench,org.eclipse.ui.workbench,3.7.1.v20120104-1859,"",1382240806746
activated,view,org.eclipse.jdt.ui,3.7.2.v20120109-1427,"org.eclipse.jdt.ui.PackageExplorer",1382240836632
deactivated,workbench,org.eclipse.ui.workbench,3.7.1.v20120104-1859,"",1382240838036
activated,workbench,org.eclipse.ui.workbench,3.7.1.v20120104-1859,"",1382240839113
deactivated,workbench,org.eclipse.ui.workbench,3.7.1.v20120104-1859,"",1382240839482
activated,workbench,org.eclipse.ui.workbench,3.7.1.v20120104-1859,"",1382240842848
activated,editor,org.eclipse.jdt.ui,3.7.2.v20120109-1427,"org.eclipse.jdt.ui.CompilationUnitEditor",1382240843987
activated,view,org.eclipse.jdt.ui,3.7.2.v20120109-1427,"org.eclipse.jdt.ui.PackageExplorer",1382240847870
deactivated,workbench,org.eclipse.ui.workbench,3.7.1.v20120104-1859,"",1382240848673
activated,workbench,org.eclipse.ui.workbench,3.7.1.v20120104-1859,"",1382240849333
deactivated,workbench,org.eclipse.ui.workbench,3.7.1.v20120104-1859,"",1382240849703
activated,workbench,org.eclipse.ui.workbench,3.7.1.v20120104-1859,"",1382240853481
activated,editor,org.eclipse.jdt.ui,3.7.2.v20120109-1427,"org.eclipse.jdt.ui.CompilationUnitEditor",1382240855472
deactivated,workbench,org.eclipse.ui.workbench,3.7.1.v20120104-1859,"",1382240912668
activated,workbench,org.eclipse.ui.workbench,3.7.1.v20120104-1859,"",1382240924362
activated,view,org.eclipse.jdt.ui,3.7.2.v20120109-1427,"org.eclipse.jdt.ui.PackageExplorer",1382241054665
deactivated,workbench,org.eclipse.ui.workbench,3.7.1.v20120104-1859,"",1382241055873
activated,workbench,org.eclipse.ui.workbench,3.7.1.v20120104-1859,"",1382241056894
deactivated,workbench,org.eclipse.ui.workbench,3.7.1.v20120104-1859,"",1382241057288
activated,workbench,org.eclipse.ui.workbench,3.7.1.v20120104-1859,"",1382241073766
activated,editor,org.eclipse.jdt.ui,3.7.2.v20120109-1427,"org.eclipse.jdt.ui.CompilationUnitEditor",1382241077389
activated,view,org.eclipse.jdt.ui,3.7.2.v20120109-1427,"org.eclipse.jdt.ui.PackageExplorer",1382241080667
deactivated,workbench,org.eclipse.ui.workbench,3.7.1.v20120104-1859,"",1382241081778
activated,workbench,org.eclipse.ui.workbench,3.7.1.v20120104-1859,"",1382241082719
deactivated,workbench,org.eclipse.ui.workbench,3.7.1.v20120104-1859,"",1382241083100
activated,workbench,org.eclipse.ui.workbench,3.7.1.v20120104-1859,"",1382241088865
activated,editor,org.eclipse.jdt.ui,3.7.2.v20120109-1427,"org.eclipse.jdt.ui.CompilationUnitEditor",1382241091532
activated,view,org.eclipse.jdt.ui,3.7.2.v20120109-1427,"org.eclipse.jdt.ui.PackageExplorer",1382241121974
deactivated,workbench,org.eclipse.ui.workbench,3.7.1.v20120104-1859,"",1382241122819
activated,workbench,org.eclipse.ui.workbench,3.7.1.v20120104-1859,"",1382241123537
deactivated,workbench,org.eclipse.ui.workbench,3.7.1.v20120104-1859,"",1382241123890
activated,workbench,org.eclipse.ui.workbench,3.7.1.v20120104-1859,"",1382241128949
activated,editor,org.eclipse.jdt.ui,3.7.2.v20120109-1427,"org.eclipse.jdt.ui.CompilationUnitEditor",1382241131320
activated,view,org.eclipse.jdt.ui,3.7.2.v20120109-1427,"org.eclipse.jdt.ui.PackageExplorer",1382241143779
deactivated,workbench,org.eclipse.ui.workbench,3.7.1.v20120104-1859,"",1382241144664
activated,workbench,org.eclipse.ui.workbench,3.7.1.v20120104-1859,"",1382241145647
deactivated,workbench,org.eclipse.ui.workbench,3.7.1.v20120104-1859,"",1382241146056
activated,workbench,org.eclipse.ui.workbench,3.7.1.v20120104-1859,"",1382241153050
activated,editor,org.eclipse.jdt.ui,3.7.2.v20120109-1427,"org.eclipse.jdt.ui.CompilationUnitEditor",1382241159174
activated,view,org.eclipse.jdt.ui,3.7.2.v20120109-1427,"org.eclipse.jdt.ui.PackageExplorer",1382241162357
deactivated,workbench,org.eclipse.ui.workbench,3.7.1.v20120104-1859,"",1382241163296
activated,workbench,org.eclipse.ui.workbench,3.7.1.v20120104-1859,"",1382241164276
deactivated,workbench,org.eclipse.ui.workbench,3.7.1.v20120104-1859,"",1382241164652
activated,workbench,org.eclipse.ui.workbench,3.7.1.v20120104-1859,"",1382241170916
activated,editor,org.eclipse.jdt.ui,3.7.2.v20120109-1427,"org.eclipse.jdt.ui.CompilationUnitEditor",1382241189293
activated,view,org.eclipse.jdt.ui,3.7.2.v20120109-1427,"org.eclipse.jdt.ui.PackageExplorer",1382241225509
deactivated,workbench,org.eclipse.ui.workbench,3.7.1.v20120104-1859,"",1382241226399
activated,workbench,org.eclipse.ui.workbench,3.7.1.v20120104-1859,"",1382241227317
deactivated,workbench,org.eclipse.ui.workbench,3.7.1.v20120104-1859,"",1382241227737
activated,workbench,org.eclipse.ui.workbench,3.7.1.v20120104-1859,"",1382241235150
activated,view,org.eclipse.ui.console,3.5.100.v20111007_r372,"org.eclipse.ui.console.ConsoleView",1382241250887
activated,view,org.eclipse.jdt.ui,3.7.2.v20120109-1427,"org.eclipse.jdt.ui.PackageExplorer",1382241258644
deactivated,workbench,org.eclipse.ui.workbench,3.7.1.v20120104-1859,"",1382241259913
activated,workbench,org.eclipse.ui.workbench,3.7.1.v20120104-1859,"",1382241301500
activated,editor,org.eclipse.jdt.ui,3.7.2.v20120109-1427,"org.eclipse.jdt.ui.CompilationUnitEditor",1382241302329
executed,command,org.eclipse.ui,3.7.0.v20110928-1505,"org.eclipse.ui.edit.copy",1382241392612
executed,command,org.eclipse.ui,3.7.0.v20110928-1505,"org.eclipse.ui.edit.paste",1382241394393
activated,view,org.eclipse.jdt.ui,3.7.2.v20120109-1427,"org.eclipse.jdt.ui.PackageExplorer",1382241403160
deactivated,workbench,org.eclipse.ui.workbench,3.7.1.v20120104-1859,"",1382241404430
activated,workbench,org.eclipse.ui.workbench,3.7.1.v20120104-1859,"",1382241405164
deactivated,workbench,org.eclipse.ui.workbench,3.7.1.v20120104-1859,"",1382241405549
activated,workbench,org.eclipse.ui.workbench,3.7.1.v20120104-1859,"",1382241424417
activated,editor,org.eclipse.jdt.ui,3.7.2.v20120109-1427,"org.eclipse.jdt.ui.CompilationUnitEditor",1382241428945
deactivated,workbench,org.eclipse.ui.workbench,3.7.1.v20120104-1859,"",1382241440529
activated,workbench,org.eclipse.ui.workbench,3.7.1.v20120104-1859,"",1382241440579
executed,command,org.eclipse.jdt.ui,3.7.2.v20120109-1427,"org.eclipse.jdt.ui.edit.text.java.organize.imports",1382241473120
activated,view,org.eclipse.jdt.ui,3.7.2.v20120109-1427,"org.eclipse.jdt.ui.PackageExplorer",1382241581287
deactivated,workbench,org.eclipse.ui.workbench,3.7.1.v20120104-1859,"",1382241582253
activated,workbench,org.eclipse.ui.workbench,3.7.1.v20120104-1859,"",1382241583936
activated,editor,org.eclipse.jdt.ui,3.7.2.v20120109-1427,"org.eclipse.jdt.ui.CompilationUnitEditor",1382241584825
activated,view,org.eclipse.jdt.ui,3.7.2.v20120109-1427,"org.eclipse.jdt.ui.PackageExplorer",1382241589883
deactivated,workbench,org.eclipse.ui.workbench,3.7.1.v20120104-1859,"",1382241590751
activated,workbench,org.eclipse.ui.workbench,3.7.1.v20120104-1859,"",1382241591814
deactivated,workbench,org.eclipse.ui.workbench,3.7.1.v20120104-1859,"",1382241592226
activated,workbench,org.eclipse.ui.workbench,3.7.1.v20120104-1859,"",1382241598168
activated,editor,org.eclipse.jdt.ui,3.7.2.v20120109-1427,"org.eclipse.jdt.ui.CompilationUnitEditor",1382241600637
activated,view,org.eclipse.jdt.ui,3.7.2.v20120109-1427,"org.eclipse.jdt.ui.PackageExplorer",1382241626084
deactivated,workbench,org.eclipse.ui.workbench,3.7.1.v20120104-1859,"",1382241627115
activated,workbench,org.eclipse.ui.workbench,3.7.1.v20120104-1859,"",1382241627992
deactivated,workbench,org.eclipse.ui.workbench,3.7.1.v20120104-1859,"",1382241628360
activated,workbench,org.eclipse.ui.workbench,3.7.1.v20120104-1859,"",1382241647185
activated,editor,org.eclipse.jdt.ui,3.7.2.v20120109-1427,"org.eclipse.jdt.ui.CompilationUnitEditor",1382241651701
deactivated,workbench,org.eclipse.ui.workbench,3.7.1.v20120104-1859,"",1382241654341
activated,workbench,org.eclipse.ui.workbench,3.7.1.v20120104-1859,"",1382241654862
activated,view,org.eclipse.jdt.ui,3.7.2.v20120109-1427,"org.eclipse.jdt.ui.PackageExplorer",1382241679884
