what,kind,bundleId,bundleVersion,description,time
deactivated,workbench,org.eclipse.ui.workbench,3.7.1.v20120104-1859,"",1377480422963
activated,workbench,org.eclipse.ui.workbench,3.7.1.v20120104-1859,"",1377480434012
activated,editor,org.eclipse.jdt.ui,3.7.2.v20120109-1427,"org.eclipse.jdt.ui.CompilationUnitEditor",1377480436020
activated,editor,org.eclipse.jdt.ui,3.7.2.v20120109-1427,"org.eclipse.jdt.ui.CompilationUnitEditor",1377480437332
activated,editor,org.eclipse.jdt.ui,3.7.2.v20120109-1427,"org.eclipse.jdt.ui.CompilationUnitEditor",1377480438806
activated,editor,org.eclipse.jdt.ui,3.7.2.v20120109-1427,"org.eclipse.jdt.ui.CompilationUnitEditor",1377480440242
deactivated,workbench,org.eclipse.ui.workbench,3.7.1.v20120104-1859,"",1377480513013
activated,workbench,org.eclipse.ui.workbench,3.7.1.v20120104-1859,"",1377480514426
activated,editor,org.eclipse.jdt.ui,3.7.2.v20120109-1427,"org.eclipse.jdt.ui.CompilationUnitEditor",1377480514989
deactivated,workbench,org.eclipse.ui.workbench,3.7.1.v20120104-1859,"",1377480515682
activated,workbench,org.eclipse.ui.workbench,3.7.1.v20120104-1859,"",1377480516578
deactivated,workbench,org.eclipse.ui.workbench,3.7.1.v20120104-1859,"",1377480516939
activated,workbench,org.eclipse.ui.workbench,3.7.1.v20120104-1859,"",1377480531353
activated,editor,org.eclipse.jdt.ui,3.7.2.v20120109-1427,"org.eclipse.jdt.ui.CompilationUnitEditor",1377480533405
activated,editor,org.eclipse.jdt.ui,3.7.2.v20120109-1427,"org.eclipse.jdt.ui.CompilationUnitEditor",1377480574276
deactivated,workbench,org.eclipse.ui.workbench,3.7.1.v20120104-1859,"",1377480575201
activated,workbench,org.eclipse.ui.workbench,3.7.1.v20120104-1859,"",1377480576201
deactivated,workbench,org.eclipse.ui.workbench,3.7.1.v20120104-1859,"",1377480576567
activated,workbench,org.eclipse.ui.workbench,3.7.1.v20120104-1859,"",1377480794131
activated,editor,org.eclipse.jdt.ui,3.7.2.v20120109-1427,"org.eclipse.jdt.ui.CompilationUnitEditor",1377480799377
activated,view,org.eclipse.jdt.ui,3.7.2.v20120109-1427,"org.eclipse.jdt.ui.PackageExplorer",1377480803240
activated,editor,org.eclipse.jdt.ui,3.7.2.v20120109-1427,"org.eclipse.jdt.ui.CompilationUnitEditor",1377480812614
activated,editor,org.eclipse.jdt.ui,3.7.2.v20120109-1427,"org.eclipse.jdt.ui.CompilationUnitEditor",1377480813946
executed,command,org.eclipse.ui,3.7.0.v20110928-1505,"org.eclipse.ui.file.saveAll",1377480839794
deactivated,workbench,org.eclipse.ui.workbench,3.7.1.v20120104-1859,"",1377480847301
activated,workbench,org.eclipse.ui.workbench,3.7.1.v20120104-1859,"",1377480853177
activated,editor,org.eclipse.jdt.ui,3.7.2.v20120109-1427,"org.eclipse.jdt.ui.CompilationUnitEditor",1377480865178
deactivated,workbench,org.eclipse.ui.workbench,3.7.1.v20120104-1859,"",1377480866370
activated,workbench,org.eclipse.ui.workbench,3.7.1.v20120104-1859,"",1377482305837
deactivated,workbench,org.eclipse.ui.workbench,3.7.1.v20120104-1859,"",1377482308647
activated,workbench,org.eclipse.ui.workbench,3.7.1.v20120104-1859,"",1377493509780
deactivated,workbench,org.eclipse.ui.workbench,3.7.1.v20120104-1859,"",1377493529417
activated,workbench,org.eclipse.ui.workbench,3.7.1.v20120104-1859,"",1377493582370
deactivated,workbench,org.eclipse.ui.workbench,3.7.1.v20120104-1859,"",1377493599497
activated,workbench,org.eclipse.ui.workbench,3.7.1.v20120104-1859,"",1377493900251
deactivated,workbench,org.eclipse.ui.workbench,3.7.1.v20120104-1859,"",1377493901066
activated,workbench,org.eclipse.ui.workbench,3.7.1.v20120104-1859,"",1377497039200
deactivated,workbench,org.eclipse.ui.workbench,3.7.1.v20120104-1859,"",1377497121554
activated,workbench,org.eclipse.ui.workbench,3.7.1.v20120104-1859,"",1377498362953
deactivated,workbench,org.eclipse.ui.workbench,3.7.1.v20120104-1859,"",1377498363423
activated,workbench,org.eclipse.ui.workbench,3.7.1.v20120104-1859,"",1377555694389
activated,view,org.eclipse.jdt.ui,3.7.2.v20120109-1427,"org.eclipse.jdt.ui.PackageExplorer",1377555699096
executed,command,org.eclipse.ui,3.7.0.v20110928-1505,"org.eclipse.ui.edit.undo",1377555718554
executed,command,org.eclipse.ui,3.7.0.v20110928-1505,"org.eclipse.ui.edit.undo",1377555719754
opened,editor,org.eclipse.jdt.ui,3.7.2.v20120109-1427,"org.eclipse.jdt.ui.CompilationUnitEditor",1377555729940
activated,editor,org.eclipse.jdt.ui,3.7.2.v20120109-1427,"org.eclipse.jdt.ui.CompilationUnitEditor",1377555729988
activated,editor,org.eclipse.jdt.ui,3.7.2.v20120109-1427,"org.eclipse.jdt.ui.CompilationUnitEditor",1377555732596
closed,editor,org.eclipse.jdt.ui,3.7.2.v20120109-1427,"org.eclipse.jdt.ui.CompilationUnitEditor",1377555732596
activated,view,org.eclipse.jdt.ui,3.7.2.v20120109-1427,"org.eclipse.jdt.ui.PackageExplorer",1377555733677
opened,editor,org.eclipse.jdt.ui,3.7.2.v20120109-1427,"org.eclipse.jdt.ui.CompilationUnitEditor",1377555734234
activated,editor,org.eclipse.jdt.ui,3.7.2.v20120109-1427,"org.eclipse.jdt.ui.CompilationUnitEditor",1377555734305
activated,editor,org.eclipse.jdt.ui,3.7.2.v20120109-1427,"org.eclipse.jdt.ui.CompilationUnitEditor",1377555735779
closed,editor,org.eclipse.jdt.ui,3.7.2.v20120109-1427,"org.eclipse.jdt.ui.CompilationUnitEditor",1377555735779
activated,view,org.eclipse.jdt.ui,3.7.2.v20120109-1427,"org.eclipse.jdt.ui.PackageExplorer",1377555736726
deactivated,workbench,org.eclipse.ui.workbench,3.7.1.v20120104-1859,"",1377555738026
started,bundle,org.eclipse.emf.common,2.7.0.v20120127-1122,"org.eclipse.emf.common",1377555739434
started,bundle,org.eclipse.wst.common.frameworks,1.2.102.v201201190400,"org.eclipse.wst.common.frameworks",1377555739462
started,bundle,org.eclipse.wst.common.emf,1.2.100.v201101101900,"org.eclipse.wst.common.emf",1377555739664
started,bundle,org.eclipse.emf.ecore,2.7.0.v20120127-1122,"org.eclipse.emf.ecore",1377555739755
started,bundle,org.eclipse.jem.util,2.1.100.v201103021400,"org.eclipse.jem.util",1377555739796
started,bundle,org.eclipse.emf.ecore.xmi,2.7.0.v20120127-1122,"org.eclipse.emf.ecore.xmi",1377555739810
started,bundle,org.eclipse.wst.common.emfworkbench.integration,1.2.101.v201107140600,"org.eclipse.wst.common.emfworkbench.integration",1377555739811
started,bundle,org.eclipse.wst.common.core,1.2.0.v200908252030,"org.eclipse.wst.common.core",1377555739883
started,bundle,org.eclipse.wst.common.modulecore,1.2.103.v201201190400,"org.eclipse.wst.common.modulecore",1377555739885
started,bundle,org.eclipse.jst.j2ee.core,1.2.102.v201202090300,"org.eclipse.jst.j2ee.core",1377555739921
started,bundle,org.eclipse.jem,2.0.501.v201111030500,"org.eclipse.jem",1377555739961
started,bundle,org.eclipse.wst.common.frameworks.ui,1.2.100.v201105122000,"org.eclipse.wst.common.frameworks.ui",1377555739987
started,bundle,org.eclipse.wst.xml.core,1.1.602.v201201091944,"org.eclipse.wst.xml.core",1377555740000
started,bundle,org.eclipse.wst.validation,1.2.303.v201202090300,"org.eclipse.wst.validation",1377555740018
started,bundle,org.eclipse.jst.j2ee,1.1.503.v201202090300,"org.eclipse.jst.j2ee",1377555740052
error,log,,,"Participant 'org.eclipse.jpt.jpa.core.refactoring.jpaDeleteTypeParticipant' removed due to the following exception",1377555740248
started,bundle,org.eclipse.wst.jsdt.manipulation,1.0.300.v201104272153,"org.eclipse.wst.jsdt.manipulation",1377555741672
started,bundle,org.eclipse.wst.jsdt.core,1.1.102.v201111090634,"org.eclipse.wst.jsdt.core",1377555742228
started,bundle,org.eclipse.wst.jsdt.ui,1.1.102.v201201131900,"org.eclipse.wst.jsdt.ui",1377555742308
activated,workbench,org.eclipse.ui.workbench,3.7.1.v20120104-1859,"",1377555742644
executed,command,org.eclipse.ui,3.7.0.v20110928-1505,"org.eclipse.ui.edit.delete",1377555742685
deactivated,workbench,org.eclipse.ui.workbench,3.7.1.v20120104-1859,"",1377555743340
activated,workbench,org.eclipse.ui.workbench,3.7.1.v20120104-1859,"",1377555744244
executed,command,org.eclipse.ui,3.7.0.v20110928-1505,"org.eclipse.ui.edit.delete",1377555744251
deactivated,workbench,org.eclipse.ui.workbench,3.7.1.v20120104-1859,"",1377555746660
error,log,,,"Participant 'org.eclipse.jpt.jpa.core.refactoring.jpaDeletePackageOrFolderParticipant' removed due to the following exception",1377555747680
activated,workbench,org.eclipse.ui.workbench,3.7.1.v20120104-1859,"",1377555749096
executed,command,org.eclipse.ui,3.7.0.v20110928-1505,"org.eclipse.ui.edit.delete",1377555749103
opened,editor,org.eclipse.jdt.ui,3.7.2.v20120109-1427,"org.eclipse.jdt.ui.CompilationUnitEditor",1377555751843
activated,editor,org.eclipse.jdt.ui,3.7.2.v20120109-1427,"org.eclipse.jdt.ui.CompilationUnitEditor",1377555751891
activated,view,org.eclipse.jdt.ui,3.7.2.v20120109-1427,"org.eclipse.jdt.ui.PackageExplorer",1377555756415
opened,editor,org.eclipse.jdt.ui,3.7.2.v20120109-1427,"org.eclipse.jdt.ui.CompilationUnitEditor",1377555756551
activated,editor,org.eclipse.jdt.ui,3.7.2.v20120109-1427,"org.eclipse.jdt.ui.CompilationUnitEditor",1377555756597
activated,view,org.eclipse.jdt.ui,3.7.2.v20120109-1427,"org.eclipse.jdt.ui.PackageExplorer",1377555756743
activated,editor,org.eclipse.jdt.ui,3.7.2.v20120109-1427,"org.eclipse.jdt.ui.CompilationUnitEditor",1377555758064
activated,editor,org.eclipse.jdt.ui,3.7.2.v20120109-1427,"org.eclipse.jdt.ui.CompilationUnitEditor",1377555758092
closed,editor,org.eclipse.jdt.ui,3.7.2.v20120109-1427,"org.eclipse.jdt.ui.CompilationUnitEditor",1377555758092
activated,editor,org.eclipse.jdt.ui,3.7.2.v20120109-1427,"org.eclipse.jdt.ui.CompilationUnitEditor",1377555758804
closed,editor,org.eclipse.jdt.ui,3.7.2.v20120109-1427,"org.eclipse.jdt.ui.CompilationUnitEditor",1377555758804
activated,view,org.eclipse.jdt.ui,3.7.2.v20120109-1427,"org.eclipse.jdt.ui.PackageExplorer",1377555759551
deactivated,workbench,org.eclipse.ui.workbench,3.7.1.v20120104-1859,"",1377555759830
activated,workbench,org.eclipse.ui.workbench,3.7.1.v20120104-1859,"",1377555760817
executed,command,org.eclipse.ui,3.7.0.v20110928-1505,"org.eclipse.ui.edit.delete",1377555760823
deactivated,workbench,org.eclipse.ui.workbench,3.7.1.v20120104-1859,"",1377555761799
activated,workbench,org.eclipse.ui.workbench,3.7.1.v20120104-1859,"",1377555762978
executed,command,org.eclipse.ui,3.7.0.v20110928-1505,"org.eclipse.ui.edit.delete",1377555762986
deactivated,workbench,org.eclipse.ui.workbench,3.7.1.v20120104-1859,"",1377555764824
activated,workbench,org.eclipse.ui.workbench,3.7.1.v20120104-1859,"",1377555765874
executed,command,org.eclipse.ui,3.7.0.v20110928-1505,"org.eclipse.ui.edit.delete",1377555765881
deactivated,workbench,org.eclipse.ui.workbench,3.7.1.v20120104-1859,"",1377555771878
activated,workbench,org.eclipse.ui.workbench,3.7.1.v20120104-1859,"",1377555778920
deactivated,workbench,org.eclipse.ui.workbench,3.7.1.v20120104-1859,"",1377555780733
activated,workbench,org.eclipse.ui.workbench,3.7.1.v20120104-1859,"",1377556181797
deactivated,workbench,org.eclipse.ui.workbench,3.7.1.v20120104-1859,"",1377556483050
activated,workbench,org.eclipse.ui.workbench,3.7.1.v20120104-1859,"",1377556692340
deactivated,workbench,org.eclipse.ui.workbench,3.7.1.v20120104-1859,"",1377556700731
activated,workbench,org.eclipse.ui.workbench,3.7.1.v20120104-1859,"",1377557902076
deactivated,workbench,org.eclipse.ui.workbench,3.7.1.v20120104-1859,"",1377558203284
activated,workbench,org.eclipse.ui.workbench,3.7.1.v20120104-1859,"",1377566284702
deactivated,workbench,org.eclipse.ui.workbench,3.7.1.v20120104-1859,"",1377566284844
activated,workbench,org.eclipse.ui.workbench,3.7.1.v20120104-1859,"",1377566797701
deactivated,workbench,org.eclipse.ui.workbench,3.7.1.v20120104-1859,"",1377566798364
activated,workbench,org.eclipse.ui.workbench,3.7.1.v20120104-1859,"",1377567014956
deactivated,workbench,org.eclipse.ui.workbench,3.7.1.v20120104-1859,"",1377567018167
activated,workbench,org.eclipse.ui.workbench,3.7.1.v20120104-1859,"",1377567023203
opened,editor,org.eclipse.jdt.ui,3.7.2.v20120109-1427,"org.eclipse.jdt.ui.CompilationUnitEditor",1377567023324
activated,editor,org.eclipse.jdt.ui,3.7.2.v20120109-1427,"org.eclipse.jdt.ui.CompilationUnitEditor",1377567023378
deactivated,workbench,org.eclipse.ui.workbench,3.7.1.v20120104-1859,"",1377567028487
activated,workbench,org.eclipse.ui.workbench,3.7.1.v20120104-1859,"",1377567180678
deactivated,workbench,org.eclipse.ui.workbench,3.7.1.v20120104-1859,"",1377567184751
activated,workbench,org.eclipse.ui.workbench,3.7.1.v20120104-1859,"",1377567187680
deactivated,workbench,org.eclipse.ui.workbench,3.7.1.v20120104-1859,"",1377567196918
activated,workbench,org.eclipse.ui.workbench,3.7.1.v20120104-1859,"",1377567197037
executed,command,org.eclipse.ui,3.7.0.v20110928-1505,"org.eclipse.ui.edit.text.contentAssist.proposals",1377567199992
deactivated,workbench,org.eclipse.ui.workbench,3.7.1.v20120104-1859,"",1377567210360
activated,workbench,org.eclipse.ui.workbench,3.7.1.v20120104-1859,"",1377567360612
executed,command,org.eclipse.ui,3.7.0.v20110928-1505,"org.eclipse.ui.edit.paste",1377567365763
executed,command,org.eclipse.ui,3.7.0.v20110928-1505,"org.eclipse.ui.edit.cut",1377567370931
executed,command,org.eclipse.ui,3.7.0.v20110928-1505,"org.eclipse.ui.edit.paste",1377567374083
executed,command,org.eclipse.ui,3.7.0.v20110928-1505,"org.eclipse.ui.edit.copy",1377567382674
executed,command,org.eclipse.ui,3.7.0.v20110928-1505,"org.eclipse.ui.edit.paste",1377567387684
deactivated,workbench,org.eclipse.ui.workbench,3.7.1.v20120104-1859,"",1377567422479
activated,workbench,org.eclipse.ui.workbench,3.7.1.v20120104-1859,"",1377567429451
executed,command,org.eclipse.ui,3.7.0.v20110928-1505,"org.eclipse.ui.edit.paste",1377567430250
deactivated,workbench,org.eclipse.ui.workbench,3.7.1.v20120104-1859,"",1377567444801
activated,workbench,org.eclipse.ui.workbench,3.7.1.v20120104-1859,"",1377567449387
executed,command,org.eclipse.jdt.ui,3.7.2.v20120109-1427,"org.eclipse.jdt.ui.edit.text.java.organize.imports",1377567449404
executed,command,org.eclipse.ui,3.7.0.v20110928-1505,"org.eclipse.ui.edit.copy",1377567456619
executed,command,org.eclipse.ui,3.7.0.v20110928-1505,"org.eclipse.ui.edit.paste",1377567461454
deactivated,workbench,org.eclipse.ui.workbench,3.7.1.v20120104-1859,"",1377567472693
activated,workbench,org.eclipse.ui.workbench,3.7.1.v20120104-1859,"",1377567472796
deactivated,workbench,org.eclipse.ui.workbench,3.7.1.v20120104-1859,"",1377567513409
activated,workbench,org.eclipse.ui.workbench,3.7.1.v20120104-1859,"",1377567515461
deactivated,workbench,org.eclipse.ui.workbench,3.7.1.v20120104-1859,"",1377567516587
activated,workbench,org.eclipse.ui.workbench,3.7.1.v20120104-1859,"",1377567540383
deactivated,workbench,org.eclipse.ui.workbench,3.7.1.v20120104-1859,"",1377567564390
activated,workbench,org.eclipse.ui.workbench,3.7.1.v20120104-1859,"",1377567603406
deactivated,workbench,org.eclipse.ui.workbench,3.7.1.v20120104-1859,"",1377567609548
activated,workbench,org.eclipse.ui.workbench,3.7.1.v20120104-1859,"",1377567635041
activated,editor,org.eclipse.jdt.ui,3.7.2.v20120109-1427,"org.eclipse.jdt.ui.CompilationUnitEditor",1377567664190
activated,editor,org.eclipse.jdt.ui,3.7.2.v20120109-1427,"org.eclipse.jdt.ui.CompilationUnitEditor",1377567665094
executed,command,org.eclipse.jdt.ui,3.7.2.v20120109-1427,"org.eclipse.jdt.ui.edit.text.java.organize.imports",1377567690570
activated,editor,org.eclipse.jdt.ui,3.7.2.v20120109-1427,"org.eclipse.jdt.ui.CompilationUnitEditor",1377567692751
deactivated,workbench,org.eclipse.ui.workbench,3.7.1.v20120104-1859,"",1377567693349
activated,workbench,org.eclipse.ui.workbench,3.7.1.v20120104-1859,"",1377567694182
deactivated,workbench,org.eclipse.ui.workbench,3.7.1.v20120104-1859,"",1377567695194
activated,workbench,org.eclipse.ui.workbench,3.7.1.v20120104-1859,"",1377567695593
activated,view,org.eclipse.ui.console,3.5.100.v20111007_r372,"org.eclipse.ui.console.ConsoleView",1377567696668
activated,editor,org.eclipse.jdt.ui,3.7.2.v20120109-1427,"org.eclipse.jdt.ui.CompilationUnitEditor",1377567706633
deactivated,workbench,org.eclipse.ui.workbench,3.7.1.v20120104-1859,"",1377567714384
activated,workbench,org.eclipse.ui.workbench,3.7.1.v20120104-1859,"",1377572122228
activated,view,org.eclipse.jdt.ui,3.7.2.v20120109-1427,"org.eclipse.jdt.ui.PackageExplorer",1377572123622
deactivated,workbench,org.eclipse.ui.workbench,3.7.1.v20120104-1859,"",1377572126507
activated,workbench,org.eclipse.ui.workbench,3.7.1.v20120104-1859,"",1377572129015
opened,editor,org.eclipse.jdt.ui,3.7.2.v20120109-1427,"org.eclipse.jdt.ui.CompilationUnitEditor",1377572129116
activated,editor,org.eclipse.jdt.ui,3.7.2.v20120109-1427,"org.eclipse.jdt.ui.CompilationUnitEditor",1377572129179
activated,view,org.eclipse.jdt.ui,3.7.2.v20120109-1427,"org.eclipse.jdt.ui.PackageExplorer",1377572130255
activated,editor,org.eclipse.jdt.ui,3.7.2.v20120109-1427,"org.eclipse.jdt.ui.CompilationUnitEditor",1377572132314
executed,command,org.eclipse.jdt.ui,3.7.2.v20120109-1427,"org.eclipse.jdt.ui.edit.text.java.organize.imports",1377572138405
executed,command,org.eclipse.ui,3.7.0.v20110928-1505,"org.eclipse.ui.file.saveAll",1377572141593
activated,editor,org.eclipse.jdt.ui,3.7.2.v20120109-1427,"org.eclipse.jdt.ui.CompilationUnitEditor",1377572142668
deactivated,workbench,org.eclipse.ui.workbench,3.7.1.v20120104-1859,"",1377572148124
activated,workbench,org.eclipse.ui.workbench,3.7.1.v20120104-1859,"",1377579456419
deactivated,workbench,org.eclipse.ui.workbench,3.7.1.v20120104-1859,"",1377579460009
activated,workbench,org.eclipse.ui.workbench,3.7.1.v20120104-1859,"",1377579476445
deactivated,workbench,org.eclipse.ui.workbench,3.7.1.v20120104-1859,"",1377579480379
activated,workbench,org.eclipse.ui.workbench,3.7.1.v20120104-1859,"",1377579483456
executed,command,org.eclipse.ui,3.7.0.v20110928-1505,"org.eclipse.ui.edit.paste",1377579490634
deactivated,workbench,org.eclipse.ui.workbench,3.7.1.v20120104-1859,"",1377579513407
activated,workbench,org.eclipse.ui.workbench,3.7.1.v20120104-1859,"",1377579513502
deactivated,workbench,org.eclipse.ui.workbench,3.7.1.v20120104-1859,"",1377579524775
activated,workbench,org.eclipse.ui.workbench,3.7.1.v20120104-1859,"",1377579529643
deactivated,workbench,org.eclipse.ui.workbench,3.7.1.v20120104-1859,"",1377579530529
activated,workbench,org.eclipse.ui.workbench,3.7.1.v20120104-1859,"",1377579534363
deactivated,workbench,org.eclipse.ui.workbench,3.7.1.v20120104-1859,"",1377579537914
activated,workbench,org.eclipse.ui.workbench,3.7.1.v20120104-1859,"",1377579552021
executed,command,org.eclipse.jdt.ui,3.7.2.v20120109-1427,"org.eclipse.jdt.ui.edit.text.java.organize.imports",1377579558505
deactivated,workbench,org.eclipse.ui.workbench,3.7.1.v20120104-1859,"",1377579566684
activated,workbench,org.eclipse.ui.workbench,3.7.1.v20120104-1859,"",1377579566765
deactivated,workbench,org.eclipse.ui.workbench,3.7.1.v20120104-1859,"",1377579581878
activated,workbench,org.eclipse.ui.workbench,3.7.1.v20120104-1859,"",1377579581950
deactivated,workbench,org.eclipse.ui.workbench,3.7.1.v20120104-1859,"",1377579598578
activated,workbench,org.eclipse.ui.workbench,3.7.1.v20120104-1859,"",1377579624317
executed,command,org.eclipse.ui,3.7.0.v20110928-1505,"org.eclipse.ui.edit.paste",1377579626485
deactivated,workbench,org.eclipse.ui.workbench,3.7.1.v20120104-1859,"",1377579636981
activated,workbench,org.eclipse.ui.workbench,3.7.1.v20120104-1859,"",1377579643543
deactivated,workbench,org.eclipse.ui.workbench,3.7.1.v20120104-1859,"",1377579655686
activated,workbench,org.eclipse.ui.workbench,3.7.1.v20120104-1859,"",1377579659952
deactivated,workbench,org.eclipse.ui.workbench,3.7.1.v20120104-1859,"",1377579671376
activated,workbench,org.eclipse.ui.workbench,3.7.1.v20120104-1859,"",1377579673182
activated,editor,org.eclipse.jdt.ui,3.7.2.v20120109-1427,"org.eclipse.jdt.ui.CompilationUnitEditor",1377579682496
executed,command,org.eclipse.jdt.ui,3.7.2.v20120109-1427,"org.eclipse.jdt.ui.edit.text.java.organize.imports",1377579692000
activated,editor,org.eclipse.jdt.ui,3.7.2.v20120109-1427,"org.eclipse.jdt.ui.CompilationUnitEditor",1377579707302
activated,editor,org.eclipse.jdt.ui,3.7.2.v20120109-1427,"org.eclipse.jdt.ui.CompilationUnitEditor",1377579708535
deactivated,workbench,org.eclipse.ui.workbench,3.7.1.v20120104-1859,"",1377579709284
activated,workbench,org.eclipse.ui.workbench,3.7.1.v20120104-1859,"",1377579710085
deactivated,workbench,org.eclipse.ui.workbench,3.7.1.v20120104-1859,"",1377579711217
activated,workbench,org.eclipse.ui.workbench,3.7.1.v20120104-1859,"",1377579711608
activated,view,org.eclipse.ui.console,3.5.100.v20111007_r372,"org.eclipse.ui.console.ConsoleView",1377579712498
deactivated,workbench,org.eclipse.ui.workbench,3.7.1.v20120104-1859,"",1377579717679
activated,workbench,org.eclipse.ui.workbench,3.7.1.v20120104-1859,"",1377579727600
deactivated,workbench,org.eclipse.ui.workbench,3.7.1.v20120104-1859,"",1377579732327
activated,workbench,org.eclipse.ui.workbench,3.7.1.v20120104-1859,"",1377579738145
activated,view,org.eclipse.jdt.ui,3.7.2.v20120109-1427,"org.eclipse.jdt.ui.PackageExplorer",1377579740200
executed,command,org.eclipse.ui,3.7.0.v20110928-1505,"org.eclipse.ui.file.refresh",1377579747839
activated,editor,org.eclipse.jdt.ui,3.7.2.v20120109-1427,"org.eclipse.jdt.ui.CompilationUnitEditor",1377579756690
deactivated,workbench,org.eclipse.ui.workbench,3.7.1.v20120104-1859,"",1377579757766
activated,workbench,org.eclipse.ui.workbench,3.7.1.v20120104-1859,"",1377579758158
activated,view,org.eclipse.ui.console,3.5.100.v20111007_r372,"org.eclipse.ui.console.ConsoleView",1377579758968
deactivated,workbench,org.eclipse.ui.workbench,3.7.1.v20120104-1859,"",1377579766210
activated,workbench,org.eclipse.ui.workbench,3.7.1.v20120104-1859,"",1377579771950
activated,editor,org.eclipse.jdt.ui,3.7.2.v20120109-1427,"org.eclipse.jdt.ui.CompilationUnitEditor",1377579773004
activated,view,org.eclipse.jdt.ui,3.7.2.v20120109-1427,"org.eclipse.jdt.ui.PackageExplorer",1377579774896
executed,command,org.eclipse.ui,3.7.0.v20110928-1505,"org.eclipse.ui.file.refresh",1377579776495
activated,editor,org.eclipse.jdt.ui,3.7.2.v20120109-1427,"org.eclipse.jdt.ui.CompilationUnitEditor",1377579777122
deactivated,workbench,org.eclipse.ui.workbench,3.7.1.v20120104-1859,"",1377579779085
activated,workbench,org.eclipse.ui.workbench,3.7.1.v20120104-1859,"",1377579779459
activated,view,org.eclipse.ui.console,3.5.100.v20111007_r372,"org.eclipse.ui.console.ConsoleView",1377579780114
deactivated,workbench,org.eclipse.ui.workbench,3.7.1.v20120104-1859,"",1377579800726
activated,workbench,org.eclipse.ui.workbench,3.7.1.v20120104-1859,"",1377580027259
deactivated,workbench,org.eclipse.ui.workbench,3.7.1.v20120104-1859,"",1377580031528
activated,workbench,org.eclipse.ui.workbench,3.7.1.v20120104-1859,"",1377580080864
activated,editor,org.eclipse.jdt.ui,3.7.2.v20120109-1427,"org.eclipse.jdt.ui.CompilationUnitEditor",1377580082458
deactivated,workbench,org.eclipse.ui.workbench,3.7.1.v20120104-1859,"",1377580084166
activated,workbench,org.eclipse.ui.workbench,3.7.1.v20120104-1859,"",1377580085713
activated,editor,org.eclipse.jdt.ui,3.7.2.v20120109-1427,"org.eclipse.jdt.ui.CompilationUnitEditor",1377580086519
deactivated,workbench,org.eclipse.ui.workbench,3.7.1.v20120104-1859,"",1377580096615
activated,workbench,org.eclipse.ui.workbench,3.7.1.v20120104-1859,"",1377580097284
deactivated,workbench,org.eclipse.ui.workbench,3.7.1.v20120104-1859,"",1377580099255
activated,workbench,org.eclipse.ui.workbench,3.7.1.v20120104-1859,"",1377580101162
deactivated,workbench,org.eclipse.ui.workbench,3.7.1.v20120104-1859,"",1377580101823
activated,workbench,org.eclipse.ui.workbench,3.7.1.v20120104-1859,"",1377580104707
activated,view,org.eclipse.jdt.ui,3.7.2.v20120109-1427,"org.eclipse.jdt.ui.PackageExplorer",1377580106188
executed,command,org.eclipse.ui,3.7.0.v20110928-1505,"org.eclipse.ui.file.refresh",1377580108001
activated,editor,org.eclipse.jdt.ui,3.7.2.v20120109-1427,"org.eclipse.jdt.ui.CompilationUnitEditor",1377580109223
activated,editor,org.eclipse.jdt.ui,3.7.2.v20120109-1427,"org.eclipse.jdt.ui.CompilationUnitEditor",1377580110290
deactivated,workbench,org.eclipse.ui.workbench,3.7.1.v20120104-1859,"",1377580112787
activated,workbench,org.eclipse.ui.workbench,3.7.1.v20120104-1859,"",1377580113157
activated,view,org.eclipse.jdt.ui,3.7.2.v20120109-1427,"org.eclipse.jdt.ui.PackageExplorer",1377580115476
started,bundle,org.eclipse.cdt.core.lrparser,5.2.0.201202111925,"org.eclipse.cdt.core.lrparser",1377580119923
started,bundle,org.eclipse.cdt.core.lrparser.xlc,5.1.0.201202111925,"org.eclipse.cdt.core.lrparser.xlc",1377580119923
started,bundle,org.eclipse.wst.sse.ui,1.3.2.v201201041522,"org.eclipse.wst.sse.ui",1377580124629
opened,editor,org.eclipse.ui.editors,3.7.0.v20110928-1504,"org.eclipse.ui.DefaultTextEditor",1377580124645
activated,editor,org.eclipse.ui.editors,3.7.0.v20110928-1504,"org.eclipse.ui.DefaultTextEditor",1377580124680
executed,command,org.eclipse.ui,3.7.0.v20110928-1505,"org.eclipse.ui.file.saveAll",1377580131853
activated,editor,org.eclipse.jdt.ui,3.7.2.v20120109-1427,"org.eclipse.jdt.ui.CompilationUnitEditor",1377580133241
closed,editor,org.eclipse.ui.editors,3.7.0.v20110928-1504,"org.eclipse.ui.DefaultTextEditor",1377580133241
deactivated,workbench,org.eclipse.ui.workbench,3.7.1.v20120104-1859,"",1377580137387
activated,workbench,org.eclipse.ui.workbench,3.7.1.v20120104-1859,"",1377580137756
deactivated,workbench,org.eclipse.ui.workbench,3.7.1.v20120104-1859,"",1377580139156
activated,workbench,org.eclipse.ui.workbench,3.7.1.v20120104-1859,"",1377580410269
activated,editor,org.eclipse.jdt.ui,3.7.2.v20120109-1427,"org.eclipse.jdt.ui.CompilationUnitEditor",1377580412180
activated,view,org.eclipse.ui.console,3.5.100.v20111007_r372,"org.eclipse.ui.console.ConsoleView",1377580414596
opened,editor,org.eclipse.jdt.ui,3.7.2.v20120109-1427,"org.eclipse.jdt.ui.ClassFileEditor",1377580419935
activated,editor,org.eclipse.jdt.ui,3.7.2.v20120109-1427,"org.eclipse.jdt.ui.ClassFileEditor",1377580420002
activated,view,org.eclipse.ui.console,3.5.100.v20111007_r372,"org.eclipse.ui.console.ConsoleView",1377580421962
activated,editor,org.eclipse.jdt.ui,3.7.2.v20120109-1427,"org.eclipse.jdt.ui.ClassFileEditor",1377580422020
activated,view,org.eclipse.ui.console,3.5.100.v20111007_r372,"org.eclipse.ui.console.ConsoleView",1377580424417
activated,editor,org.eclipse.jdt.ui,3.7.2.v20120109-1427,"org.eclipse.jdt.ui.CompilationUnitEditor",1377580424508
executed,command,org.eclipse.ui,3.7.0.v20110928-1505,"org.eclipse.ui.edit.copy",1377580451394
