<?xml version="1.0" encoding="UTF-8"?>
<session version="1.0">
<refactoring accessors="true" comment="Delete element from project &apos;RSCL&apos;&#x0D;&#x0A;- Original project: &apos;RSCL&apos;&#x0D;&#x0A;- Original element: &apos;jesse.rscl.UI.Dialogue.java&apos;" description="Delete element" element1="/src&lt;jesse.rscl.UI{Dialogue.java" elements="1" flags="589830" id="org.eclipse.jdt.ui.delete" resources="0" stamp="1382299164301" subPackages="false" version="1.0"/>
</session>